verilog/lab5/lab5_1/simulation/qsim/lab5_1.msim.vcd
$comment
	File created using the following command:
		vcd file lab5_1.msim.vcd -direction
$end
$date
	Fri Oct 11 18:13:13 2024
$end
$version
	ModelSim Version 10.5b
$end
$timescale
	1ps
$end

$scope module lab5_1_vlg_vec_tst $end
$var reg 1 ! clk $end
$var reg 4 " din [3:0] $end
$var reg 1 # srst_in $end
$var wire 1 $ q [7] $end
$var wire 1 % q [6] $end
$var wire 1 & q [5] $end
$var wire 1 ' q [4] $end
$var wire 1 ( q [3] $end
$var wire 1 ) q [2] $end
$var wire 1 * q [1] $end
$var wire 1 + q [0] $end

$scope module i1 $end
$var wire 1 , gnd $end
$var wire 1 - vcc $end
$var wire 1 . unknown $end
$var tri1 1 / devclrn $end
$var tri1 1 0 devpor $end
$var tri1 1 1 devoe $end
$var wire 1 2 q[0]~output_o $end
$var wire 1 3 q[1]~output_o $end
$var wire 1 4 q[2]~output_o $end
$var wire 1 5 q[3]~output_o $end
$var wire 1 6 q[4]~output_o $end
$var wire 1 7 q[5]~output_o $end
$var wire 1 8 q[6]~output_o $end
$var wire 1 9 q[7]~output_o $end
$var wire 1 : clk~input_o $end
$var wire 1 ; clk~inputclkctrl_outclk $end
$var wire 1 < din[2]~input_o $end
$var wire 1 = tmp_d[2]~feeder_combout $end
$var wire 1 > d[2]~feeder_combout $end
$var wire 1 ? srst_in~input_o $end
$var wire 1 @ tmp_srst~feeder_combout $end
$var wire 1 A tmp_srst~q $end
$var wire 1 B srst~q $end
$var wire 1 C din[0]~input_o $end
$var wire 1 D d[0]~feeder_combout $end
$var wire 1 E din[3]~input_o $end
$var wire 1 F tmp_d[3]~feeder_combout $end
$var wire 1 G din[1]~input_o $end
$var wire 1 H tmp_d[1]~feeder_combout $end
$var wire 1 I Equal2~1_combout $end
$var wire 1 J state~11_combout $end
$var wire 1 K Equal2~0_combout $end
$var wire 1 L state~10_combout $end
$var wire 1 M state~17_combout $end
$var wire 1 N state~9_combout $end
$var wire 1 O state~13_combout $end
$var wire 1 P state~16_combout $end
$var wire 1 Q state.s1~q $end
$var wire 1 R state~12_combout $end
$var wire 1 S state~15_combout $end
$var wire 1 T state.s2~q $end
$var wire 1 U state~8_combout $end
$var wire 1 V state~14_combout $end
$var wire 1 W state.s0~q $end
$var wire 1 X d [3] $end
$var wire 1 Y d [2] $end
$var wire 1 Z d [1] $end
$var wire 1 [ d [0] $end
$var wire 1 \ tmp_d [3] $end
$var wire 1 ] tmp_d [2] $end
$var wire 1 ^ tmp_d [1] $end
$var wire 1 _ tmp_d [0] $end
$upscope $end
$upscope $end
$enddefinitions $end
#0
$dumpvars
0!
b0 "
0#
0+
0*
0)
0(
0'
0&
0%
0$
0,
1-
x.
1/
10
11
02
03
04
05
06
07
08
09
0:
0;
0<
0=
0>
0?
0@
0A
0B
0C
0D
0E
0F
0G
0H
0I
1J
1K
0L
1M
0N
1O
0P
0Q
1R
0S
0T
0U
0V
0W
0[
0Z
0Y
0X
0_
0^
0]
0\
$end
#10000
1!
1:
1;
#20000
b1000 "
b1100 "
b1110 "
b1111 "
0!
1C
1G
1<
1E
0:
0;
1H
1=
1F
#30000
1!
1:
1;
1^
1\
1_
1]
1D
1>
#40000
b111 "
b11 "
b10 "
0!
0C
0<
0E
0:
0;
0=
0F
#50000
1!
1:
1;
1Z
1X
0\
1[
0_
1Y
0]
0K
0D
0>
#60000
b11 "
0!
1C
0:
0;
#70000
1!
1:
1;
0X
0[
1_
0Y
0J
1D
#80000
b1 "
b101 "
b100 "
0!
0C
0G
1<
0:
0;
0H
1=
#90000
1!
1:
1;
0^
1[
0_
1]
1J
0D
1>
#100000
b101 "
0!
1C
0:
0;
#110000
1!
1:
1;
0Z
0[
1_
1Y
1K
1I
1D
#120000
b111 "
b110 "
0!
0C
1G
0:
0;
1H
#130000
1!
1:
1;
1^
1[
0_
0K
0I
0D
#140000
b111 "
0!
1C
0:
0;
#150000
1!
1:
1;
1Z
0[
1_
1D
#160000
b1111 "
b1011 "
b1001 "
b1000 "
0!
0C
0G
0<
1E
0:
0;
0H
0=
1F
#170000
1!
1:
1;
0^
1\
1[
0_
0]
0D
0>
#180000
b1001 "
0!
1C
0:
0;
#190000
1!
1:
1;
0Z
1X
0[
1_
0Y
1K
1D
#200000
b1011 "
b1010 "
0!
0C
1G
0:
0;
1H
#210000
1!
1:
1;
1^
1[
0_
0K
0D
#220000
b1011 "
0!
1C
0:
0;
#230000
1!
1:
1;
1Z
0[
1_
1D
#240000
b1111 "
b1101 "
b1100 "
0!
0C
0G
1<
0:
0;
0H
1=
#250000
1!
1:
1;
0^
1[
0_
1]
0D
1>
#260000
b1101 "
0!
1C
0:
0;
#270000
1!
1:
1;
0Z
0[
1_
1Y
1K
1D
#280000
b1111 "
b1110 "
0!
0C
1G
0:
0;
1H
#290000
1!
1:
1;
1^
1[
0_
0K
0D
#300000
b110 "
b10 "
b0 "
b1 "
0!
1C
0G
0<
0E
0:
0;
0H
0=
0F
#310000
1!
1:
1;
1Z
0^
0\
0[
1_
0]
1D
0>
#320000
b0 "
0!
0C
0:
0;
#330000
1!
1:
1;
0Z
0X
1[
0_
0Y
1N
0D
0O
1V
1P
#340000
b1 "
0!
1C
0:
0;
#350000
1!
1:
1;
1Q
0[
1_
1W
12
14
16
18
0N
1K
1O
1%
1'
1)
1+
1D
#360000
b1001 "
b1101 "
b1111 "
0!
1G
1<
1E
0:
0;
1H
1=
1F
#370000
1!
1:
1;
1^
1\
1[
1]
1N
0K
1>
#380000
b111 "
b11 "
0!
0<
0E
0:
0;
0=
0F
#390000
1!
1:
1;
1Z
1X
0\
1Y
0]
0N
0>
#400000
b10 "
b0 "
b100 "
0!
0C
0G
1<
0:
0;
0H
1=
#410000
1!
1:
1;
0^
0X
0_
0Y
1]
0D
1>
#420000
b101 "
0!
1C
0:
0;
#430000
1!
1:
1;
0Z
0[
1_
1Y
1K
1I
1D
#440000
b111 "
b110 "
0!
0C
1G
0:
0;
1H
#450000
1!
1:
1;
1^
1[
0_
0K
0I
0D
#460000
b111 "
0!
1C
0:
0;
#470000
1!
1:
1;
1Z
0[
1_
1D
#480000
b1111 "
b1011 "
b1001 "
b1000 "
0!
0C
0G
0<
1E
0:
0;
0H
0=
1F
#490000
1!
1:
1;
0^
1\
1[
0_
0]
0D
0>
#500000
b1001 "
0!
1C
0:
0;
#510000
1!
1:
1;
0Z
1X
0[
1_
0Y
1K
1D
#520000
b1011 "
b1010 "
0!
0C
1G
0:
0;
1H
#530000
1!
1:
1;
1^
1[
0_
0K
0D
#540000
b1011 "
0!
1C
0:
0;
#550000
1!
1:
1;
1Z
0[
1_
1D
#560000
b1111 "
b1101 "
b1100 "
0!
0C
0G
1<
0:
0;
0H
1=
#570000
1!
1:
1;
0^
1[
0_
1]
0D
1>
#580000
b1101 "
0!
1C
0:
0;
#590000
1!
1:
1;
0Z
0[
1_
1Y
1K
1D
#600000
b1111 "
b1110 "
0!
0C
1G
0:
0;
1H
#610000
1!
1:
1;
1^
1[
0_
0K
0D
#620000
b110 "
b10 "
0!
0<
0E
0:
0;
0=
0F
#630000
1!
1:
1;
1Z
0\
0[
0]
0>
#640000
b0 "
0!
0G
0:
0;
0H
#650000
1!
1:
1;
0^
0X
0Y
0J
0R
0M
0O
1S
0P
#660000
b1 "
0!
1C
0:
0;
#670000
1!
1:
1;
0Q
0Z
1_
1T
13
15
17
19
1R
1M
1K
1J
1$
1&
1(
1*
1D
1O
0S
1P
1S
0P
#680000
b11 "
b10 "
0!
0C
1G
0:
0;
1H
#690000
1!
1:
1;
1^
1[
0_
1N
0K
0D
#700000
b11 "
0!
1C
0:
0;
#710000
1!
1:
1;
1Z
0[
1_
0N
0J
1D
#720000
b1011 "
b1111 "
0!
1<
1E
0:
0;
1=
1F
#730000
1!
1:
1;
1\
1[
1]
1J
1>
#740000
b1101 "
b101 "
0!
0G
0E
0:
0;
0H
0F
#750000
1!
1:
1;
0^
1X
0\
1Y
#760000
b100 "
b110 "
0!
0C
1G
0:
0;
1H
#770000
1!
1:
1;
0Z
1^
0X
0_
0D
#780000
b111 "
0!
1C
0:
0;
#790000
1!
1:
1;
1Z
0[
1_
1D
#800000
b1111 "
0!
1E
0:
0;
1F
#810000
1!
1:
1;
1\
1[
#820000
b1011 "
b1001 "
0!
0G
0<
0:
0;
0H
0=
#830000
1!
1:
1;
0^
1X
0]
0>
#840000
b1000 "
b1010 "
0!
0C
1G
0:
0;
1H
#850000
1!
1:
1;
0Z
1^
0_
0Y
0D
#860000
b1011 "
0!
1C
0:
0;
#870000
1!
1:
1;
1Z
0[
1_
1D
#880000
b1111 "
b1101 "
b1100 "
0!
0C
0G
1<
0:
0;
0H
1=
#890000
1!
1:
1;
0^
1[
0_
1]
0D
1>
#900000
b1101 "
0!
1C
0:
0;
#910000
1!
1:
1;
0Z
0[
1_
1Y
1K
1D
#920000
b1111 "
b1110 "
0!
0C
1G
0:
0;
1H
#930000
1!
1:
1;
1^
1[
0_
0K
0D
#940000
b110 "
b100 "
0!
0G
0E
0:
0;
0H
0F
#950000
1!
1:
1;
1Z
0^
0\
0[
#960000
b0 "
b10 "
0!
1G
0<
0:
0;
1H
0=
#970000
1!
1:
1;
0Z
1^
0X
0]
1K
1I
0>
1L
0O
0S
1P
#980000
b1010 "
b1000 "
0!
0G
1E
0:
0;
0H
1F
#990000
1!
1:
1;
1Q
1Z
0^
1\
0Y
0T
03
05
07
09
0K
0J
0I
0L
0$
0&
0(
0*
0R
0M
1O
0O
1S
0P
#1000000
b1001 "
b1 "
0!
1C
0E
0:
0;
0F
#1010000
1!
1:
1;
0Q
0Z
1X
0\
1_
1T
13
15
17
19
1R
1M
1K
1J
1$
1&
1(
1*
1D
1O
1U
1L
0S
1P
0O
0M
1S
0P
0V
0S
#1020000
1#
b11 "
0!
1?
1G
0:
0;
1@
1H
#1030000
1!
1:
1;
1^
0X
1[
1A
0W
0T
03
05
07
09
02
04
06
08
0U
1N
0L
0K
0%
0'
0)
0+
0$
0&
0(
0*
1M
1V
1P
#1040000
0#
b1 "
0!
0?
0G
0:
0;
0@
0H
#1050000
1!
1:
1;
1Q
1Z
0^
1B
0A
1W
12
14
16
18
0N
1O
1%
1'
1)
1+
0P
0V
#1060000
b0 "
b10 "
0!
0C
1G
0:
0;
1H
#1070000
1!
1:
1;
0Q
0Z
1^
0_
0B
0W
02
04
06
08
1N
0%
0'
0)
0+
0D
0O
1V
1P
#1080000
b0 "
0!
0G
0:
0;
0H
#1090000
1!
1:
1;
1Q
1Z
0^
0[
1W
12
14
16
18
0N
0J
1O
1%
1'
1)
1+
0R
0M
0O
1S
0P
#1100000
0!
0:
0;
#1110000
1!
1:
1;
0Q
0Z
1T
13
15
17
19
1R
1M
1K
1J
1$
1&
1(
1*
1O
0S
1P
1S
0P
#1120000
1#
0!
1?
0:
0;
1@
#1130000
1!
1:
1;
1A
#1140000
0#
0!
0?
0:
0;
0@
#1150000
1!
1:
1;
1B
0A
0V
0S
#1160000
0!
0:
0;
#1170000
1!
1:
1;
0B
0W
0T
03
05
07
09
02
04
06
08
0%
0'
0)
0+
0$
0&
0(
0*
#1180000
0!
0:
0;
#1190000
1!
1:
1;
#1200000
0!
0:
0;
#1210000
1!
1:
1;
#1220000
0!
0:
0;
#1230000
1!
1:
1;
#1240000
b100 "
b1100 "
b1110 "
0!
1G
1<
1E
0:
0;
1H
1=
1F
#1250000
1!
1:
1;
1^
1\
1]
1>
#1260000
b1111 "
0!
1C
0:
0;
#1270000
1!
1:
1;
1Z
1X
1_
1Y
0K
1D
#1280000
b1011 "
b11 "
b1 "
b0 "
0!
0C
0G
0<
0E
0:
0;
0H
0=
0F
#1290000
1!
1:
1;
0^
0\
1[
0_
0]
0D
0>
#1300000
b1 "
0!
1C
0:
0;
#1310000
1!
1:
1;
0Z
0X
0[
1_
0Y
1K
1D
#1320000
b11 "
b10 "
0!
0C
1G
0:
0;
1H
#1330000
1!
1:
1;
1^
1[
0_
1N
0K
0D
0O
1V
1P
#1340000
b11 "
0!
1C
0:
0;
#1350000
1!
1:
1;
1Q
1Z
0[
1_
1W
12
14
16
18
0N
0J
1O
1%
1'
1)
1+
1D
0R
0M
0O
1S
0P
#1360000
b111 "
b101 "
b100 "
0!
0C
0G
1<
0:
0;
0H
1=
#1370000
1!
1:
1;
0Q
0^
1[
0_
1]
1T
13
15
17
19
1R
1M
1J
1$
1&
1(
1*
0D
1>
1O
0S
1P
1S
0P
#1380000
b101 "
0!
1C
0:
0;
#1390000
1!
1:
1;
0Z
0[
1_
1Y
1K
1I
1D
1L
0O
0S
1P
#1400000
b111 "
b110 "
0!
0C
1G
0:
0;
1H
#1410000
1!
1:
1;
1Q
1^
1[
0_
0T
03
05
07
09
0K
0I
0L
0$
0&
0(
0*
0D
1O
#1420000
b111 "
0!
1C
0:
0;
#1430000
1!
1:
1;
1Z
0[
1_
1D
#1440000
b1111 "
b1011 "
b1001 "
b1000 "
0!
0C
0G
0<
1E
0:
0;
0H
0=
1F
#1450000
1!
1:
1;
0^
1\
1[
0_
0]
0D
0>
#1460000
b1001 "
0!
1C
0:
0;
#1470000
1!
1:
1;
0Z
1X
0[
1_
0Y
1K
1D
#1480000
b1011 "
b1010 "
0!
0C
1G
0:
0;
1H
#1490000
1!
1:
1;
1^
1[
0_
0K
0D
#1500000
b1011 "
0!
1C
0:
0;
#1510000
1!
1:
1;
1Z
0[
1_
1D
#1520000
b1111 "
b1101 "
b1100 "
0!
0C
0G
1<
0:
0;
0H
1=
#1530000
1!
1:
1;
0^
1[
0_
1]
0D
1>
#1540000
b1101 "
0!
1C
0:
0;
#1550000
1!
1:
1;
0Z
0[
1_
1Y
1K
1D
#1560000
b1111 "
b1110 "
0!
0C
1G
0:
0;
1H
#1570000
1!
1:
1;
1^
1[
0_
0K
0D
#1580000
b1111 "
0!
1C
0:
0;
#1590000
1!
1:
1;
1Z
0[
1_
1D
#1600000
b111 "
b11 "
b1 "
b0 "
0!
0C
0G
0<
0E
0:
0;
0H
0=
0F
#1610000
1!
1:
1;
0^
0\
1[
0_
0]
0D
0>
#1620000
b1 "
0!
1C
0:
0;
#1630000
1!
1:
1;
0Z
0X
0[
1_
0Y
1K
1D
#1640000
b11 "
b10 "
0!
0C
1G
0:
0;
1H
#1650000
1!
1:
1;
1^
1[
0_
1N
0K
0D
#1660000
b11 "
0!
1C
0:
0;
#1670000
1!
1:
1;
1Z
0[
1_
0N
0J
1D
0R
0M
0O
1S
0P
#1680000
b111 "
b101 "
b100 "
0!
0C
0G
1<
0:
0;
0H
1=
#1690000
1!
1:
1;
0Q
0^
1[
0_
1]
1T
13
15
17
19
1R
1M
1J
1$
1&
1(
1*
0D
1>
1O
0S
1P
1S
0P
#1700000
b101 "
0!
1C
0:
0;
#1710000
1!
1:
1;
0Z
0[
1_
1Y
1K
1I
1D
1L
0O
0S
1P
#1720000
b111 "
b110 "
0!
0C
1G
0:
0;
1H
#1730000
1!
1:
1;
1Q
1^
1[
0_
0T
03
05
07
09
0K
0I
0L
0$
0&
0(
0*
0D
1O
#1740000
b111 "
0!
1C
0:
0;
#1750000
1!
1:
1;
1Z
0[
1_
1D
#1760000
b1111 "
b1011 "
b1001 "
b1000 "
0!
0C
0G
0<
1E
0:
0;
0H
0=
1F
#1770000
1!
1:
1;
0^
1\
1[
0_
0]
0D
0>
#1780000
b1001 "
0!
1C
0:
0;
#1790000
1!
1:
1;
0Z
1X
0[
1_
0Y
1K
1D
#1800000
b1011 "
b1010 "
0!
0C
1G
0:
0;
1H
#1810000
1!
1:
1;
1^
1[
0_
0K
0D
#1820000
b1011 "
0!
1C
0:
0;
#1830000
1!
1:
1;
1Z
0[
1_
1D
#1840000
b1111 "
b1101 "
b1100 "
0!
0C
0G
1<
0:
0;
0H
1=
#1850000
1!
1:
1;
0^
1[
0_
1]
0D
1>
#1860000
b1101 "
0!
1C
0:
0;
#1870000
1!
1:
1;
0Z
0[
1_
1Y
1K
1D
#1880000
b1111 "
b1110 "
0!
0C
1G
0:
0;
1H
#1890000
1!
1:
1;
1^
1[
0_
0K
0D
#1900000
b1111 "
0!
1C
0:
0;
#1910000
1!
1:
1;
1Z
0[
1_
1D
#1920000
b111 "
b11 "
b1 "
b0 "
0!
0C
0G
0<
0E
0:
0;
0H
0=
0F
#1930000
1!
1:
1;
0^
0\
1[
0_
0]
0D
0>
#1940000
b1 "
0!
1C
0:
0;
#1950000
1!
1:
1;
0Z
0X
0[
1_
0Y
1K
1D
#1960000
b11 "
b10 "
0!
0C
1G
0:
0;
1H
#1970000
1!
1:
1;
1^
1[
0_
1N
0K
0D
#1980000
b11 "
0!
1C
0:
0;
#1990000
1!
1:
1;
1Z
0[
1_
0N
0J
1D
0R
0M
0O
1S
0P
