verilog/lab5/lab5_1/simulation/qsim/lab5_1.msim.vcd
$comment
	File created using the following command:
		vcd file lab5_1.msim.vcd -direction
$end
$date
	Wed Oct 09 04:16:56 2024
$end
$version
	ModelSim Version 10.5b
$end
$timescale
	1ps
$end

$scope module lab5_1_vlg_vec_tst $end
$var reg 1 ! clk $end
$var reg 4 " din [3:0] $end
$var reg 1 # srst_in $end
$var wire 1 $ q [7] $end
$var wire 1 % q [6] $end
$var wire 1 & q [5] $end
$var wire 1 ' q [4] $end
$var wire 1 ( q [3] $end
$var wire 1 ) q [2] $end
$var wire 1 * q [1] $end
$var wire 1 + q [0] $end

$scope module i1 $end
$var wire 1 , gnd $end
$var wire 1 - vcc $end
$var wire 1 . unknown $end
$var tri1 1 / devclrn $end
$var tri1 1 0 devpor $end
$var tri1 1 1 devoe $end
$var wire 1 2 q[0]~output_o $end
$var wire 1 3 q[1]~output_o $end
$var wire 1 4 q[2]~output_o $end
$var wire 1 5 q[3]~output_o $end
$var wire 1 6 q[4]~output_o $end
$var wire 1 7 q[5]~output_o $end
$var wire 1 8 q[6]~output_o $end
$var wire 1 9 q[7]~output_o $end
$var wire 1 : clk~input_o $end
$var wire 1 ; clk~inputclkctrl_outclk $end
$var wire 1 < din[2]~input_o $end
$var wire 1 = tmp_d[2]~feeder_combout $end
$var wire 1 > d[2]~feeder_combout $end
$var wire 1 ? srst_in~input_o $end
$var wire 1 @ tmp_srst~feeder_combout $end
$var wire 1 A tmp_srst~q $end
$var wire 1 B srst~q $end
$var wire 1 C din[0]~input_o $end
$var wire 1 D d[0]~feeder_combout $end
$var wire 1 E din[3]~input_o $end
$var wire 1 F tmp_d[3]~feeder_combout $end
$var wire 1 G din[1]~input_o $end
$var wire 1 H tmp_d[1]~feeder_combout $end
$var wire 1 I Equal2~1_combout $end
$var wire 1 J state~11_combout $end
$var wire 1 K Equal2~0_combout $end
$var wire 1 L state~10_combout $end
$var wire 1 M state~17_combout $end
$var wire 1 N state~9_combout $end
$var wire 1 O state~13_combout $end
$var wire 1 P state~16_combout $end
$var wire 1 Q state.s1~q $end
$var wire 1 R state~12_combout $end
$var wire 1 S state~15_combout $end
$var wire 1 T state.s2~q $end
$var wire 1 U state~8_combout $end
$var wire 1 V state~14_combout $end
$var wire 1 W state.s0~q $end
$var wire 1 X d [3] $end
$var wire 1 Y d [2] $end
$var wire 1 Z d [1] $end
$var wire 1 [ d [0] $end
$var wire 1 \ tmp_d [3] $end
$var wire 1 ] tmp_d [2] $end
$var wire 1 ^ tmp_d [1] $end
$var wire 1 _ tmp_d [0] $end
$upscope $end
$upscope $end
$enddefinitions $end
#0
$dumpvars
0!
b0 "
0#
0+
0*
0)
0(
0'
0&
0%
0$
0,
1-
x.
1/
10
11
02
03
04
05
06
07
08
09
0:
0;
0<
0=
0>
0?
0@
0A
0B
0C
0D
0E
0F
0G
0H
0I
1J
1K
0L
1M
0N
1O
0P
0Q
1R
0S
0T
0U
0V
0W
0[
0Z
0Y
0X
0_
0^
0]
0\
$end
#10000
1!
1:
1;
#20000
b1 "
0!
1C
0:
0;
#30000
1!
1:
1;
1_
1D
#40000
b0 "
0!
0C
0:
0;
#50000
1!
1:
1;
1[
0_
1N
0K
0D
0O
1V
1P
#60000
0!
0:
0;
#70000
1!
1:
1;
1Q
0[
1W
12
14
16
18
0N
1K
1O
1%
1'
1)
1+
#80000
0!
0:
0;
#90000
1!
1:
1;
#100000
0!
0:
0;
#110000
1!
1:
1;
#120000
b10 "
0!
1G
0:
0;
1H
#130000
1!
1:
1;
1^
#140000
b0 "
0!
0G
0:
0;
0H
#150000
1!
1:
1;
1Z
0^
0K
0J
0R
0M
0O
1S
0P
#160000
0!
0:
0;
#170000
1!
1:
1;
0Q
0Z
1T
13
15
17
19
1R
1M
1K
1J
1$
1&
1(
1*
1O
0S
1P
1S
0P
#180000
b100 "
0!
1<
0:
0;
1=
#190000
1!
1:
1;
1]
1>
#200000
b0 "
0!
0<
0:
0;
0=
#210000
1!
1:
1;
1Y
0]
1L
1I
0>
0O
0S
1P
#220000
0!
0:
0;
#230000
1!
1:
1;
1Q
0Y
0T
03
05
07
09
0L
0I
0$
0&
0(
0*
1O
#240000
b10 "
0!
1G
0:
0;
1H
#250000
1!
1:
1;
1^
#260000
b0 "
0!
0G
0:
0;
0H
#270000
1!
1:
1;
1Z
0^
0K
0J
0R
0M
0O
1S
0P
#280000
0!
0:
0;
#290000
1!
1:
1;
0Q
0Z
1T
13
15
17
19
1R
1M
1K
1J
1$
1&
1(
1*
1O
0S
1P
1S
0P
#300000
0!
0:
0;
#310000
1!
1:
1;
#320000
b1000 "
0!
1E
0:
0;
1F
#330000
1!
1:
1;
1\
#340000
b0 "
0!
0E
0:
0;
0F
#350000
1!
1:
1;
1X
0\
1U
1L
0O
0M
0V
0S
#360000
0!
0:
0;
#370000
1!
1:
1;
0X
0W
0T
03
05
07
09
02
04
06
08
0U
0L
0%
0'
0)
0+
0$
0&
0(
0*
1O
1M
1V
0V
#380000
b1 "
0!
1C
0:
0;
#390000
1!
1:
1;
1_
1D
#400000
b0 "
0!
0C
0:
0;
#410000
1!
1:
1;
1[
0_
1N
0K
0D
0O
1V
1P
#420000
1#
0!
1?
0:
0;
1@
#430000
1!
1:
1;
1Q
0[
1A
1W
12
14
16
18
0N
1K
1O
1%
1'
1)
1+
#440000
0!
0:
0;
#450000
1!
1:
1;
1B
0V
0P
#460000
0!
0:
0;
#470000
1!
1:
1;
0Q
0W
02
04
06
08
0%
0'
0)
0+
#480000
0!
0:
0;
#490000
1!
1:
1;
#500000
0!
0:
0;
#510000
1!
1:
1;
#520000
0!
0:
0;
#530000
1!
1:
1;
#540000
0!
0:
0;
#550000
1!
1:
1;
#560000
0!
0:
0;
#570000
1!
1:
1;
#580000
0!
0:
0;
#590000
1!
1:
1;
#600000
0!
0:
0;
#610000
1!
1:
1;
#620000
0#
0!
0?
0:
0;
0@
#630000
1!
1:
1;
0A
#640000
0!
0:
0;
#650000
1!
1:
1;
0B
#660000
0!
0:
0;
#670000
1!
1:
1;
#680000
0!
0:
0;
#690000
1!
1:
1;
#700000
0!
0:
0;
#710000
1!
1:
1;
#720000
0!
0:
0;
#730000
1!
1:
1;
#740000
0!
0:
0;
#750000
1!
1:
1;
#760000
0!
0:
0;
#770000
1!
1:
1;
#780000
0!
0:
0;
#790000
1!
1:
1;
#800000
0!
0:
0;
#810000
1!
1:
1;
#820000
0!
0:
0;
#830000
1!
1:
1;
#840000
0!
0:
0;
#850000
1!
1:
1;
#860000
0!
0:
0;
#870000
1!
1:
1;
#880000
0!
0:
0;
#890000
1!
1:
1;
#900000
0!
0:
0;
#910000
1!
1:
1;
#920000
0!
0:
0;
#930000
1!
1:
1;
#940000
0!
0:
0;
#950000
1!
1:
1;
#960000
0!
0:
0;
#970000
1!
1:
1;
#980000
0!
0:
0;
#990000
1!
1:
1;
