OVTCurseQ/simulation/qsim/CP.msim.vcd
$comment
	File created using the following command:
		vcd file CP.msim.vcd -direction
$end
$date
	Tue Apr 30 15:15:50 2024
$end
$version
	ModelSim Version 10.5b
$end
$timescale
	1ps
$end

$scope module TT_vlg_vec_tst $end
$var reg 1 ! clk $end
$var reg 2 " X [1:0] $end
$var wire 1 # Q [3] $end
$var wire 1 $ Q [2] $end
$var wire 1 % Q [1] $end
$var wire 1 & Q [0] $end

$scope module i1 $end
$var wire 1 ' gnd $end
$var wire 1 ( vcc $end
$var wire 1 ) unknown $end
$var tri1 1 * devclrn $end
$var tri1 1 + devpor $end
$var tri1 1 , devoe $end
$var wire 1 - Q[3]~output_o $end
$var wire 1 . Q[2]~output_o $end
$var wire 1 / Q[1]~output_o $end
$var wire 1 0 Q[0]~output_o $end
$var wire 1 1 clk~input_o $end
$var wire 1 2 clk~inputclkctrl_outclk $end
$var wire 1 3 X[0]~input_o $end
$var wire 1 4 X[1]~input_o $end
$var wire 1 5 inst1~0_combout $end
$var wire 1 6 inst1~q $end
$var wire 1 7 inst10~0_combout $end
$var wire 1 8 inst10~1_combout $end
$var wire 1 9 inst10~q $end
$var wire 1 : inst23~0_combout $end
$var wire 1 ; inst23~1_combout $end
$var wire 1 < inst23~2_combout $end
$var wire 1 = inst23~q $end
$var wire 1 > inst39~0_combout $end
$var wire 1 ? inst33~0_combout $end
$var wire 1 @ inst33~q $end
$upscope $end
$upscope $end
$enddefinitions $end
#0
$dumpvars
0!
b1 "
0&
0%
0$
0#
0'
1(
x)
1*
1+
1,
0-
0.
0/
00
01
02
13
04
15
06
17
08
09
1:
0;
0<
0=
0>
0?
0@
$end
#10000
1!
11
12
16
10
1&
1<
18
05
#20000
0!
01
02
#30000
1!
11
12
1=
19
06
00
1/
1.
1;
0:
1$
1%
0&
0<
15
1<
#40000
0!
01
02
#50000
1!
11
12
16
10
1>
1&
0<
08
05
1?
#60000
0!
01
02
#70000
1!
11
12
1@
0=
09
06
00
0/
0.
1-
0>
0;
1#
0$
0%
0&
0?
1<
15
1?
0<
#80000
0!
01
02
#90000
1!
11
12
16
10
1&
18
05
#100000
0!
01
02
#110000
1!
11
12
19
06
00
1/
1:
1%
0&
15
#120000
0!
01
02
#130000
1!
11
12
16
10
1&
1<
08
05
#140000
0!
01
02
#150000
1!
11
12
1=
09
06
00
0/
1.
1;
1$
0%
0&
0<
15
1<
#160000
0!
01
02
#170000
1!
11
12
16
10
1&
18
05
#180000
0!
01
02
#190000
1!
11
12
19
06
00
1/
07
1%
0&
15
#200000
0!
01
02
#210000
1!
11
12
16
10
1>
1&
05
0?
#220000
b11 "
b10 "
0!
03
14
01
02
0>
1?
#230000
1!
11
12
06
00
0&
08
#240000
0!
01
02
#250000
1!
11
12
09
0/
0;
0:
0%
0<
#260000
0!
01
02
#270000
1!
11
12
0=
0.
0$
0?
#280000
0!
01
02
#290000
1!
11
12
0@
0-
1:
0#
#300000
0!
01
02
#310000
1!
11
12
#320000
0!
01
02
#330000
1!
11
12
#340000
0!
01
02
#350000
1!
11
12
#360000
0!
01
02
#370000
1!
11
12
#380000
0!
01
02
#390000
1!
11
12
#400000
0!
01
02
#410000
1!
11
12
#420000
0!
01
02
#430000
1!
11
12
#440000
0!
01
02
#450000
1!
11
12
#460000
0!
01
02
#470000
1!
11
12
#480000
0!
01
02
#490000
1!
11
12
#500000
0!
01
02
#510000
1!
11
12
#520000
0!
01
02
#530000
1!
11
12
#540000
0!
01
02
#550000
1!
11
12
#560000
0!
01
02
#570000
1!
11
12
#580000
0!
01
02
#590000
1!
11
12
#600000
0!
01
02
#610000
b0 "
b1 "
1!
13
04
11
12
17
15
#620000
0!
01
02
#630000
1!
11
12
16
10
1&
1<
18
05
#640000
0!
01
02
#650000
1!
11
12
1=
19
06
00
1/
1.
1;
0:
1$
1%
0&
0<
15
1<
#660000
0!
01
02
#670000
1!
11
12
16
10
1>
1&
0<
08
05
1?
#680000
0!
01
02
#690000
1!
11
12
1@
0=
09
06
00
0/
0.
1-
0>
0;
1#
0$
0%
0&
0?
1<
15
1?
0<
#700000
0!
01
02
#710000
1!
11
12
16
10
1&
18
05
#720000
0!
01
02
#730000
1!
11
12
19
06
00
1/
1:
1%
0&
15
#740000
0!
01
02
#750000
1!
11
12
16
10
1&
1<
08
05
#760000
0!
01
02
#770000
1!
11
12
1=
09
06
00
0/
1.
1;
1$
0%
0&
0<
15
1<
#780000
0!
01
02
#790000
1!
11
12
16
10
1&
18
05
#800000
0!
01
02
#810000
1!
11
12
19
06
00
1/
07
1%
0&
15
#820000
0!
01
02
#830000
1!
11
12
16
10
1>
1&
05
0?
#840000
0!
01
02
#850000
1!
11
12
0@
06
00
0-
0:
17
0>
0#
0&
1?
15
0?
#860000
0!
01
02
#870000
b0 "
1!
03
11
12
07
05
16
10
1&
15
#880000
0!
01
02
#890000
1!
11
12
#900000
0!
01
02
#910000
1!
11
12
#920000
0!
01
02
#930000
1!
11
12
#940000
0!
01
02
#950000
1!
11
12
#960000
0!
01
02
#970000
1!
11
12
#980000
0!
01
02
#990000
1!
11
12
