смехотехника/сем1/Wagner/lab4/simulation/qsim/lab4.msim.vcd
$comment
	File created using the following command:
		vcd file lab4.msim.vcd -direction
$end
$date
	Fri Apr 05 21:45:40 2024
$end
$version
	ModelSim Version 10.5b
$end
$timescale
	1ps
$end

$scope module lab4_vlg_vec_tst $end
$var reg 1 ! clk $end
$var reg 1 " reset_n $end
$var reg 2 # X [2:1] $end
$var wire 1 $ Q [2] $end
$var wire 1 % Q [1] $end
$var wire 1 & Y [2] $end
$var wire 1 ' Y [1] $end

$scope module i1 $end
$var wire 1 ( gnd $end
$var wire 1 ) vcc $end
$var wire 1 * unknown $end
$var tri1 1 + devclrn $end
$var tri1 1 , devpor $end
$var tri1 1 - devoe $end
$var wire 1 . Q[2]~output_o $end
$var wire 1 / Q[1]~output_o $end
$var wire 1 0 Y[2]~output_o $end
$var wire 1 1 Y[1]~output_o $end
$var wire 1 2 clk~input_o $end
$var wire 1 3 clk~inputclkctrl_outclk $end
$var wire 1 4 X[1]~input_o $end
$var wire 1 5 X[2]~input_o $end
$var wire 1 6 inst3~0_combout $end
$var wire 1 7 reset_n~input_o $end
$var wire 1 8 reset_n~inputclkctrl_outclk $end
$var wire 1 9 inst3~q $end
$var wire 1 : inst4~0_combout $end
$var wire 1 ; inst4~q $end
$upscope $end
$upscope $end
$enddefinitions $end
#0
$dumpvars
0!
0"
b0 #
x%
x$
x'
x&
0(
1)
x*
1+
1,
1-
x.
x/
x0
x1
02
x3
04
05
x6
07
x8
09
x:
0;
$end
#158
03
08
#1217
16
#2936
01
0'
#2952
0/
0%
#3110
1:
#3533
10
0.
0$
1&
#5000
1!
#5596
12
#5776
13
#10000
0!
#10761
02
#10919
03
#15000
1!
#15596
12
#15776
13
#20000
0!
#20761
02
#20919
03
#25000
1!
#25596
12
#25776
13
#30000
0!
#30761
02
#30919
03
#35000
1!
#35596
12
#35776
13
#40000
0!
#40761
02
#40919
03
#45000
1!
#45596
12
#45776
13
#50000
1"
0!
#50596
17
#50761
02
#50776
18
#50919
03
#55000
1!
#55596
12
#55776
13
#57282
19
1;
#60000
0!
#60185
11
1'
#60203
1/
1%
#60761
02
#60780
00
1.
1$
0&
#60919
03
#65000
1!
#65596
12
#65776
13
#70000
0!
#70761
02
#70919
03
#75000
1!
#75596
12
#75776
13
#80000
0!
#80761
02
#80919
03
#85000
1!
#85596
12
#85776
13
#90000
b10 #
0!
#90596
15
#90761
02
#90919
03
#91825
06
#95000
1!
#95596
12
#95776
13
#97282
09
#97711
0:
#100000
0"
0!
#100234
0/
0%
#100761
02
07
#100919
08
03
#102442
0;
#102795
1:
#105000
1!
#105378
01
0'
#105596
12
#105776
13
#105975
10
0.
0$
1&
#110000
0!
#110761
02
#110919
03
#115000
1!
#115596
12
#115776
13
#120000
0!
#120761
02
#120919
03
#125000
1!
#125596
12
#125776
13
#130000
0!
#130761
02
#130919
03
#135000
1!
#135596
12
#135776
13
#140000
0!
#140761
02
#140919
03
#145000
1!
#145596
12
#145776
13
#150000
1"
0!
#150596
17
#150761
02
#150776
18
#150919
03
#155000
1!
#155596
12
#155776
13
#157282
1;
#157651
0:
#160000
b0 #
0!
#160185
11
1'
#160761
02
05
#160780
00
1.
1$
0&
#160919
03
#161978
16
#165000
1!
#165596
12
#165776
13
#167282
19
0;
#167635
1:
#170000
0!
#170203
1/
1%
#170218
01
0'
#170761
02
#170815
10
0.
0$
1&
#170919
03
#175000
1!
#175596
12
#175776
13
#177282
1;
#180000
b1 #
b11 #
0!
#180185
11
1'
#180596
15
14
#180761
02
#180780
00
1.
1$
0&
#180919
03
#181825
06
#183456
0:
#185000
1!
#185596
12
#185776
13
#187282
09
0;
#187635
1:
#190000
0!
#190218
01
0'
#190234
0/
0%
#190761
02
#190815
10
0.
0$
1&
#190919
03
#195000
1!
#195596
12
#195776
13
#197282
1;
#197651
0:
#200000
0"
0!
#200185
11
1'
#200761
02
07
#200780
00
1.
1$
0&
#200919
08
03
#202442
0;
#202795
1:
#205000
1!
#205378
01
0'
#205596
12
#205776
13
#205975
10
0.
0$
1&
#210000
0!
#210761
02
#210919
03
#215000
1!
#215596
12
#215776
13
#220000
0!
#220761
02
#220919
03
#225000
1!
#225596
12
#225776
13
#230000
b10 #
b0 #
0!
#230761
02
05
04
#230919
03
#231978
16
#232134
0:
#233871
1:
#235000
1!
#235596
12
#235776
13
#240000
0!
#240761
02
#240919
03
#245000
1!
#245596
12
#245776
13
#250000
1"
0!
#250596
17
#250761
02
#250776
18
#250919
03
#255000
1!
#255596
12
#255776
13
#257282
19
1;
#260000
0!
#260185
11
1'
#260203
1/
1%
#260761
02
#260780
00
1.
1$
0&
#260919
03
#265000
1!
#265596
12
#265776
13
#270000
0!
#270761
02
#270919
03
#275000
1!
#275596
12
#275776
13
#280000
0!
#280761
02
#280919
03
#285000
1!
#285596
12
#285776
13
#290000
0!
#290761
02
#290919
03
#295000
1!
#295596
12
#295776
13
#300000
0"
0!
#300761
02
07
#300919
08
03
#302442
0;
09
#305000
1!
#305378
01
0'
#305394
0/
0%
#305596
12
#305776
13
#305975
10
0.
0$
1&
#310000
0!
#310761
02
#310919
03
#315000
1!
#315596
12
#315776
13
#320000
0!
#320761
02
#320919
03
#325000
1!
#325596
12
#325776
13
#330000
0!
#330761
02
#330919
03
#335000
1!
#335596
12
#335776
13
#340000
0!
#340761
02
#340919
03
#345000
1!
#345596
12
#345776
13
#350000
1"
0!
#350596
17
#350761
02
#350776
18
#350919
03
#355000
1!
#355596
12
#355776
13
#357282
19
1;
#360000
0!
#360185
11
1'
#360203
1/
1%
#360761
02
#360780
00
1.
1$
0&
#360919
03
#365000
1!
#365596
12
#365776
13
#370000
0!
#370761
02
#370919
03
#375000
1!
#375596
12
#375776
13
#380000
0!
#380761
02
#380919
03
#385000
1!
#385596
12
#385776
13
#390000
0!
#390761
02
#390919
03
#395000
1!
#395596
12
#395776
13
#400000
0"
0!
#400761
02
07
#400919
08
03
#402442
0;
09
#405000
1!
#405378
01
0'
#405394
0/
0%
#405596
12
#405776
13
#405975
10
0.
0$
1&
#410000
0!
#410761
02
#410919
03
#415000
1!
#415596
12
#415776
13
#420000
0!
#420761
02
#420919
03
#425000
1!
#425596
12
#425776
13
#430000
0!
#430761
02
#430919
03
#435000
1!
#435596
12
#435776
13
#440000
0!
#440761
02
#440919
03
#445000
1!
#445596
12
#445776
13
#450000
1"
0!
#450596
17
#450761
02
#450776
18
#450919
03
#455000
1!
#455596
12
#455776
13
#457282
19
1;
#460000
0!
#460185
11
1'
#460203
1/
1%
#460761
02
#460780
00
1.
1$
0&
#460919
03
#465000
1!
#465596
12
#465776
13
#470000
0!
#470761
02
#470919
03
#475000
1!
#475596
12
#475776
13
#480000
0!
#480761
02
#480919
03
#485000
1!
#485596
12
#485776
13
#490000
0!
#490761
02
#490919
03
#495000
1!
#495596
12
#495776
13
#500000
0"
0!
#500761
02
07
#500919
08
03
#502442
0;
09
#505000
1!
#505378
01
0'
#505394
0/
0%
#505596
12
#505776
13
#505975
10
0.
0$
1&
#510000
0!
#510761
02
#510919
03
#515000
1!
#515596
12
#515776
13
#520000
0!
#520761
02
#520919
03
#525000
1!
#525596
12
#525776
13
#530000
0!
#530761
02
#530919
03
#535000
1!
#535596
12
#535776
13
#540000
0!
#540761
02
#540919
03
#545000
1!
#545596
12
#545776
13
#550000
1"
0!
#550596
17
#550761
02
#550776
18
#550919
03
#555000
1!
#555596
12
#555776
13
#557282
19
1;
#560000
0!
#560185
11
1'
#560203
1/
1%
#560761
02
#560780
00
1.
1$
0&
#560919
03
#565000
1!
#565596
12
#565776
13
#570000
0!
#570761
02
#570919
03
#575000
1!
#575596
12
#575776
13
#580000
0!
#580761
02
#580919
03
#585000
1!
#585596
12
#585776
13
#590000
0!
#590761
02
#590919
03
#595000
1!
#595596
12
#595776
13
#600000
0"
0!
#600761
02
07
#600919
08
03
#602442
0;
09
#605000
1!
#605378
01
0'
#605394
0/
0%
#605596
12
#605776
13
#605975
10
0.
0$
1&
#610000
0!
#610761
02
#610919
03
#615000
1!
#615596
12
#615776
13
#620000
0!
#620761
02
#620919
03
#625000
1!
#625596
12
#625776
13
#630000
0!
#630761
02
#630919
03
#635000
1!
#635596
12
#635776
13
#640000
0!
#640761
02
#640919
03
#645000
1!
#645596
12
#645776
13
#650000
1"
0!
#650596
17
#650761
02
#650776
18
#650919
03
#655000
1!
#655596
12
#655776
13
#657282
19
1;
#660000
0!
#660185
11
1'
#660203
1/
1%
#660761
02
#660780
00
1.
1$
0&
#660919
03
#665000
1!
#665596
12
#665776
13
#670000
0!
#670761
02
#670919
03
#675000
1!
#675596
12
#675776
13
#680000
0!
#680761
02
#680919
03
#685000
1!
#685596
12
#685776
13
#690000
0!
#690761
02
#690919
03
#695000
1!
#695596
12
#695776
13
#700000
0"
0!
#700761
02
07
#700919
08
03
#702442
0;
09
#705000
1!
#705378
01
0'
#705394
0/
0%
#705596
12
#705776
13
#705975
10
0.
0$
1&
#710000
0!
#710761
02
#710919
03
#715000
1!
#715596
12
#715776
13
#720000
0!
#720761
02
#720919
03
#725000
1!
#725596
12
#725776
13
#730000
0!
#730761
02
#730919
03
#735000
1!
#735596
12
#735776
13
#740000
0!
#740761
02
#740919
03
#745000
1!
#745596
12
#745776
13
#750000
1"
0!
#750596
17
#750761
02
#750776
18
#750919
03
#755000
1!
#755596
12
#755776
13
#757282
19
1;
#760000
0!
#760185
11
1'
#760203
1/
1%
#760761
02
#760780
00
1.
1$
0&
#760919
03
#765000
1!
#765596
12
#765776
13
#770000
0!
#770761
02
#770919
03
#775000
1!
#775596
12
#775776
13
#780000
0!
#780761
02
#780919
03
#785000
1!
#785596
12
#785776
13
#790000
0!
#790761
02
#790919
03
#795000
1!
#795596
12
#795776
13
#800000
0"
0!
#800761
02
07
#800919
08
03
#802442
0;
09
#805000
1!
#805378
01
0'
#805394
0/
0%
#805596
12
#805776
13
#805975
10
0.
0$
1&
#810000
0!
#810761
02
#810919
03
#815000
1!
#815596
12
#815776
13
#820000
0!
#820761
02
#820919
03
#825000
1!
#825596
12
#825776
13
#830000
0!
#830761
02
#830919
03
#835000
1!
#835596
12
#835776
13
#840000
0!
#840761
02
#840919
03
#845000
1!
#845596
12
#845776
13
#850000
1"
0!
#850596
17
#850761
02
#850776
18
#850919
03
#855000
1!
#855596
12
#855776
13
#857282
19
1;
#860000
0!
#860185
11
1'
#860203
1/
1%
#860761
02
#860780
00
1.
1$
0&
#860919
03
#865000
1!
#865596
12
#865776
13
#870000
0!
#870761
02
#870919
03
#875000
1!
#875596
12
#875776
13
#880000
0!
#880761
02
#880919
03
#885000
1!
#885596
12
#885776
13
#890000
0!
#890761
02
#890919
03
#895000
1!
#895596
12
#895776
13
#900000
0"
0!
#900761
02
07
#900919
08
03
#902442
0;
09
#905000
1!
#905378
01
0'
#905394
0/
0%
#905596
12
#905776
13
#905975
10
0.
0$
1&
#910000
0!
#910761
02
#910919
03
#915000
1!
#915596
12
#915776
13
#920000
0!
#920761
02
#920919
03
#925000
1!
#925596
12
#925776
13
#930000
0!
#930761
02
#930919
03
#935000
1!
#935596
12
#935776
13
#940000
0!
#940761
02
#940919
03
#945000
1!
#945596
12
#945776
13
#950000
1"
0!
#950596
17
#950761
02
#950776
18
#950919
03
#955000
1!
#955596
12
#955776
13
#957282
19
1;
#960000
0!
#960185
11
1'
#960203
1/
1%
#960761
02
#960780
00
1.
1$
0&
#960919
03
#965000
1!
#965596
12
#965776
13
#970000
0!
#970761
02
#970919
03
#975000
1!
#975596
12
#975776
13
#980000
0!
#980761
02
#980919
03
#985000
1!
#985596
12
#985776
13
#990000
0!
#990761
02
#990919
03
#995000
1!
#995596
12
