verilog/lab5/lab5_2/simulation/qsim/lab5_2.msim.vcd
$comment
	File created using the following command:
		vcd file lab5_2.msim.vcd -direction
$end
$date
	Fri Oct 11 18:22:22 2024
$end
$version
	ModelSim Version 10.5b
$end
$timescale
	1ps
$end

$scope module lab5_2_vlg_vec_tst $end
$var reg 1 ! clk $end
$var reg 7 " da [6:0] $end
$var reg 7 # db [6:0] $end
$var wire 1 $ q [13] $end
$var wire 1 % q [12] $end
$var wire 1 & q [11] $end
$var wire 1 ' q [10] $end
$var wire 1 ( q [9] $end
$var wire 1 ) q [8] $end
$var wire 1 * q [7] $end
$var wire 1 + q [6] $end
$var wire 1 , q [5] $end
$var wire 1 - q [4] $end
$var wire 1 . q [3] $end
$var wire 1 / q [2] $end
$var wire 1 0 q [1] $end
$var wire 1 1 q [0] $end

$scope module i1 $end
$var wire 1 2 gnd $end
$var wire 1 3 vcc $end
$var wire 1 4 unknown $end
$var tri1 1 5 devclrn $end
$var tri1 1 6 devpor $end
$var tri1 1 7 devoe $end
$var wire 1 8 q[0]~output_o $end
$var wire 1 9 q[1]~output_o $end
$var wire 1 : q[2]~output_o $end
$var wire 1 ; q[3]~output_o $end
$var wire 1 < q[4]~output_o $end
$var wire 1 = q[5]~output_o $end
$var wire 1 > q[6]~output_o $end
$var wire 1 ? q[7]~output_o $end
$var wire 1 @ q[8]~output_o $end
$var wire 1 A q[9]~output_o $end
$var wire 1 B q[10]~output_o $end
$var wire 1 C q[11]~output_o $end
$var wire 1 D q[12]~output_o $end
$var wire 1 E q[13]~output_o $end
$var wire 1 F clk~input_o $end
$var wire 1 G clk~inputclkctrl_outclk $end
$var wire 1 H da[6]~input_o $end
$var wire 1 I ta[6]~feeder_combout $end
$var wire 1 J db[0]~input_o $end
$var wire 1 K tb[0]~feeder_combout $end
$var wire 1 L db[1]~input_o $end
$var wire 1 M db[2]~input_o $end
$var wire 1 N tb[2]~feeder_combout $end
$var wire 1 O db[3]~input_o $end
$var wire 1 P db[4]~input_o $end
$var wire 1 Q tb[4]~feeder_combout $end
$var wire 1 R db[5]~input_o $end
$var wire 1 S tb[5]~feeder_combout $end
$var wire 1 T db[6]~input_o $end
$var wire 1 U tb[6]~feeder_combout $end
$var wire 1 V da[0]~input_o $end
$var wire 1 W ta[0]~feeder_combout $end
$var wire 1 X da[1]~input_o $end
$var wire 1 Y ta[1]~feeder_combout $end
$var wire 1 Z da[2]~input_o $end
$var wire 1 [ ta[2]~feeder_combout $end
$var wire 1 \ da[3]~input_o $end
$var wire 1 ] ta[3]~feeder_combout $end
$var wire 1 ^ da[4]~input_o $end
$var wire 1 _ ta[4]~feeder_combout $end
$var wire 1 ` da[5]~input_o $end
$var wire 1 a ta[5]~feeder_combout $end
$var wire 1 b rom_rtl_0|auto_generated|ram_block1a0~portadataout $end
$var wire 1 c rom_rtl_0|auto_generated|ram_block1a14~portadataout $end
$var wire 1 d rom_rtl_0|auto_generated|address_reg_a[0]~feeder_combout $end
$var wire 1 e rom_rtl_0|auto_generated|mux2|result_node[0]~0_combout $end
$var wire 1 f rom_rtl_0|auto_generated|ram_block1a15~portadataout $end
$var wire 1 g rom_rtl_0|auto_generated|ram_block1a1~portadataout $end
$var wire 1 h rom_rtl_0|auto_generated|mux2|result_node[1]~1_combout $end
$var wire 1 i rom_rtl_0|auto_generated|ram_block1a2~portadataout $end
$var wire 1 j rom_rtl_0|auto_generated|ram_block1a16~portadataout $end
$var wire 1 k rom_rtl_0|auto_generated|mux2|result_node[2]~2_combout $end
$var wire 1 l rom_rtl_0|auto_generated|ram_block1a3~portadataout $end
$var wire 1 m rom_rtl_0|auto_generated|ram_block1a17~portadataout $end
$var wire 1 n rom_rtl_0|auto_generated|mux2|result_node[3]~3_combout $end
$var wire 1 o rom_rtl_0|auto_generated|ram_block1a18~portadataout $end
$var wire 1 p rom_rtl_0|auto_generated|ram_block1a4~portadataout $end
$var wire 1 q rom_rtl_0|auto_generated|mux2|result_node[4]~4_combout $end
$var wire 1 r rom_rtl_0|auto_generated|ram_block1a5~portadataout $end
$var wire 1 s rom_rtl_0|auto_generated|ram_block1a19~portadataout $end
$var wire 1 t rom_rtl_0|auto_generated|mux2|result_node[5]~5_combout $end
$var wire 1 u rom_rtl_0|auto_generated|ram_block1a20~portadataout $end
$var wire 1 v rom_rtl_0|auto_generated|ram_block1a6~portadataout $end
$var wire 1 w rom_rtl_0|auto_generated|mux2|result_node[6]~6_combout $end
$var wire 1 x rom_rtl_0|auto_generated|ram_block1a7~portadataout $end
$var wire 1 y rom_rtl_0|auto_generated|ram_block1a21~portadataout $end
$var wire 1 z rom_rtl_0|auto_generated|mux2|result_node[7]~7_combout $end
$var wire 1 { rom_rtl_0|auto_generated|ram_block1a22~portadataout $end
$var wire 1 | rom_rtl_0|auto_generated|ram_block1a8~portadataout $end
$var wire 1 } rom_rtl_0|auto_generated|mux2|result_node[8]~8_combout $end
$var wire 1 ~ rom_rtl_0|auto_generated|ram_block1a9~portadataout $end
$var wire 1 !! rom_rtl_0|auto_generated|ram_block1a23~portadataout $end
$var wire 1 "! rom_rtl_0|auto_generated|mux2|result_node[9]~9_combout $end
$var wire 1 #! rom_rtl_0|auto_generated|ram_block1a24~portadataout $end
$var wire 1 $! rom_rtl_0|auto_generated|ram_block1a10~portadataout $end
$var wire 1 %! rom_rtl_0|auto_generated|mux2|result_node[10]~10_combout $end
$var wire 1 &! rom_rtl_0|auto_generated|ram_block1a11~portadataout $end
$var wire 1 '! rom_rtl_0|auto_generated|ram_block1a25~portadataout $end
$var wire 1 (! rom_rtl_0|auto_generated|mux2|result_node[11]~11_combout $end
$var wire 1 )! rom_rtl_0|auto_generated|ram_block1a26~portadataout $end
$var wire 1 *! rom_rtl_0|auto_generated|ram_block1a12~portadataout $end
$var wire 1 +! rom_rtl_0|auto_generated|mux2|result_node[12]~12_combout $end
$var wire 1 ,! rom_rtl_0|auto_generated|ram_block1a13~portadataout $end
$var wire 1 -! rom_rtl_0|auto_generated|ram_block1a27~portadataout $end
$var wire 1 .! rom_rtl_0|auto_generated|mux2|result_node[13]~13_combout $end
$var wire 1 /! rom_rtl_0|auto_generated|address_reg_a [0] $end
$var wire 1 0! ta [6] $end
$var wire 1 1! ta [5] $end
$var wire 1 2! ta [4] $end
$var wire 1 3! ta [3] $end
$var wire 1 4! ta [2] $end
$var wire 1 5! ta [1] $end
$var wire 1 6! ta [0] $end
$var wire 1 7! tb [6] $end
$var wire 1 8! tb [5] $end
$var wire 1 9! tb [4] $end
$var wire 1 :! tb [3] $end
$var wire 1 ;! tb [2] $end
$var wire 1 <! tb [1] $end
$var wire 1 =! tb [0] $end
$var wire 1 >! rom_rtl_0|auto_generated|ram_block1a14_PORTADATAOUT_bus [0] $end
$var wire 1 ?! rom_rtl_0|auto_generated|ram_block1a0_PORTADATAOUT_bus [0] $end
$var wire 1 @! rom_rtl_0|auto_generated|ram_block1a15_PORTADATAOUT_bus [0] $end
$var wire 1 A! rom_rtl_0|auto_generated|ram_block1a1_PORTADATAOUT_bus [0] $end
$var wire 1 B! rom_rtl_0|auto_generated|ram_block1a16_PORTADATAOUT_bus [0] $end
$var wire 1 C! rom_rtl_0|auto_generated|ram_block1a2_PORTADATAOUT_bus [0] $end
$var wire 1 D! rom_rtl_0|auto_generated|ram_block1a17_PORTADATAOUT_bus [0] $end
$var wire 1 E! rom_rtl_0|auto_generated|ram_block1a3_PORTADATAOUT_bus [0] $end
$var wire 1 F! rom_rtl_0|auto_generated|ram_block1a18_PORTADATAOUT_bus [0] $end
$var wire 1 G! rom_rtl_0|auto_generated|ram_block1a4_PORTADATAOUT_bus [0] $end
$var wire 1 H! rom_rtl_0|auto_generated|ram_block1a19_PORTADATAOUT_bus [0] $end
$var wire 1 I! rom_rtl_0|auto_generated|ram_block1a5_PORTADATAOUT_bus [0] $end
$var wire 1 J! rom_rtl_0|auto_generated|ram_block1a20_PORTADATAOUT_bus [0] $end
$var wire 1 K! rom_rtl_0|auto_generated|ram_block1a6_PORTADATAOUT_bus [0] $end
$var wire 1 L! rom_rtl_0|auto_generated|ram_block1a21_PORTADATAOUT_bus [0] $end
$var wire 1 M! rom_rtl_0|auto_generated|ram_block1a7_PORTADATAOUT_bus [0] $end
$var wire 1 N! rom_rtl_0|auto_generated|ram_block1a22_PORTADATAOUT_bus [0] $end
$var wire 1 O! rom_rtl_0|auto_generated|ram_block1a8_PORTADATAOUT_bus [0] $end
$var wire 1 P! rom_rtl_0|auto_generated|ram_block1a23_PORTADATAOUT_bus [0] $end
$var wire 1 Q! rom_rtl_0|auto_generated|ram_block1a9_PORTADATAOUT_bus [0] $end
$var wire 1 R! rom_rtl_0|auto_generated|ram_block1a24_PORTADATAOUT_bus [0] $end
$var wire 1 S! rom_rtl_0|auto_generated|ram_block1a10_PORTADATAOUT_bus [0] $end
$var wire 1 T! rom_rtl_0|auto_generated|ram_block1a25_PORTADATAOUT_bus [0] $end
$var wire 1 U! rom_rtl_0|auto_generated|ram_block1a11_PORTADATAOUT_bus [0] $end
$var wire 1 V! rom_rtl_0|auto_generated|ram_block1a26_PORTADATAOUT_bus [0] $end
$var wire 1 W! rom_rtl_0|auto_generated|ram_block1a12_PORTADATAOUT_bus [0] $end
$var wire 1 X! rom_rtl_0|auto_generated|ram_block1a27_PORTADATAOUT_bus [0] $end
$var wire 1 Y! rom_rtl_0|auto_generated|ram_block1a13_PORTADATAOUT_bus [0] $end
$upscope $end
$upscope $end
$enddefinitions $end
#0
$dumpvars
0!
b0 "
b0 #
01
00
0/
0.
0-
0,
0+
0*
0)
0(
0'
0&
0%
0$
02
13
x4
15
16
17
08
09
0:
0;
0<
0=
0>
0?
0@
0A
0B
0C
0D
0E
0F
0G
0H
0I
0J
0K
0L
0M
0N
0O
0P
0Q
0R
0S
0T
0U
0V
0W
0X
0Y
0Z
0[
0\
0]
0^
0_
0`
0a
0b
0c
0d
0e
0f
0g
0h
0i
0j
0k
0l
0m
0n
0o
0p
0q
0r
0s
0t
0u
0v
0w
0x
0y
0z
0{
0|
0}
0~
0!!
0"!
0#!
0$!
0%!
0&!
0'!
0(!
0)!
0*!
0+!
0,!
0-!
0.!
0/!
06!
05!
04!
03!
02!
01!
00!
0=!
0<!
0;!
0:!
09!
08!
07!
0>!
0?!
0@!
0A!
0B!
0C!
0D!
0E!
0F!
0G!
0H!
0I!
0J!
0K!
0L!
0M!
0N!
0O!
0P!
0Q!
0R!
0S!
0T!
0U!
0V!
0W!
0X!
0Y!
$end
#10000
1!
1F
1G
#20000
b1 "
b1 #
0!
1J
1V
0F
0G
1K
1W
#30000
1!
1F
1G
16!
1=!
#40000
b11 "
b11 #
b10 "
0!
1L
0V
1X
0F
0G
0W
1Y
#50000
1!
1F
1G
15!
06!
1<!
#50001
1?!
1b
1e
18
11
#60000
b10 #
b11 "
0!
1V
0J
0F
0G
1W
0K
#70000
1!
1F
1G
16!
0=!
#70001
1C!
1A!
0?!
0b
1g
1i
0e
1h
1k
1:
19
08
01
10
1/
#80000
b111 "
b110 #
b101 "
b100 "
0!
1M
0V
0X
1Z
0F
0G
1N
0W
0Y
1[
#90000
1!
1F
1G
14!
05!
06!
1;!
#100000
b111 #
b101 "
0!
1V
1J
0F
0G
1W
1K
#110000
1!
1F
1G
16!
1=!
#110001
1G!
1E!
0C!
0A!
0g
0i
1l
1p
0h
0k
1n
1q
1<
1;
0:
09
00
0/
1.
1-
#120000
b101 #
b111 "
b110 "
0!
0V
1X
0L
0F
0G
0W
1Y
#130000
1!
1F
1G
15!
06!
0<!
#130001
1I!
0G!
0E!
1A!
1?!
1b
1g
0l
0p
1r
1e
1h
0n
0q
1t
1=
0<
0;
19
18
11
10
0.
0-
1,
#140000
b100 #
b111 "
0!
1V
0J
0F
0G
1W
0K
#150000
1!
1F
1G
16!
0=!
#150001
0I!
1G!
1E!
1C!
0?!
0b
1i
1l
1p
0r
0e
1k
1n
1q
0t
0=
1<
1;
1:
08
01
1/
1.
1-
0,
#160000
b1111 "
b1100 #
b1011 "
b1001 "
b1000 "
0!
1O
0V
0X
0Z
1\
0F
0G
0W
0Y
0[
1]
#170000
1!
1F
1G
13!
04!
05!
06!
1:!
#170001
0A!
0g
0h
09
00
#180000
b1101 #
b1001 "
0!
1V
1J
0F
0G
1W
1K
#190000
1!
1F
1G
16!
1=!
#190001
1K!
1I!
0G!
0E!
0C!
0i
0l
0p
1r
1v
0k
0n
0q
1t
1w
1>
1=
0<
0;
0:
0/
0.
0-
1,
1+
#200000
b1111 #
b1011 "
b1010 "
0!
0V
1X
1L
0F
0G
0W
1Y
#210000
1!
1F
1G
15!
06!
1<!
#210001
1G!
1C!
1?!
1b
1i
1p
1e
1k
1q
1<
1:
18
11
1/
1-
#220000
b1110 #
b1011 "
0!
1V
0J
0F
0G
1W
0K
#230000
1!
1F
1G
16!
0=!
#230001
1M!
0K!
0I!
1A!
0?!
0b
1g
0r
0v
1x
0e
1h
0t
0w
1z
1?
0>
0=
19
08
01
10
0,
0+
1*
#240000
b1010 #
b1111 "
b1101 "
b1100 "
0!
0V
0X
1Z
0M
0F
0G
0W
0Y
1[
0N
#250000
1!
1F
1G
14!
05!
06!
0;!
#250001
1E!
0C!
0i
1l
0k
1n
1;
0:
0/
1.
#260000
b1011 #
b1101 "
0!
1V
1J
0F
0G
1W
1K
#270000
1!
1F
1G
16!
1=!
#270001
0M!
1K!
1I!
0A!
0g
1r
1v
0x
0h
1t
1w
0z
0?
1>
1=
09
00
1,
1+
0*
#280000
b1001 #
b1111 "
b1110 "
0!
0V
1X
0L
0F
0G
0W
1Y
#290000
1!
1F
1G
15!
06!
0<!
#290001
1M!
0K!
0I!
0G!
1C!
1A!
1?!
1b
1g
1i
0p
0r
0v
1x
1e
1h
1k
0q
0t
0w
1z
1?
0>
0=
0<
1:
19
18
11
10
1/
0-
0,
0+
1*
#300000
b1000 #
b1111 "
0!
1V
0J
0F
0G
1W
0K
#310000
1!
1F
1G
16!
0=!
#310001
0M!
1K!
1I!
1G!
0?!
0b
1p
1r
1v
0x
0e
1q
1t
1w
0z
0?
1>
1=
1<
08
01
1-
1,
1+
0*
#320000
b11111 "
b11000 #
b10111 "
b10011 "
b10001 "
b10000 "
0!
1P
0V
0X
0Z
0\
1^
0F
0G
1Q
0W
0Y
0[
0]
1_
#330000
1!
1F
1G
12!
03!
04!
05!
06!
19!
#330001
0C!
0A!
0g
0i
0h
0k
0:
09
00
0/
#340000
b11001 #
b10001 "
0!
1V
1J
0F
0G
1W
1K
#350000
1!
1F
1G
16!
1=!
#350001
1O!
1M!
0K!
0I!
0G!
0E!
0l
0p
0r
0v
1x
1|
0n
0q
0t
0w
1z
1}
1@
1?
0>
0=
0<
0;
0.
0-
0,
0+
1*
1)
#360000
b11011 #
b10011 "
b10010 "
0!
0V
1X
1L
0F
0G
0W
1Y
#370000
1!
1F
1G
15!
06!
1<!
#370001
1I!
1E!
1?!
1b
1l
1r
1e
1n
1t
1=
1;
18
11
1.
1,
#380000
b11010 #
b10011 "
0!
1V
0J
0F
0G
1W
0K
#390000
1!
1F
1G
16!
0=!
#390001
1K!
0E!
1C!
1A!
0?!
0b
1g
1i
0l
1v
0e
1h
1k
0n
1w
1>
0;
1:
19
08
01
10
1/
0.
1+
#400000
b11110 #
b10111 "
b10101 "
b10100 "
0!
0V
0X
1Z
1M
0F
0G
0W
0Y
1[
1N
#410000
1!
1F
1G
14!
05!
06!
1;!
#410001
1E!
1l
1n
1;
1.
#420000
b11111 #
b10101 "
0!
1V
1J
0F
0G
1W
1K
#430000
1!
1F
1G
16!
1=!
#430001
1Q!
0O!
0M!
0I!
1G!
0C!
0A!
0g
0i
1p
0r
0x
0|
1~
0h
0k
1q
0t
0z
0}
1"!
1A
0@
0?
0=
1<
0:
09
00
0/
1-
0,
0*
0)
1(
#440000
b11101 #
b10111 "
b10110 "
0!
0V
1X
0L
0F
0G
0W
1Y
#450000
1!
1F
1G
15!
06!
0<!
#450001
1M!
0K!
0G!
1A!
1?!
1b
1g
0p
0v
1x
1e
1h
0q
0w
1z
1?
0>
0<
19
18
11
10
0-
0+
1*
#460000
b11100 #
b10111 "
0!
1V
0J
0F
0G
1W
0K
#470000
1!
1F
1G
16!
0=!
#470001
0M!
1K!
1I!
1G!
1C!
0?!
0b
1i
1p
1r
1v
0x
0e
1k
1q
1t
1w
0z
0?
1>
1=
1<
1:
08
01
1/
1-
1,
1+
0*
#480000
b10100 #
b11111 "
b11011 "
b11001 "
b11000 "
0!
0V
0X
0Z
1\
0O
0F
0G
0W
0Y
0[
1]
#490000
1!
1F
1G
13!
04!
05!
06!
0:!
#490001
1M!
0K!
0I!
0G!
0E!
0A!
0g
0l
0p
0r
0v
1x
0h
0n
0q
0t
0w
1z
1?
0>
0=
0<
0;
09
00
0.
0-
0,
0+
1*
#500000
b10101 #
b11001 "
0!
1V
1J
0F
0G
1W
1K
#510000
1!
1F
1G
16!
1=!
#510001
0Q!
1O!
1K!
1I!
0C!
0i
1r
1v
1|
0~
0k
1t
1w
1}
0"!
0A
1@
1>
1=
0:
0/
1,
1+
1)
0(
#520000
b10111 #
b11011 "
b11010 "
0!
0V
1X
1L
0F
0G
0W
1Y
#530000
1!
1F
1G
15!
06!
1<!
#530001
1Q!
0O!
0M!
0K!
0I!
1E!
1C!
1?!
1b
1i
1l
0r
0v
0x
0|
1~
1e
1k
1n
0t
0w
0z
0}
1"!
1A
0@
0?
0>
0=
1;
1:
18
11
1/
1.
0,
0+
0*
0)
1(
#540000
b10110 #
b11011 "
0!
1V
0J
0F
0G
1W
0K
#550000
1!
1F
1G
16!
0=!
#550001
1K!
1G!
0E!
1A!
0?!
0b
1g
0l
1p
1v
0e
1h
0n
1q
1w
1>
1<
0;
19
08
01
10
0.
1-
1+
#560000
b10010 #
b11111 "
b11101 "
b11100 "
0!
0V
0X
1Z
0M
0F
0G
0W
0Y
1[
0N
#570000
1!
1F
1G
14!
05!
06!
0;!
#570001
0C!
0i
0k
0:
0/
#580000
b10011 #
b11101 "
0!
1V
1J
0F
0G
1W
1K
#590000
1!
1F
1G
16!
1=!
#590001
0Q!
1O!
1M!
1I!
1E!
0A!
0g
1l
1r
1x
1|
0~
0h
1n
1t
1z
1}
0"!
0A
1@
1?
1=
1;
09
00
1.
1,
1*
1)
0(
#600000
b10001 #
b11111 "
b11110 "
0!
0V
1X
0L
0F
0G
0W
1Y
#610000
1!
1F
1G
15!
06!
0<!
#610001
1Q!
0O!
0M!
0K!
0G!
0E!
1C!
1A!
1?!
1b
1g
1i
0l
0p
0v
0x
0|
1~
1e
1h
1k
0n
0q
0w
0z
0}
1"!
1A
0@
0?
0>
0<
0;
1:
19
18
11
10
1/
0.
0-
0+
0*
0)
1(
#620000
b10000 #
b11111 "
0!
1V
0J
0F
0G
1W
0K
#630000
1!
1F
1G
16!
0=!
#630001
0Q!
1O!
1M!
1K!
1G!
1E!
0?!
0b
1l
1p
1v
1x
1|
0~
0e
1n
1q
1w
1z
1}
0"!
0A
1@
1?
1>
1<
1;
08
01
1.
1-
1+
1*
1)
0(
#640000
b111111 "
b110000 #
b101111 "
b100111 "
b100011 "
b100001 "
b100000 "
0!
1R
0V
0X
0Z
0\
0^
1`
0F
0G
1S
0W
0Y
0[
0]
0_
1a
#650000
1!
1F
1G
11!
02!
03!
04!
05!
06!
18!
#650001
0E!
0C!
0A!
0g
0i
0l
0h
0k
0n
0;
0:
09
00
0/
0.
#660000
b110001 #
b100001 "
0!
1V
1J
0F
0G
1W
1K
#670000
1!
1F
1G
16!
1=!
#670001
1S!
1Q!
0O!
0M!
0K!
0I!
0G!
0p
0r
0v
0x
0|
1~
1$!
0q
0t
0w
0z
0}
1"!
1%!
1B
1A
0@
0?
0>
0=
0<
0-
0,
0+
0*
0)
1(
1'
#680000
b110011 #
b100011 "
b100010 "
0!
0V
1X
1L
0F
0G
0W
1Y
#690000
1!
1F
1G
15!
06!
1<!
#690001
1K!
1G!
1?!
1b
1p
1v
1e
1q
1w
1>
1<
18
11
1-
1+
#700000
b110010 #
b100011 "
0!
1V
0J
0F
0G
1W
0K
#710000
1!
1F
1G
16!
0=!
#710001
1M!
0G!
1C!
1A!
0?!
0b
1g
1i
0p
1x
0e
1h
1k
0q
1z
1?
0<
1:
19
08
01
10
1/
0-
1*
#720000
b110110 #
b100111 "
b100101 "
b100100 "
0!
0V
0X
1Z
1M
0F
0G
0W
0Y
1[
1N
#730000
1!
1F
1G
14!
05!
06!
1;!
#730001
1G!
1p
1q
1<
1-
#740000
b110111 #
b100101 "
0!
1V
1J
0F
0G
1W
1K
#750000
1!
1F
1G
16!
1=!
#750001
1O!
0K!
1E!
0C!
0A!
0g
0i
1l
0v
1|
0h
0k
1n
0w
1}
1@
0>
1;
0:
09
00
0/
1.
0+
1)
#760000
b110101 #
b100111 "
b100110 "
0!
0V
1X
0L
0F
0G
0W
1Y
#770000
1!
1F
1G
15!
06!
0<!
#770001
1K!
1I!
0E!
1A!
1?!
1b
1g
0l
1r
1v
1e
1h
0n
1t
1w
1>
1=
0;
19
18
11
10
0.
1,
1+
#780000
b110100 #
b100111 "
0!
1V
0J
0F
0G
1W
0K
#790000
1!
1F
1G
16!
0=!
#790001
0I!
1E!
1C!
0?!
0b
1i
1l
0r
0e
1k
1n
0t
0=
1;
1:
08
01
1/
1.
0,
#800000
b111100 #
b101111 "
b101011 "
b101001 "
b101000 "
0!
0V
0X
0Z
1\
1O
0F
0G
0W
0Y
0[
1]
#810000
1!
1F
1G
13!
04!
05!
06!
1:!
#810001
1I!
0G!
0A!
0g
0p
1r
0h
0q
1t
1=
0<
09
00
0-
1,
#820000
b111101 #
b101001 "
0!
1V
1J
0F
0G
1W
1K
#830000
1!
1F
1G
16!
1=!
#830001
1U!
0S!
0Q!
0M!
0E!
0C!
0i
0l
0x
0~
0$!
1&!
0k
0n
0z
0"!
0%!
1(!
1C
0B
0A
0?
0;
0:
0/
0.
0*
0(
0'
1&
#840000
b111111 #
b101011 "
b101010 "
0!
0V
1X
1L
0F
0G
0W
1Y
#850000
1!
1F
1G
15!
06!
1<!
#850001
1M!
0I!
1C!
1?!
1b
1i
0r
1x
1e
1k
0t
1z
1?
0=
1:
18
11
1/
0,
1*
#860000
b111110 #
b101011 "
0!
1V
0J
0F
0G
1W
0K
#870000
1!
1F
1G
16!
0=!
#870001
1Q!
0O!
0M!
1G!
1A!
0?!
0b
1g
1p
0x
0|
1~
0e
1h
1q
0z
0}
1"!
1A
0@
0?
1<
19
08
01
10
1-
0*
0)
1(
#880000
b111010 #
b101111 "
b101101 "
b101100 "
0!
0V
0X
1Z
0M
0F
0G
0W
0Y
1[
0N
#890000
1!
1F
1G
14!
05!
06!
0;!
#890001
1I!
0G!
1E!
0C!
0i
1l
0p
1r
0k
1n
0q
1t
1=
0<
1;
0:
0/
1.
0-
1,
#900000
b111011 #
b101101 "
0!
1V
1J
0F
0G
1W
1K
#910000
1!
1F
1G
16!
1=!
#910001
0Q!
1O!
1M!
1G!
0A!
0g
1p
1x
1|
0~
0h
1q
1z
1}
0"!
0A
1@
1?
1<
09
00
1-
1*
1)
0(
#920000
b111001 #
b101111 "
b101110 "
0!
0V
1X
0L
0F
0G
0W
1Y
#930000
1!
1F
1G
15!
06!
0<!
#930001
1Q!
0O!
0M!
0I!
1C!
1A!
1?!
1b
1g
1i
0r
0x
0|
1~
1e
1h
1k
0t
0z
0}
1"!
1A
0@
0?
0=
1:
19
18
11
10
1/
0,
0*
0)
1(
#940000
b111000 #
b101111 "
0!
1V
0J
0F
0G
1W
0K
#950000
1!
1F
1G
16!
0=!
#950001
0K!
1I!
0?!
0b
1r
0v
0e
1t
0w
0>
1=
08
01
1,
0+
#960000
b101000 #
b111111 "
b110111 "
b110011 "
b110001 "
b110000 "
0!
0V
0X
0Z
0\
1^
0P
0F
0G
0W
0Y
0[
0]
1_
0Q
#970000
1!
1F
1G
12!
03!
04!
05!
06!
09!
#970001
1K!
0I!
0G!
0C!
0A!
0g
0i
0p
0r
1v
0h
0k
0q
0t
1w
1>
0=
0<
0:
09
00
0/
0-
0,
1+
#980000
b101001 #
b110001 "
0!
1V
1J
0F
0G
1W
1K
#990000
1!
1F
1G
16!
1=!
#990001
0U!
1S!
1O!
1M!
0K!
0E!
0l
0v
1x
1|
1$!
0&!
0n
0w
1z
1}
1%!
0(!
0C
1B
1@
1?
0>
0;
0.
0+
1*
1)
1'
0&
