смехотехника/сем1/Wagner/lab7/simulation/qsim/lab7.msim.vcd
$comment
	File created using the following command:
		vcd file lab7.msim.vcd -direction
$end
$date
	Tue May 07 13:22:52 2024
$end
$version
	ModelSim Version 10.5b
$end
$timescale
	1ps
$end

$scope module b8_vlg_vec_tst $end
$var reg 1 ! clk $end
$var reg 7 " D [6:0] $end
$var reg 1 # enable $end
$var reg 1 $ start $end
$var wire 1 % out $end

$scope module i1 $end
$var wire 1 & gnd $end
$var wire 1 ' vcc $end
$var wire 1 ( unknown $end
$var tri1 1 ) devclrn $end
$var tri1 1 * devpor $end
$var tri1 1 + devoe $end
$var wire 1 , D[6]~input_o $end
$var wire 1 - out~output_o $end
$var wire 1 . clk~input_o $end
$var wire 1 / clk~inputclkctrl_outclk $end
$var wire 1 0 start~input_o $end
$var wire 1 1 D[0]~input_o $end
$var wire 1 2 D[1]~input_o $end
$var wire 1 3 D[2]~input_o $end
$var wire 1 4 D[3]~input_o $end
$var wire 1 5 D[4]~input_o $end
$var wire 1 6 D[5]~input_o $end
$var wire 1 7 inst4|LPM_SHIFTREG_component|_~6_combout $end
$var wire 1 8 enable~input_o $end
$var wire 1 9 inst4|LPM_SHIFTREG_component|_~5_combout $end
$var wire 1 : inst4|LPM_SHIFTREG_component|_~4_combout $end
$var wire 1 ; inst4|LPM_SHIFTREG_component|_~3_combout $end
$var wire 1 < inst4|LPM_SHIFTREG_component|_~2_combout $end
$var wire 1 = inst4|LPM_SHIFTREG_component|_~1_combout $end
$var wire 1 > inst4|LPM_SHIFTREG_component|_~0_combout $end
$var wire 1 ? inst4|LPM_SHIFTREG_component|dffs [6] $end
$var wire 1 @ inst4|LPM_SHIFTREG_component|dffs [5] $end
$var wire 1 A inst4|LPM_SHIFTREG_component|dffs [4] $end
$var wire 1 B inst4|LPM_SHIFTREG_component|dffs [3] $end
$var wire 1 C inst4|LPM_SHIFTREG_component|dffs [2] $end
$var wire 1 D inst4|LPM_SHIFTREG_component|dffs [1] $end
$var wire 1 E inst4|LPM_SHIFTREG_component|dffs [0] $end
$upscope $end
$upscope $end
$enddefinitions $end
#0
$dumpvars
0!
b100101 "
1#
1$
0%
0&
1'
x(
1)
1*
1+
0,
0-
0.
0/
10
11
02
13
04
05
16
17
18
09
0:
1;
0<
1=
0>
0E
0D
0C
0B
0A
0@
0?
$end
#10000
1!
1.
1/
1@
1B
1E
#20000
0$
0!
00
0.
0/
1>
0=
1<
0;
19
#30000
1!
1.
1/
0@
1A
0B
1D
1?
1-
1%
0>
1=
0<
1:
#40000
0!
0.
0/
#50000
1!
1.
1/
1@
0A
1C
0?
0-
0%
1>
0=
1;
#60000
0!
0.
0/
#70000
1!
1.
1/
0@
1B
1?
1-
1%
0>
1<
#80000
0!
0.
0/
#90000
1!
1.
1/
1A
0?
0-
0%
1=
#100000
0!
0.
0/
#110000
1!
1.
1/
1@
1>
#120000
0!
0.
0/
#130000
1!
1.
1/
1?
1-
1%
#140000
0!
0.
0/
#150000
1!
1.
1/
#160000
0!
0.
0/
#170000
1!
1.
1/
#180000
0!
0.
0/
#190000
1!
1.
1/
#200000
0!
0.
0/
#210000
1!
1.
1/
#220000
0!
0.
0/
#230000
1!
1.
1/
#240000
0!
0.
0/
#250000
1!
1.
1/
#260000
0!
0.
0/
#270000
1!
1.
1/
#280000
b1100101 "
b1110101 "
b1111101 "
0!
14
15
1,
0.
0/
#290000
1!
1.
1/
#300000
0!
0.
0/
#310000
1!
1.
1/
#320000
0!
0.
0/
#330000
1!
1.
1/
#340000
0!
0.
0/
#350000
1!
1.
1/
#360000
0!
0.
0/
#370000
1!
1.
1/
#380000
0!
0.
0/
#390000
1!
1.
1/
#400000
0!
0.
0/
#410000
1!
1.
1/
#420000
0!
0.
0/
#430000
1!
1.
1/
#440000
0!
0.
0/
#450000
1!
1.
1/
#460000
0!
0.
0/
#470000
1!
1.
1/
#480000
0!
0.
0/
#490000
1!
1.
1/
#500000
0!
0.
0/
#510000
1!
1.
1/
#520000
0!
0.
0/
#530000
1!
1.
1/
#540000
0!
0.
0/
#550000
1!
1.
1/
#560000
0!
0.
0/
#570000
1!
1.
1/
#580000
0!
0.
0/
#590000
1!
1.
1/
#600000
0!
0.
0/
#610000
1!
1.
1/
#620000
b111101 "
b101101 "
b100101 "
0!
04
05
0,
0.
0/
#630000
1!
1.
1/
#640000
0!
0.
0/
#650000
1!
1.
1/
#660000
0!
0.
0/
#670000
1!
1.
1/
#680000
0!
0.
0/
#690000
1!
1.
1/
#700000
0!
0.
0/
#710000
1!
1.
1/
#720000
0!
0.
0/
#730000
1!
1.
1/
#740000
0!
0.
0/
#750000
1!
1.
1/
#760000
0!
0.
0/
#770000
1!
1.
1/
#780000
0!
0.
0/
#790000
1!
1.
1/
#800000
0!
0.
0/
#810000
1!
1.
1/
#820000
0!
0.
0/
#830000
1!
1.
1/
#840000
0!
0.
0/
#850000
1!
1.
1/
#860000
0!
0.
0/
#870000
1!
1.
1/
#880000
0!
0.
0/
#890000
1!
1.
1/
#900000
0!
0.
0/
#910000
1!
1.
1/
#920000
0!
0.
0/
#930000
1!
1.
1/
#940000
0!
0.
0/
#950000
1!
1.
1/
#960000
0!
0.
0/
#970000
1!
1.
1/
#980000
0!
0.
0/
#990000
1!
1.
1/
