verilog/lab6/lab6_4/simulation/qsim/lab6_4.msim.vcd
$comment
	File created using the following command:
		vcd file lab6_4.msim.vcd -direction
$end
$date
	Wed Oct 16 12:36:13 2024
$end
$version
	ModelSim Version 10.5b
$end
$timescale
	1ps
$end

$scope module lab6_4_vlg_vec_tst $end
$var reg 6 ! a [5:0] $end
$var reg 6 " b [5:0] $end
$var reg 6 # c [5:0] $end
$var reg 1 $ clk $end
$var reg 6 % d [5:0] $end
$var reg 1 & rst $end
$var wire 1 ' max [5] $end
$var wire 1 ( max [4] $end
$var wire 1 ) max [3] $end
$var wire 1 * max [2] $end
$var wire 1 + max [1] $end
$var wire 1 , max [0] $end
$var wire 1 - midh [5] $end
$var wire 1 . midh [4] $end
$var wire 1 / midh [3] $end
$var wire 1 0 midh [2] $end
$var wire 1 1 midh [1] $end
$var wire 1 2 midh [0] $end
$var wire 1 3 midl [5] $end
$var wire 1 4 midl [4] $end
$var wire 1 5 midl [3] $end
$var wire 1 6 midl [2] $end
$var wire 1 7 midl [1] $end
$var wire 1 8 midl [0] $end
$var wire 1 9 min [5] $end
$var wire 1 : min [4] $end
$var wire 1 ; min [3] $end
$var wire 1 < min [2] $end
$var wire 1 = min [1] $end
$var wire 1 > min [0] $end

$scope module i1 $end
$var wire 1 ? gnd $end
$var wire 1 @ vcc $end
$var wire 1 A unknown $end
$var tri1 1 B devclrn $end
$var tri1 1 C devpor $end
$var tri1 1 D devoe $end
$var wire 1 E min[0]~output_o $end
$var wire 1 F min[1]~output_o $end
$var wire 1 G min[2]~output_o $end
$var wire 1 H min[3]~output_o $end
$var wire 1 I min[4]~output_o $end
$var wire 1 J min[5]~output_o $end
$var wire 1 K midl[0]~output_o $end
$var wire 1 L midl[1]~output_o $end
$var wire 1 M midl[2]~output_o $end
$var wire 1 N midl[3]~output_o $end
$var wire 1 O midl[4]~output_o $end
$var wire 1 P midl[5]~output_o $end
$var wire 1 Q midh[0]~output_o $end
$var wire 1 R midh[1]~output_o $end
$var wire 1 S midh[2]~output_o $end
$var wire 1 T midh[3]~output_o $end
$var wire 1 U midh[4]~output_o $end
$var wire 1 V midh[5]~output_o $end
$var wire 1 W max[0]~output_o $end
$var wire 1 X max[1]~output_o $end
$var wire 1 Y max[2]~output_o $end
$var wire 1 Z max[3]~output_o $end
$var wire 1 [ max[4]~output_o $end
$var wire 1 \ max[5]~output_o $end
$var wire 1 ] clk~input_o $end
$var wire 1 ^ clk~inputclkctrl_outclk $end
$var wire 1 _ rst~input_o $end
$var wire 1 ` a[0]~input_o $end
$var wire 1 a a_~0_combout $end
$var wire 1 b b[0]~input_o $end
$var wire 1 c b_~0_combout $end
$var wire 1 d v2.l21|min[0]~6_combout $end
$var wire 1 e a[5]~input_o $end
$var wire 1 f a_~1_combout $end
$var wire 1 g b[5]~input_o $end
$var wire 1 h b_~1_combout $end
$var wire 1 i b[4]~input_o $end
$var wire 1 j b_~2_combout $end
$var wire 1 k a[4]~input_o $end
$var wire 1 l a_~2_combout $end
$var wire 1 m b[3]~input_o $end
$var wire 1 n b_~3_combout $end
$var wire 1 o a[3]~input_o $end
$var wire 1 p a_~3_combout $end
$var wire 1 q a[2]~input_o $end
$var wire 1 r a_~4_combout $end
$var wire 1 s b[2]~input_o $end
$var wire 1 t b_~4_combout $end
$var wire 1 u b[1]~input_o $end
$var wire 1 v b_~5_combout $end
$var wire 1 w a[1]~input_o $end
$var wire 1 x a_~5_combout $end
$var wire 1 y v2.l21|min[0]~7 $end
$var wire 1 z v2.l21|min[1]~9 $end
$var wire 1 { v2.l21|min[2]~11 $end
$var wire 1 | v2.l21|min[3]~13 $end
$var wire 1 } v2.l21|min[4]~15 $end
$var wire 1 ~ v2.l21|min[5]~17 $end
$var wire 1 !! v2.l21|LessThan0~0_combout $end
$var wire 1 "! min1[0]~feeder_combout $end
$var wire 1 #! c[0]~input_o $end
$var wire 1 $! c_~0_combout $end
$var wire 1 %! d[0]~input_o $end
$var wire 1 &! d_~0_combout $end
$var wire 1 '! v2.l22|min[0]~6_combout $end
$var wire 1 (! c[5]~input_o $end
$var wire 1 )! c_~1_combout $end
$var wire 1 *! d[5]~input_o $end
$var wire 1 +! d_~1_combout $end
$var wire 1 ,! d[4]~input_o $end
$var wire 1 -! d_~2_combout $end
$var wire 1 .! c[4]~input_o $end
$var wire 1 /! c_~2_combout $end
$var wire 1 0! d[3]~input_o $end
$var wire 1 1! d_~3_combout $end
$var wire 1 2! c[3]~input_o $end
$var wire 1 3! c_~3_combout $end
$var wire 1 4! d[2]~input_o $end
$var wire 1 5! d_~4_combout $end
$var wire 1 6! c[2]~input_o $end
$var wire 1 7! c_~4_combout $end
$var wire 1 8! d[1]~input_o $end
$var wire 1 9! d_~5_combout $end
$var wire 1 :! c[1]~input_o $end
$var wire 1 ;! c_~5_combout $end
$var wire 1 <! v2.l22|min[0]~7 $end
$var wire 1 =! v2.l22|min[1]~9 $end
$var wire 1 >! v2.l22|min[2]~11 $end
$var wire 1 ?! v2.l22|min[3]~13 $end
$var wire 1 @! v2.l22|min[4]~15 $end
$var wire 1 A! v2.l22|min[5]~17 $end
$var wire 1 B! v2.l22|LessThan0~0_combout $end
$var wire 1 C! min2[0]~feeder_combout $end
$var wire 1 D! v2.l23|min[0]~6_combout $end
$var wire 1 E! v2.l22|min[5]~16_combout $end
$var wire 1 F! min2[5]~feeder_combout $end
$var wire 1 G! v2.l21|min[5]~16_combout $end
$var wire 1 H! min1[5]~feeder_combout $end
$var wire 1 I! v2.l22|min[4]~14_combout $end
$var wire 1 J! min2[4]~feeder_combout $end
$var wire 1 K! v2.l21|min[4]~14_combout $end
$var wire 1 L! min1[4]~feeder_combout $end
$var wire 1 M! v2.l21|min[3]~12_combout $end
$var wire 1 N! min1[3]~feeder_combout $end
$var wire 1 O! v2.l22|min[3]~12_combout $end
$var wire 1 P! min2[3]~feeder_combout $end
$var wire 1 Q! v2.l21|min[2]~10_combout $end
$var wire 1 R! min1[2]~feeder_combout $end
$var wire 1 S! v2.l22|min[2]~10_combout $end
$var wire 1 T! min2[2]~feeder_combout $end
$var wire 1 U! v2.l21|min[1]~8_combout $end
$var wire 1 V! min1[1]~feeder_combout $end
$var wire 1 W! v2.l22|min[1]~8_combout $end
$var wire 1 X! min2[1]~feeder_combout $end
$var wire 1 Y! v2.l23|min[0]~7 $end
$var wire 1 Z! v2.l23|min[1]~9 $end
$var wire 1 [! v2.l23|min[2]~11 $end
$var wire 1 \! v2.l23|min[3]~13 $end
$var wire 1 ]! v2.l23|min[4]~15 $end
$var wire 1 ^! v2.l23|min[5]~17 $end
$var wire 1 _! v2.l23|LessThan0~0_combout $end
$var wire 1 `! min[0]~reg0feeder_combout $end
$var wire 1 a! min[0]~reg0_q $end
$var wire 1 b! v2.l23|min[1]~8_combout $end
$var wire 1 c! min[1]~reg0feeder_combout $end
$var wire 1 d! min[1]~reg0_q $end
$var wire 1 e! v2.l23|min[2]~10_combout $end
$var wire 1 f! min[2]~reg0feeder_combout $end
$var wire 1 g! min[2]~reg0_q $end
$var wire 1 h! v2.l23|min[3]~12_combout $end
$var wire 1 i! min[3]~reg0feeder_combout $end
$var wire 1 j! min[3]~reg0_q $end
$var wire 1 k! v2.l23|min[4]~14_combout $end
$var wire 1 l! min[4]~reg0feeder_combout $end
$var wire 1 m! min[4]~reg0_q $end
$var wire 1 n! v2.l23|min[5]~16_combout $end
$var wire 1 o! min[5]~reg0feeder_combout $end
$var wire 1 p! min[5]~reg0_q $end
$var wire 1 q! v2.l23|max~0_combout $end
$var wire 1 r! max3[0]~feeder_combout $end
$var wire 1 s! v2.l22|max~0_combout $end
$var wire 1 t! max2[0]~feeder_combout $end
$var wire 1 u! v2.l21|max~0_combout $end
$var wire 1 v! max1[0]~feeder_combout $end
$var wire 1 w! v2.l24|min[0]~6_combout $end
$var wire 1 x! v2.l21|max~1_combout $end
$var wire 1 y! max1[5]~feeder_combout $end
$var wire 1 z! v2.l22|max~1_combout $end
$var wire 1 {! max2[5]~feeder_combout $end
$var wire 1 |! v2.l22|max~2_combout $end
$var wire 1 }! max2[4]~feeder_combout $end
$var wire 1 ~! v2.l21|max~2_combout $end
$var wire 1 !" max1[4]~feeder_combout $end
$var wire 1 "" v2.l22|max~3_combout $end
$var wire 1 #" max2[3]~feeder_combout $end
$var wire 1 $" v2.l21|max~3_combout $end
$var wire 1 %" max1[3]~feeder_combout $end
$var wire 1 &" v2.l22|max~4_combout $end
$var wire 1 '" max2[2]~feeder_combout $end
$var wire 1 (" v2.l21|max~4_combout $end
$var wire 1 )" max1[2]~feeder_combout $end
$var wire 1 *" v2.l21|max~5_combout $end
$var wire 1 +" max1[1]~feeder_combout $end
$var wire 1 ," v2.l22|max~5_combout $end
$var wire 1 -" max2[1]~feeder_combout $end
$var wire 1 ." v2.l24|min[0]~7 $end
$var wire 1 /" v2.l24|min[1]~9 $end
$var wire 1 0" v2.l24|min[2]~11 $end
$var wire 1 1" v2.l24|min[3]~13 $end
$var wire 1 2" v2.l24|min[4]~15 $end
$var wire 1 3" v2.l24|min[5]~17 $end
$var wire 1 4" v2.l24|LessThan0~0_combout $end
$var wire 1 5" min3[0]~feeder_combout $end
$var wire 1 6" v2.l25|min[0]~6_combout $end
$var wire 1 7" v2.l24|min[5]~16_combout $end
$var wire 1 8" min3[5]~feeder_combout $end
$var wire 1 9" v2.l23|max~1_combout $end
$var wire 1 :" max3[5]~feeder_combout $end
$var wire 1 ;" v2.l24|min[4]~14_combout $end
$var wire 1 <" min3[4]~feeder_combout $end
$var wire 1 =" v2.l23|max~2_combout $end
$var wire 1 >" max3[4]~feeder_combout $end
$var wire 1 ?" v2.l23|max~3_combout $end
$var wire 1 @" max3[3]~feeder_combout $end
$var wire 1 A" v2.l24|min[3]~12_combout $end
$var wire 1 B" min3[3]~feeder_combout $end
$var wire 1 C" v2.l23|max~4_combout $end
$var wire 1 D" max3[2]~feeder_combout $end
$var wire 1 E" v2.l24|min[2]~10_combout $end
$var wire 1 F" min3[2]~feeder_combout $end
$var wire 1 G" v2.l23|max~5_combout $end
$var wire 1 H" max3[1]~feeder_combout $end
$var wire 1 I" v2.l24|min[1]~8_combout $end
$var wire 1 J" min3[1]~feeder_combout $end
$var wire 1 K" v2.l25|min[0]~7 $end
$var wire 1 L" v2.l25|min[1]~9 $end
$var wire 1 M" v2.l25|min[2]~11 $end
$var wire 1 N" v2.l25|min[3]~13 $end
$var wire 1 O" v2.l25|min[4]~15 $end
$var wire 1 P" v2.l25|min[5]~17 $end
$var wire 1 Q" v2.l25|LessThan0~0_combout $end
$var wire 1 R" midl[0]~reg0feeder_combout $end
$var wire 1 S" midl[0]~reg0_q $end
$var wire 1 T" v2.l25|min[1]~8_combout $end
$var wire 1 U" midl[1]~reg0feeder_combout $end
$var wire 1 V" midl[1]~reg0_q $end
$var wire 1 W" v2.l25|min[2]~10_combout $end
$var wire 1 X" midl[2]~reg0feeder_combout $end
$var wire 1 Y" midl[2]~reg0_q $end
$var wire 1 Z" v2.l25|min[3]~12_combout $end
$var wire 1 [" midl[3]~reg0feeder_combout $end
$var wire 1 \" midl[3]~reg0_q $end
$var wire 1 ]" v2.l25|min[4]~14_combout $end
$var wire 1 ^" midl[4]~reg0feeder_combout $end
$var wire 1 _" midl[4]~reg0_q $end
$var wire 1 `" v2.l25|min[5]~16_combout $end
$var wire 1 a" midl[5]~reg0feeder_combout $end
$var wire 1 b" midl[5]~reg0_q $end
$var wire 1 c" v2.l25|max~0_combout $end
$var wire 1 d" midh[0]~reg0feeder_combout $end
$var wire 1 e" midh[0]~reg0_q $end
$var wire 1 f" v2.l25|max~1_combout $end
$var wire 1 g" midh[1]~reg0feeder_combout $end
$var wire 1 h" midh[1]~reg0_q $end
$var wire 1 i" v2.l25|max~2_combout $end
$var wire 1 j" midh[2]~reg0feeder_combout $end
$var wire 1 k" midh[2]~reg0_q $end
$var wire 1 l" v2.l25|max~3_combout $end
$var wire 1 m" midh[3]~reg0feeder_combout $end
$var wire 1 n" midh[3]~reg0_q $end
$var wire 1 o" v2.l25|max~4_combout $end
$var wire 1 p" midh[4]~reg0feeder_combout $end
$var wire 1 q" midh[4]~reg0_q $end
$var wire 1 r" v2.l25|max~5_combout $end
$var wire 1 s" midh[5]~reg0feeder_combout $end
$var wire 1 t" midh[5]~reg0_q $end
$var wire 1 u" v2.l24|max~0_combout $end
$var wire 1 v" max[0]~reg0feeder_combout $end
$var wire 1 w" max[0]~reg0_q $end
$var wire 1 x" v2.l24|max~1_combout $end
$var wire 1 y" max[1]~reg0feeder_combout $end
$var wire 1 z" max[1]~reg0_q $end
$var wire 1 {" v2.l24|max~2_combout $end
$var wire 1 |" max[2]~reg0feeder_combout $end
$var wire 1 }" max[2]~reg0_q $end
$var wire 1 ~" v2.l24|max~3_combout $end
$var wire 1 !# max[3]~reg0feeder_combout $end
$var wire 1 "# max[3]~reg0_q $end
$var wire 1 ## v2.l24|max~4_combout $end
$var wire 1 $# max[4]~reg0feeder_combout $end
$var wire 1 %# max[4]~reg0_q $end
$var wire 1 &# v2.l24|max~5_combout $end
$var wire 1 '# max[5]~reg0feeder_combout $end
$var wire 1 (# max[5]~reg0_q $end
$var wire 1 )# v2.l23|min [5] $end
$var wire 1 *# v2.l23|min [4] $end
$var wire 1 +# v2.l23|min [3] $end
$var wire 1 ,# v2.l23|min [2] $end
$var wire 1 -# v2.l23|min [1] $end
$var wire 1 .# v2.l23|min [0] $end
$var wire 1 /# v2.l24|max [5] $end
$var wire 1 0# v2.l24|max [4] $end
$var wire 1 1# v2.l24|max [3] $end
$var wire 1 2# v2.l24|max [2] $end
$var wire 1 3# v2.l24|max [1] $end
$var wire 1 4# v2.l24|max [0] $end
$var wire 1 5# v2.l25|min [5] $end
$var wire 1 6# v2.l25|min [4] $end
$var wire 1 7# v2.l25|min [3] $end
$var wire 1 8# v2.l25|min [2] $end
$var wire 1 9# v2.l25|min [1] $end
$var wire 1 :# v2.l25|min [0] $end
$var wire 1 ;# v2.l25|max [5] $end
$var wire 1 <# v2.l25|max [4] $end
$var wire 1 =# v2.l25|max [3] $end
$var wire 1 ># v2.l25|max [2] $end
$var wire 1 ?# v2.l25|max [1] $end
$var wire 1 @# v2.l25|max [0] $end
$var wire 1 A# v2.l22|min [5] $end
$var wire 1 B# v2.l22|min [4] $end
$var wire 1 C# v2.l22|min [3] $end
$var wire 1 D# v2.l22|min [2] $end
$var wire 1 E# v2.l22|min [1] $end
$var wire 1 F# v2.l22|min [0] $end
$var wire 1 G# v2.l21|min [5] $end
$var wire 1 H# v2.l21|min [4] $end
$var wire 1 I# v2.l21|min [3] $end
$var wire 1 J# v2.l21|min [2] $end
$var wire 1 K# v2.l21|min [1] $end
$var wire 1 L# v2.l21|min [0] $end
$var wire 1 M# v2.l24|min [5] $end
$var wire 1 N# v2.l24|min [4] $end
$var wire 1 O# v2.l24|min [3] $end
$var wire 1 P# v2.l24|min [2] $end
$var wire 1 Q# v2.l24|min [1] $end
$var wire 1 R# v2.l24|min [0] $end
$var wire 1 S# v2.l23|max [5] $end
$var wire 1 T# v2.l23|max [4] $end
$var wire 1 U# v2.l23|max [3] $end
$var wire 1 V# v2.l23|max [2] $end
$var wire 1 W# v2.l23|max [1] $end
$var wire 1 X# v2.l23|max [0] $end
$var wire 1 Y# v2.l21|max [5] $end
$var wire 1 Z# v2.l21|max [4] $end
$var wire 1 [# v2.l21|max [3] $end
$var wire 1 \# v2.l21|max [2] $end
$var wire 1 ]# v2.l21|max [1] $end
$var wire 1 ^# v2.l21|max [0] $end
$var wire 1 _# v2.l22|max [5] $end
$var wire 1 `# v2.l22|max [4] $end
$var wire 1 a# v2.l22|max [3] $end
$var wire 1 b# v2.l22|max [2] $end
$var wire 1 c# v2.l22|max [1] $end
$var wire 1 d# v2.l22|max [0] $end
$var wire 1 e# min2 [5] $end
$var wire 1 f# min2 [4] $end
$var wire 1 g# min2 [3] $end
$var wire 1 h# min2 [2] $end
$var wire 1 i# min2 [1] $end
$var wire 1 j# min2 [0] $end
$var wire 1 k# min1 [5] $end
$var wire 1 l# min1 [4] $end
$var wire 1 m# min1 [3] $end
$var wire 1 n# min1 [2] $end
$var wire 1 o# min1 [1] $end
$var wire 1 p# min1 [0] $end
$var wire 1 q# max3 [5] $end
$var wire 1 r# max3 [4] $end
$var wire 1 s# max3 [3] $end
$var wire 1 t# max3 [2] $end
$var wire 1 u# max3 [1] $end
$var wire 1 v# max3 [0] $end
$var wire 1 w# min3 [5] $end
$var wire 1 x# min3 [4] $end
$var wire 1 y# min3 [3] $end
$var wire 1 z# min3 [2] $end
$var wire 1 {# min3 [1] $end
$var wire 1 |# min3 [0] $end
$var wire 1 }# max1 [5] $end
$var wire 1 ~# max1 [4] $end
$var wire 1 !$ max1 [3] $end
$var wire 1 "$ max1 [2] $end
$var wire 1 #$ max1 [1] $end
$var wire 1 $$ max1 [0] $end
$var wire 1 %$ max2 [5] $end
$var wire 1 &$ max2 [4] $end
$var wire 1 '$ max2 [3] $end
$var wire 1 ($ max2 [2] $end
$var wire 1 )$ max2 [1] $end
$var wire 1 *$ max2 [0] $end
$var wire 1 +$ d_ [5] $end
$var wire 1 ,$ d_ [4] $end
$var wire 1 -$ d_ [3] $end
$var wire 1 .$ d_ [2] $end
$var wire 1 /$ d_ [1] $end
$var wire 1 0$ d_ [0] $end
$var wire 1 1$ c_ [5] $end
$var wire 1 2$ c_ [4] $end
$var wire 1 3$ c_ [3] $end
$var wire 1 4$ c_ [2] $end
$var wire 1 5$ c_ [1] $end
$var wire 1 6$ c_ [0] $end
$var wire 1 7$ b_ [5] $end
$var wire 1 8$ b_ [4] $end
$var wire 1 9$ b_ [3] $end
$var wire 1 :$ b_ [2] $end
$var wire 1 ;$ b_ [1] $end
$var wire 1 <$ b_ [0] $end
$var wire 1 =$ a_ [5] $end
$var wire 1 >$ a_ [4] $end
$var wire 1 ?$ a_ [3] $end
$var wire 1 @$ a_ [2] $end
$var wire 1 A$ a_ [1] $end
$var wire 1 B$ a_ [0] $end
$upscope $end
$upscope $end
$enddefinitions $end
#0
$dumpvars
b110101 !
b10100 "
b100100 #
0$
b101000 %
0&
0,
0+
0*
0)
0(
0'
02
01
00
0/
0.
0-
08
07
06
05
04
03
0>
0=
0<
0;
0:
09
0?
1@
xA
1B
1C
1D
0E
0F
0G
0H
0I
0J
0K
0L
0M
0N
0O
0P
0Q
0R
0S
0T
0U
0V
0W
0X
0Y
0Z
0[
0\
0]
0^
0_
1`
1a
0b
0c
0d
1e
1f
0g
0h
1i
1j
1k
1l
0m
0n
0o
0p
1q
1r
1s
1t
0u
0v
0w
0x
0y
1z
0{
1|
0}
1~
0!!
0"!
0#!
0$!
0%!
0&!
0'!
1(!
1)!
1*!
1+!
0,!
0-!
0.!
0/!
10!
11!
02!
03!
04!
05!
16!
17!
08!
09!
0:!
0;!
0<!
1=!
0>!
1?!
0@!
1A!
0B!
0C!
0D!
0E!
0F!
0G!
0H!
0I!
0J!
0K!
0L!
0M!
0N!
0O!
0P!
0Q!
0R!
0S!
0T!
0U!
0V!
0W!
0X!
0Y!
1Z!
0[!
1\!
0]!
1^!
0_!
0`!
0a!
0b!
0c!
0d!
0e!
0f!
0g!
0h!
0i!
0j!
0k!
0l!
0m!
0n!
0o!
0p!
0q!
0r!
0s!
0t!
0u!
0v!
0w!
0x!
0y!
0z!
0{!
0|!
0}!
0~!
0!"
0""
0#"
0$"
0%"
0&"
0'"
0("
0)"
0*"
0+"
0,"
0-"
0."
1/"
00"
11"
02"
13"
04"
05"
06"
07"
08"
09"
0:"
0;"
0<"
0="
0>"
0?"
0@"
0A"
0B"
0C"
0D"
0E"
0F"
0G"
0H"
0I"
0J"
0K"
1L"
0M"
1N"
0O"
1P"
0Q"
0R"
0S"
0T"
0U"
0V"
0W"
0X"
0Y"
0Z"
0["
0\"
0]"
0^"
0_"
0`"
0a"
0b"
0c"
0d"
0e"
0f"
0g"
0h"
0i"
0j"
0k"
0l"
0m"
0n"
0o"
0p"
0q"
0r"
0s"
0t"
0u"
0v"
0w"
0x"
0y"
0z"
0{"
0|"
0}"
0~"
0!#
0"#
0##
0$#
0%#
0&#
0'#
0(#
0.#
0-#
0,#
0+#
0*#
0)#
04#
03#
02#
01#
00#
0/#
0:#
09#
08#
07#
06#
05#
0@#
0?#
0>#
0=#
0<#
0;#
0F#
0E#
0D#
0C#
0B#
0A#
0L#
0K#
0J#
0I#
0H#
0G#
0R#
0Q#
0P#
0O#
0N#
0M#
0X#
0W#
0V#
0U#
0T#
0S#
0^#
0]#
0\#
0[#
0Z#
0Y#
0d#
0c#
0b#
0a#
0`#
0_#
0j#
0i#
0h#
0g#
0f#
0e#
0p#
0o#
0n#
0m#
0l#
0k#
0v#
0u#
0t#
0s#
0r#
0q#
0|#
0{#
0z#
0y#
0x#
0w#
0$$
0#$
0"$
0!$
0~#
0}#
0*$
0)$
0($
0'$
0&$
0%$
00$
0/$
0.$
0-$
0,$
0+$
06$
05$
04$
03$
02$
01$
0<$
0;$
0:$
09$
08$
07$
0B$
0A$
0@$
0?$
0>$
0=$
$end
#5000
1$
1]
1^
14$
1-$
1+$
11$
1:$
1@$
1>$
18$
1=$
1B$
1>!
0~
1y
1S!
1""
1z!
1E!
1("
1Q!
1~!
1K!
1G!
1d
1!!
0z
1{
1x!
1u!
0|
1}
#10000
0$
0]
0^
#15000
1$
1]
1^
1\#
1a#
1Z#
1_#
1Y#
1^#
1D#
1J#
1H#
1A#
1)"
1#"
1!"
1{!
1y!
1v!
1T!
1R!
1L!
1F!
#20000
b10101 !
b101 !
b100 !
b10000 "
b110100 #
b110110 #
b1000 %
b1100 %
b1101 %
0$
1%!
14!
0*!
1:!
1.!
0s
0`
0k
0e
0]
0^
1&!
15!
0+!
1;!
1/!
0t
0a
0l
0f
#25000
1$
1]
1^
1"$
1'$
1~#
1%$
1}#
1$$
1h#
1n#
1l#
1e#
15$
1.$
12$
0+$
10$
0:$
0>$
0=$
0B$
10"
12"
1."
1]!
0=!
0>!
1@!
0A!
0}
0y
1E"
1~"
1;"
1&#
17"
1w!
1C"
1e!
1k!
19"
1W!
1&"
1I!
0z!
1s!
0~!
0K!
0x!
0G!
0u!
0d
03"
0/"
1>!
1B!
1~
1z
14"
0!!
1,"
0""
1|!
1z!
0s!
1##
0~"
1{"
1u"
0("
1~!
#30000
0$
0]
0^
#35000
1$
1]
1^
1/#
10#
12#
14#
1V#
1O#
1S#
1M#
1c#
0\#
1b#
0a#
1`#
0Y#
0^#
1*#
1,#
1C#
0H#
0A#
1F#
1'#
1$#
1|"
1v"
1D"
1B"
1:"
18"
1-"
0)"
1'"
0#"
1}!
0y!
0v!
1l!
1f!
1P!
0L!
0F!
1C!
#40000
b0 !
b110000 "
b110010 "
b10110 #
b11110 #
b11010 #
b101 %
b110110 "
0$
00!
06!
12!
0(!
1u
1s
1g
0q
0]
0^
01!
07!
13!
0)!
1v
1t
1h
0r
#45000
1$
1]
1^
1t#
1y#
1q#
1w#
1)$
0"$
1($
0'$
1&$
0}#
0$$
1g#
0l#
0e#
1j#
04$
13$
0-$
01$
1;$
1:$
0@$
17$
1(#
1%#
1}"
1w"
1m!
1g!
1G
1I
1W
1Y
1[
1\
0N"
1/"
00"
01"
02"
13"
0."
0]!
0^!
0>!
0?!
0{
1'
1(
1*
1,
1:
1<
1i"
1Z"
1r"
1`"
0{"
0E"
0&#
07"
0u"
0w!
1?"
0k!
09"
1q!
0&"
0S!
1""
1O!
0z!
0E!
1*"
1("
0Q!
1x!
1O"
11"
12"
04"
1^!
1_!
1|
0P"
02"
0_!
1&#
1{"
1x"
0?"
0q!
1Q"
1?"
1q!
1l"
0i"
#50000
0$
0]
0^
#55000
1$
1]
1^
13#
04#
1;#
1=#
15#
18#
0O#
1U#
1N#
0S#
0M#
1]#
1\#
0b#
1a#
0_#
1Y#
1X#
0*#
0J#
0C#
1y"
0v"
1s"
1m"
1a"
1X"
0B"
1@"
1<"
0:"
08"
1+"
1)"
0'"
1#"
0{!
1y!
1r!
0l!
0R!
0P!
#60000
b1000 !
b100110 "
b101110 "
b101111 "
b101000 !
b111000 !
b111001 !
b1010 #
b1 %
b1111 "
b10 #
b1011 "
0$
04!
02!
0.!
1b
0s
1m
0i
0g
1`
1o
1k
1e
0]
0^
05!
03!
0/!
1c
0t
1n
0j
0h
1a
1p
1l
1f
#65000
1$
1]
1^
0y#
1s#
1x#
0q#
0w#
1#$
1"$
0($
1'$
0%$
1}#
1v#
0n#
0g#
0.$
03$
02$
0:$
1?$
19$
1>$
08$
07$
1=$
1<$
1B$
1z"
0w"
1t"
1n"
1b"
1Y"
0m!
0I
1M
1P
1T
1V
0W
1X
1N"
10"
03"
1>!
1?!
1}
0~
1+
0,
1-
1/
13
16
0:
0l"
0Z"
1o"
1]"
0r"
0`"
1I"
0{"
1E"
1~"
0&#
17"
0e!
0?"
0""
0O!
0|!
0I!
0("
1$"
1M!
0~!
1K!
0x!
1G!
1u!
1d
14"
0?!
0@!
1!!
1@!
1A!
1&#
0~"
1{"
0*"
1~!
1x!
0A!
0B!
1B!
0,"
1s!
1,"
0s!
#70000
0$
0]
0^
#75000
1$
1]
1^
0;#
1<#
0=#
05#
17#
1:#
1Q#
1O#
0U#
0]#
0\#
1[#
0a#
0`#
1^#
0,#
1K#
0D#
1I#
1L#
0s"
1p"
0m"
0a"
1["
1R"
1J"
1B"
0@"
0+"
0)"
1%"
0#"
0}!
1v!
0f!
1V!
0T!
1N!
1"!
#80000
b111011 !
b11 #
b10001 %
b110001 %
b111111 !
b1001 "
b111 #
b11001 "
b10001 "
b11111 !
b11110 !
b10111 #
b110101 %
b11111 #
0$
0u
0m
1i
14!
1,!
1*!
1#!
16!
12!
1.!
0`
1w
1q
0e
0]
0^
0v
0n
1j
15!
1-!
1+!
1$!
17!
13!
1/!
0a
1x
1r
0f
#85000
1$
1]
1^
1{#
1y#
0s#
0#$
0"$
1!$
0'$
0&$
1$$
1o#
0h#
1m#
14$
1.$
13$
12$
1,$
1+$
16$
1p#
1A$
0;$
1@$
09$
18$
0=$
0B$
0t"
1q"
0n"
0b"
1\"
1S"
0g!
0G
1K
1N
0P
0T
1U
0V
0L"
0N"
00"
01"
12"
1."
0Z!
0\!
1A!
0z
1{
0|
0}
0-
1.
0/
03
15
18
0<
1f"
1T"
1l"
1Z"
0x"
0I"
0{"
0E"
1~"
1A"
1u"
1w!
1b!
0C"
1h!
1&"
1S!
1""
1O!
1|!
1I!
1s!
1'!
1D!
1*"
1U!
1("
1Q!
0x!
0G!
0u!
0d
1[!
1]!
0B!
1}
1~
0^!
0~
0!!
0,"
0""
1z!
1_!
1!!
0*"
0("
0$"
1u!
1G"
1?"
1*"
1("
1$"
0u!
#90000
0$
0]
0^
#95000
1$
1]
1^
11#
02#
03#
14#
1=#
1?#
07#
1W#
0V#
0O#
1U#
0N#
0c#
1]#
1\#
1b#
1`#
1_#
0Y#
0^#
1d#
1.#
1E#
0K#
1D#
1C#
0I#
1H#
1B#
1!#
0|"
0y"
1v"
1m"
1g"
0["
1H"
0D"
0B"
1@"
0<"
0-"
1+"
1)"
1'"
1}!
1{!
0y!
0v!
1t!
1`!
1X!
0V!
1T!
1P!
0N!
1L!
1J!
#100000
b11101 #
b110100 %
b10110 !
b10000 "
b110 !
b100 !
b11100 #
b100100 %
b100 %
b0 !
b11000 #
b0 "
b1000 #
b0 %
b0 #
0$
0b
0i
0w
0q
0o
0k
0%!
04!
0,!
0*!
0#!
0:!
06!
02!
0.!
0]
0^
0c
0j
0x
0r
0p
0l
0&!
05!
0-!
0+!
0$!
0;!
07!
03!
0/!
#105000
1$
1]
1^
1u#
0t#
0y#
1s#
0x#
0)$
1#$
1"$
1($
1&$
1%$
0}#
0$$
1*$
1i#
0o#
1h#
1g#
0m#
1l#
1f#
05$
04$
0.$
03$
02$
0,$
0+$
00$
06$
0A$
0@$
0?$
0>$
08$
0<$
1"#
0}"
0z"
1w"
1n"
1h"
0\"
1a!
1E
0N
1R
1T
1W
0X
0Y
1Z
1L"
1M"
1N"
0/"
13"
0."
1Z!
0[!
1\!
1=!
0A!
1z
1)
0*
0+
1,
1/
11
05
1>
0l"
0Z"
0o"
0]"
1x"
1I"
1{"
1E"
0&#
07"
0u"
0w!
0G"
0b!
0?"
0h!
1="
1k!
0W!
0&"
0S!
0O!
0|!
0I!
0z!
0s!
0'!
0*"
0U!
0("
0Q!
0$"
0M!
0~!
0K!
0M"
0O"
10"
04"
0]!
0>!
1B!
0{
1P"
1^!
1?!
1|
1&#
0~"
0x"
1u"
0Q"
0_!
0@!
0}
1A!
1~
1l"
1c"
1G"
1C"
1?"
0B!
0!!
#110000
0$
0]
0^
#115000
1$
1]
1^
01#
12#
0<#
1@#
08#
19#
0:#
1P#
1V#
1O#
1T#
1N#
0]#
0\#
0b#
0[#
0Z#
0`#
0_#
0d#
1*#
0E#
0D#
0C#
0H#
0B#
0F#
0L#
0!#
1|"
0p"
1d"
0X"
1U"
0R"
1F"
1D"
1B"
1>"
1<"
0+"
0)"
0'"
0%"
0!"
0}!
0{!
0t!
1l!
0X!
0T!
0P!
0L!
0J!
0C!
0"!
#120000
0$
0]
0^
