verilog/lab6/lab6_4/simulation/qsim/lab6_4.msim.vcd
$comment
	File created using the following command:
		vcd file lab6_4.msim.vcd -direction
$end
$date
	Wed Oct 16 00:08:13 2024
$end
$version
	ModelSim Version 10.5b
$end
$timescale
	1ps
$end

$scope module lab6_4_vlg_vec_tst $end
$var reg 2 ! a [1:0] $end
$var reg 2 " b [1:0] $end
$var reg 2 # c [1:0] $end
$var reg 1 $ clk $end
$var reg 2 % d [1:0] $end
$var reg 1 & rst $end
$var wire 1 ' max [1] $end
$var wire 1 ( max [0] $end
$var wire 1 ) midh [1] $end
$var wire 1 * midh [0] $end
$var wire 1 + midl [1] $end
$var wire 1 , midl [0] $end
$var wire 1 - min [1] $end
$var wire 1 . min [0] $end

$scope module i1 $end
$var wire 1 / gnd $end
$var wire 1 0 vcc $end
$var wire 1 1 unknown $end
$var tri1 1 2 devclrn $end
$var tri1 1 3 devpor $end
$var tri1 1 4 devoe $end
$var wire 1 5 min[0]~output_o $end
$var wire 1 6 min[1]~output_o $end
$var wire 1 7 midl[0]~output_o $end
$var wire 1 8 midl[1]~output_o $end
$var wire 1 9 midh[0]~output_o $end
$var wire 1 : midh[1]~output_o $end
$var wire 1 ; max[0]~output_o $end
$var wire 1 < max[1]~output_o $end
$var wire 1 = clk~input_o $end
$var wire 1 > clk~inputclkctrl_outclk $end
$var wire 1 ? b[1]~input_o $end
$var wire 1 @ a[0]~input_o $end
$var wire 1 A b[0]~input_o $end
$var wire 1 B a[1]~input_o $end
$var wire 1 C v2.l21|min[0]~0_combout $end
$var wire 1 D rst~input_o $end
$var wire 1 E d[0]~input_o $end
$var wire 1 F d[1]~input_o $end
$var wire 1 G c[0]~input_o $end
$var wire 1 H c[1]~input_o $end
$var wire 1 I v2.l22|min[0]~0_combout $end
$var wire 1 J v2.l21|min[1]~1_combout $end
$var wire 1 K v2.l22|min[1]~1_combout $end
$var wire 1 L v2.l23|min[0]~0_combout $end
$var wire 1 M min[0]~reg0_q $end
$var wire 1 N v2.l23|min[1]~1_combout $end
$var wire 1 O min[1]~reg0_q $end
$var wire 1 P v2.l22|max[0]~0_combout $end
$var wire 1 Q v2.l21|max[0]~0_combout $end
$var wire 1 R v2.l21|max[1]~1_combout $end
$var wire 1 S v2.l22|max[1]~1_combout $end
$var wire 1 T v2.l24|min[0]~0_combout $end
$var wire 1 U v2.l24|min[1]~1_combout $end
$var wire 1 V v2.l23|max[1]~1_combout $end
$var wire 1 W v2.l23|max[0]~0_combout $end
$var wire 1 X v2.l25|LessThan0~0_combout $end
$var wire 1 Y v2.l25|min[0]~0_combout $end
$var wire 1 Z v2.l25|min[1]~1_combout $end
$var wire 1 [ v2.l25|max[0]~0_combout $end
$var wire 1 \ v2.l25|max[1]~1_combout $end
$var wire 1 ] v2.l24|max[0]~0_combout $end
$var wire 1 ^ max[0]~reg0_q $end
$var wire 1 _ v2.l24|max[1]~1_combout $end
$var wire 1 ` max[1]~reg0_q $end
$var wire 1 a max3 [1] $end
$var wire 1 b max3 [0] $end
$var wire 1 c min3 [1] $end
$var wire 1 d min3 [0] $end
$var wire 1 e min2 [1] $end
$var wire 1 f min2 [0] $end
$var wire 1 g min1 [1] $end
$var wire 1 h min1 [0] $end
$var wire 1 i max2 [1] $end
$var wire 1 j max2 [0] $end
$var wire 1 k max1 [1] $end
$var wire 1 l max1 [0] $end
$upscope $end
$upscope $end
$enddefinitions $end
#0
$dumpvars
b0 !
b1 "
b10 #
0$
b1 %
0&
0(
0'
0*
0)
0,
0+
0.
0-
0/
10
x1
12
13
14
05
06
07
08
09
0:
0;
0<
0=
0>
0?
0@
1A
0B
0C
0D
1E
0F
0G
1H
1I
0J
0K
0L
0M
0N
0O
0P
1Q
0R
1S
0T
0U
0V
0W
0X
0Y
0Z
0[
0\
0]
0^
0_
0`
0b
0a
0d
0c
0f
0e
0h
0g
0j
0i
0l
0k
$end
#10000
1$
1=
1>
1i
1l
1f
1_
1T
1W
#20000
b10 !
b11 !
b11 "
b0 #
b1 #
0$
1G
0H
1?
1@
1B
0=
0>
1P
0S
1R
1J
1C
#30000
1$
1=
1>
1b
1d
0i
1k
1j
1g
1h
1`
1<
1'
1[
1Y
1]
1V
1L
17
19
1*
1,
#40000
b10 "
b1 !
b0 !
b0 "
b11 #
0$
1H
0@
0B
0A
0?
0=
0>
1S
0Q
0C
0R
0J
#50000
1$
1=
1>
1a
1i
0k
0l
0g
0h
1^
1M
15
1;
1(
1.
1\
0T
0V
0L
1:
1)
#60000
b0 %
b1 "
0$
1A
0E
0=
0>
1Q
0I
#70000
1$
1=
1>
0a
0d
1l
0f
0M
05
0.
0\
0Y
1T
0W
07
0:
0)
0,
#80000
b10 #
b10 !
b11 !
b1 %
b0 "
0$
0A
1E
1@
1B
0G
0=
0>
0P
1I
1R
#90000
1$
1=
1>
0b
1d
1k
0j
1f
1X
0[
1Y
1U
0T
1W
17
09
0*
1,
1[
0Y
07
19
1*
0,
#100000
b0 #
b1 #
b10 !
b1 "
0$
1A
0@
1G
0H
0=
0>
0Q
1C
1P
0S
#110000
1$
1=
1>
1b
1c
0d
0i
0l
1j
1h
0[
1Y
1\
0]
0U
1T
1L
1:
17
09
0*
1,
1)
#120000
b11 %
b11 "
b0 !
b11 #
0$
1H
0B
1?
1F
0=
0>
1S
1K
1Q
0C
#130000
1$
1=
1>
0c
1d
1i
1l
1e
0h
0^
1M
15
0;
0X
0(
1.
0\
1[
1]
1U
1V
0L
19
0:
0)
1*
#140000
b1 !
b10 "
b0 "
b11 !
b1 #
0$
0H
0A
0?
1@
1B
0=
0>
0K
#150000
1$
1=
1>
1a
1c
0e
1^
0M
05
1;
1(
0.
1\
1Z
0V
18
1:
1)
1+
#160000
b10 %
b10 "
0$
1?
0E
0=
0>
1J
0P
#170000
1$
1=
1>
0a
0j
1g
1X
0Z
0T
0W
1V
1L
08
0+
#180000
b0 #
b11 "
b10 #
0$
1A
0G
1H
0=
0>
1C
0I
1K
#190000
1$
1=
1>
0b
1a
0d
1e
0f
1h
1M
15
0X
1.
0[
0Y
1Z
1W
1N
0L
18
07
09
0*
0,
1+
#200000
b1 "
b0 "
b0 #
0$
0H
0A
0?
0=
0>
0K
0C
0J
#210000
1$
1=
1>
1b
0e
0g
0h
1O
0M
05
16
1-
0.
1[
0W
0V
0N
19
1*
#220000
b10 !
b0 !
b1 #
b10 "
0$
1?
1G
0@
0B
0=
0>
0Q
1I
#230000
1$
1=
1>
0b
0a
0l
1f
0O
06
1X
0-
0[
0Z
0]
1W
08
09
0*
0+
#240000
b11 %
b11 #
b10 #
0$
0G
1H
1E
0=
0>
1P
0I
1K
#250000
1$
1=
1>
1b
1j
1e
0f
0^
0;
0(
1Y
1]
0W
1V
17
1,
#260000
b11 "
b10 !
0$
1B
1A
0=
0>
1Q
1J
#270000
1$
1=
1>
0b
1a
1l
1g
1^
1;
0X
1(
0Y
1Z
1T
1N
18
07
0,
1+
#280000
b1 %
b11 !
b11 #
b1 !
0$
1G
1@
0B
0F
0=
0>
1I
1C
0J
0K
#290000
1$
1=
1>
1d
0e
0g
1f
1h
1O
16
1X
1-
1Y
1W
0V
0N
1L
17
1,
1[
0Y
07
19
1*
0,
#300000
b1 "
b0 %
b1 #
b10 %
b0 !
b0 #
b10 !
0$
0@
1B
0G
0H
0E
1F
0?
0=
0>
0Q
0P
0I
#310000
1$
1=
1>
1b
0a
0l
0j
0f
0O
1M
15
06
0-
1.
1Y
0Z
0]
0T
0L
08
17
1,
0+
#320000
b11 "
b0 %
b0 !
0$
0B
0F
1?
0=
0>
1Q
0C
0S
#330000
1$
1=
1>
0d
0i
1l
0h
0^
0M
05
0;
0(
0.
0[
1]
0U
0W
09
0*
#340000
b10 "
b1 %
b10 #
b11 #
b0 "
b10 !
0$
1B
1G
1H
1E
0A
0?
0=
0>
0Q
1P
1I
1S
#350000
1$
1=
1>
0b
0c
1i
0l
1j
1f
1^
1;
0X
1(
0Y
0\
1U
1W
0:
07
0,
0)
#360000
b11 %
b10 %
b10 #
b0 !
0$
0B
0G
0E
1F
0=
0>
0R
0P
0I
1K
#370000
1$
1=
1>
1b
1c
0k
0j
1e
0f
1X
1[
1\
0]
0U
0W
1V
1:
19
1*
1)
0[
1Y
17
09
0*
1,
#380000
b1 "
b11 %
0$
1E
1A
0=
0>
1P
1Q
#390000
1$
1=
1>
0b
1a
0c
1l
1j
0^
0;
0X
0(
0Y
1]
1T
07
0,
#400000
b1 %
b0 %
0$
0E
0F
0=
0>
0P
0K
#410000
1$
1=
1>
1d
0j
0e
1^
1;
1(
1Y
0]
0V
17
1,
#420000
b1 !
b1 %
0$
1E
1@
0=
0>
1I
1C
#430000
1$
1=
1>
0a
1f
1h
0^
0;
1X
0(
0\
1W
1L
0:
0)
1[
0Y
07
19
1*
0,
#440000
b0 #
b11 "
b11 !
b10 "
0$
1B
0A
1?
0H
0=
0>
1R
1J
0C
0S
1P
0I
#450000
1$
1=
1>
1b
0i
1k
1j
1g
0f
0h
1M
15
0X
1.
1Y
1]
0W
1V
0L
17
1,
#460000
b1 #
b11 #
b11 "
0$
1A
1G
1H
0=
0>
1C
1I
1S
#470000
1$
1=
1>
0b
1a
1i
1f
1h
1^
0M
05
1;
1(
0.
0[
1\
1U
1W
1L
1:
09
0*
1)
#480000
b10 !
b0 %
b1 "
b0 !
b10 #
0$
0G
0?
0E
0@
0B
0=
0>
0P
0I
0R
0J
0C
#490000
1$
1=
1>
1b
1c
0k
0j
0g
0f
0h
1M
15
1.
1[
1Z
0]
0U
0W
0V
0L
18
19
1*
1+
#500000
b10 %
b0 "
b1 !
b11 %
b11 #
0$
1G
1@
0A
1E
1F
0=
0>
1P
1I
1K
#510000
1$
1=
1>
0b
0a
0c
1j
1e
1f
0^
0M
05
0;
1X
0(
0.
0[
0\
0Z
1]
1W
1V
08
0:
09
0*
0)
0+
1[
0Y
07
19
1*
0,
#520000
b1 #
b10 "
b11 !
b1 %
b11 "
b10 !
b0 #
0$
0F
0@
1B
1A
1?
0G
0H
0=
0>
0S
0K
0I
1R
1J
#530000
1$
1=
1>
1b
1a
0i
1k
0e
1g
0f
1^
1;
0X
1(
1Y
1\
0W
1:
17
1,
1)
#540000
b0 %
b1 "
b0 !
b0 "
b1 #
0$
1G
0B
0A
0?
0E
0=
0>
0R
0Q
0J
#550000
1$
1=
1>
0b
0k
0l
0g
0[
0_
0T
0V
09
0*
#560000
b10 %
b1 !
b10 "
b11 "
b0 #
0$
0G
1A
1?
1@
1F
0=
0>
0P
1Q
1C
1R
1S
#570000
1$
1=
1>
0a
0d
1i
1k
1l
0j
1h
0`
0<
0'
0\
0Y
1_
1U
1W
07
0:
0)
0,
#580000
b11 %
b11 !
b1 %
b10 "
b1 #
0$
1G
0A
1B
1E
0F
0=
0>
1P
1I
0C
1J
0S
#590000
1$
1=
1>
1b
1c
0i
1j
1g
1f
0h
1`
1<
1X
1'
1[
1\
0U
1T
0W
1V
1L
1:
19
1*
1)
0[
1Y
17
09
0*
1,
#600000
b11 #
b10 !
0$
0@
1H
0=
0>
0Q
1S
#610000
1$
1=
1>
0b
1a
0c
1d
1i
0l
1M
15
0X
1.
1[
0Y
1U
0T
07
19
1*
0,
0[
1Y
17
09
0*
1,
#620000
b0 "
b11 %
b1 "
b10 #
b0 #
0$
0G
0H
1F
1A
0?
0=
0>
0I
1C
0J
#630000
1$
1=
1>
1c
0d
0g
0f
1h
1Z
0Y
1W
0V
0L
07
18
1+
0,
#640000
b11 "
b10 "
b10 #
0$
1H
0A
1?
0=
0>
1K
0C
1J
#650000
1$
1=
1>
1b
0a
1e
1g
0h
0M
05
1X
0.
1[
0Z
0W
1V
1N
08
19
1*
0+
0[
1Y
17
09
0*
1,
#660000
b10 %
b0 !
b1 !
b0 %
b11 #
b0 "
b1 #
0$
0?
1G
0H
1@
0B
0E
0F
0=
0>
0R
1Q
0J
0S
0K
#670000
1$
1=
1>
0b
1a
0i
0k
1l
0e
0g
1O
16
0X
1-
0Y
1Z
0_
0U
1T
0V
0N
18
07
0,
1+
#680000
b1 %
b11 %
b10 "
b11 #
0$
1H
1?
1E
1F
0=
0>
1S
1K
1I
1R
0Q
1C
#690000
1$
1=
1>
0a
0c
1d
1i
1k
0l
1e
1f
1h
0`
0O
06
0<
1X
0'
0-
0\
0Z
1Y
1_
1U
0T
1W
1V
1L
17
08
0:
0)
0+
1,
1[
0Y
07
19
1*
0,
#700000
b11 "
b11 !
b10 !
b10 #
b10 %
b0 #
0$
0E
0G
0H
0@
1B
1A
0=
0>
0P
0I
0K
1Q
0C
1J
#710000
1$
1=
1>
1b
1a
1c
0d
1l
0j
0e
1g
0f
0h
1`
1M
15
1<
0X
1'
1.
0[
1Y
1\
1Z
0W
0L
18
1:
17
09
0*
1,
1)
1+
1[
0Y
07
19
1*
0,
#720000
b1 "
b0 "
b0 !
b1 !
b1 #
0$
1G
1@
0B
0A
0?
0=
0>
1I
0R
0J
#730000
1$
1=
1>
0b
0k
0g
1f
0M
05
0.
0[
0]
0U
1T
1W
0V
09
0*
#740000
b10 "
b11 "
b11 !
b0 #
0$
0G
1B
1A
1?
0=
0>
0I
1R
1J
1C
#750000
1$
1=
1>
1b
0a
0c
1d
1k
1g
0f
1h
0^
0;
0(
1[
1Y
0\
0Z
1]
1U
0T
1V
08
0:
17
19
1*
1,
0)
0+
#760000
b0 %
b10 !
b1 "
b0 "
0$
0A
0?
0@
0F
0=
0>
0Q
0C
0J
0S
#770000
1$
1=
1>
1a
1c
0d
0i
0l
0g
0h
1^
1;
1(
1\
1Z
0Y
0]
0U
0W
0V
07
18
1:
1)
1+
0,
#780000
b1 %
b10 #
b11 #
b1 "
0$
1A
1G
1H
1E
0=
0>
1C
1P
1I
1S
#790000
1$
1=
1>
0b
0a
0c
1i
1j
1f
1h
0^
0;
0(
0[
0\
0Z
1]
1U
1W
1L
08
0:
09
0*
0)
0+
#800000
b0 !
b11 %
b1 !
b10 %
b1 #
b0 "
0$
0A
0H
0E
1F
1@
0B
0=
0>
1Q
0C
0P
0R
#810000
1$
1=
1>
1b
1c
0k
1l
0j
0h
1^
1M
15
1;
1X
1(
1.
1[
1\
0]
0U
1T
0L
1:
19
1*
1)
0[
1Y
17
09
0*
1,
#820000
b11 !
b11 %
0$
1E
1B
0=
0>
1P
1R
#830000
1$
1=
1>
0c
1d
1k
1j
0^
0M
05
0;
0X
0(
0.
0\
1[
1]
1U
19
0:
0)
1*
#840000
b10 "
b10 !
b11 #
b11 "
0$
1H
0@
1A
1?
0=
0>
1K
1J
#850000
1$
1=
1>
1c
1e
1g
1^
1;
1X
1(
1\
1V
1N
1:
1)
#860000
b10 #
b0 !
b10 %
b10 "
0$
0A
0E
0B
0G
0=
0>
0Q
0P
0I
0J
#870000
1$
1=
1>
1a
0l
0j
0g
0f
1O
16
0X
1-
1Z
0]
0T
0W
0N
18
1+
#880000
b0 %
b1 !
b11 #
b1 %
b11 "
0$
1A
1G
1@
1E
0F
0=
0>
1Q
1C
1P
1I
0K
#890000
1$
1=
1>
0b
0d
1l
1j
0e
1f
1h
0^
0O
06
0;
0(
0-
0[
0Y
1]
1T
1W
0V
1L
07
09
0*
0,
#900000
b1 "
b11 !
b10 !
b10 #
b0 %
b0 "
0$
0E
0G
0@
1B
0A
0?
0=
0>
0P
0I
0Q
0C
#910000
1$
1=
1>
1b
0a
1d
0l
0j
0f
0h
1^
1M
15
1;
1X
1(
1.
1[
1Y
0Z
0]
0T
0W
0L
08
17
19
1*
1,
0+
#920000
b0 #
b10 %
b10 "
b0 !
b11 %
b11 "
0$
0B
1A
1?
1E
1F
0H
0=
0>
1Q
1P
#930000
1$
1=
1>
0b
0d
1l
1j
0^
0M
05
0;
0(
0.
0[
0Y
1]
1T
07
09
0*
0,
#940000
b1 #
b11 #
b10 !
b10 %
b10 "
0$
0A
0E
1B
1G
1H
0=
0>
0Q
1J
1K
#950000
1$
1=
1>
1d
0l
1e
1g
1^
1;
1(
1[
0T
1V
1N
19
1*
#960000
b11 !
b10 #
b11 "
0$
1A
0G
1@
0=
0>
1Q
1C
0P
#970000
1$
1=
1>
1a
0d
1l
0j
1h
1O
16
0X
1-
1Z
0[
1W
09
18
1+
0*
#980000
b1 "
b1 !
b11 %
b0 "
0$
1E
0B
0A
0?
0=
0>
1P
0R
0J
0C
#990000
1$
1=
1>
1b
0k
1j
0g
0h
1[
0U
1T
0W
0N
19
1*
