verilog/lab1/lab1_2/simulation/qsim/lab1_2.msim.vcd
$comment
	File created using the following command:
		vcd file lab1_2.msim.vcd -direction
$end
$date
	Wed Sep 11 20:33:07 2024
$end
$version
	ModelSim Version 10.5b
$end
$timescale
	1ps
$end

$scope module lab1_2_vlg_vec_tst $end
$var reg 1 ! pba $end
$var reg 2 " sw0 [1:0] $end
$var reg 2 # sw1 [1:0] $end
$var wire 1 $ led [1] $end
$var wire 1 % led [0] $end

$scope module i1 $end
$var wire 1 & gnd $end
$var wire 1 ' vcc $end
$var wire 1 ( unknown $end
$var tri1 1 ) devclrn $end
$var tri1 1 * devpor $end
$var tri1 1 + devoe $end
$var wire 1 , led[0]~output_o $end
$var wire 1 - led[1]~output_o $end
$var wire 1 . sw0[0]~input_o $end
$var wire 1 / pba~input_o $end
$var wire 1 0 sw1[0]~input_o $end
$var wire 1 1 led~0_combout $end
$var wire 1 2 sw1[1]~input_o $end
$var wire 1 3 sw0[1]~input_o $end
$var wire 1 4 led~1_combout $end
$upscope $end
$upscope $end
$enddefinitions $end
#0
$dumpvars
0!
b0 "
b10 #
0%
0$
0&
1'
x(
1)
1*
1+
0,
0-
0.
0/
00
01
12
03
04
$end
#100000
1!
b1 "
b11 #
1/
10
1.
14
11
1,
1-
1$
1%
#200000
b11 "
b1 #
0!
b10 "
b0 #
00
02
0.
13
0/
01
0,
0%
#300000
1!
b11 "
b1 #
1/
10
1.
04
11
1,
0-
0$
1%
#400000
b1 "
b11 #
0!
b0 "
b10 #
00
12
0.
03
0/
01
0,
0%
#500000
1!
b1 "
b11 #
1/
10
1.
14
11
1,
1-
1$
1%
#600000
b11 "
b1 #
0!
b10 "
b0 #
00
02
0.
13
0/
01
0,
0%
#700000
1!
b11 "
b1 #
1/
10
1.
04
11
1,
0-
0$
1%
#800000
b1 "
b11 #
0!
b0 "
b10 #
00
12
0.
03
0/
01
0,
0%
#900000
1!
b1 "
b11 #
1/
10
1.
14
11
1,
1-
1$
1%
