смехотехника/сем1/Wagner/lab6/simulation/qsim/lab6.msim.vcd
$comment
	File created using the following command:
		vcd file lab6.msim.vcd -direction
$end
$date
	Sat Apr 27 17:51:55 2024
$end
$version
	ModelSim Version 10.5b
$end
$timescale
	1ps
$end

$scope module p6_vlg_vec_tst $end
$var reg 1 ! clk $end
$var reg 7 " data [6:0] $end
$var reg 1 # sload $end
$var wire 1 $ A [3] $end
$var wire 1 % A [2] $end
$var wire 1 & A [1] $end
$var wire 1 ' A [0] $end
$var wire 1 ( B [3] $end
$var wire 1 ) B [2] $end
$var wire 1 * B [1] $end
$var wire 1 + B [0] $end
$var wire 1 , fin $end

$scope module i1 $end
$var wire 1 - gnd $end
$var wire 1 . vcc $end
$var wire 1 / unknown $end
$var tri1 1 0 devclrn $end
$var tri1 1 1 devpor $end
$var tri1 1 2 devoe $end
$var wire 1 3 fin~output_o $end
$var wire 1 4 A[3]~output_o $end
$var wire 1 5 A[2]~output_o $end
$var wire 1 6 A[1]~output_o $end
$var wire 1 7 A[0]~output_o $end
$var wire 1 8 B[3]~output_o $end
$var wire 1 9 B[2]~output_o $end
$var wire 1 : B[1]~output_o $end
$var wire 1 ; B[0]~output_o $end
$var wire 1 < clk~input_o $end
$var wire 1 = clk~inputclkctrl_outclk $end
$var wire 1 > inst1|LPM_COUNTER_component|auto_generated|counter_comb_bita0~combout $end
$var wire 1 ? data[0]~input_o $end
$var wire 1 @ sload~input_o $end
$var wire 1 A inst1|LPM_COUNTER_component|auto_generated|_~0_combout $end
$var wire 1 B inst1|LPM_COUNTER_component|auto_generated|counter_comb_bita0~COUT $end
$var wire 1 C inst1|LPM_COUNTER_component|auto_generated|counter_comb_bita1~combout $end
$var wire 1 D data[1]~input_o $end
$var wire 1 E inst1|LPM_COUNTER_component|auto_generated|counter_comb_bita1~COUT $end
$var wire 1 F inst1|LPM_COUNTER_component|auto_generated|counter_comb_bita2~combout $end
$var wire 1 G data[2]~input_o $end
$var wire 1 H inst1|LPM_COUNTER_component|auto_generated|counter_comb_bita2~COUT $end
$var wire 1 I inst1|LPM_COUNTER_component|auto_generated|counter_comb_bita3~combout $end
$var wire 1 J data[3]~input_o $end
$var wire 1 K inst1|LPM_COUNTER_component|auto_generated|counter_comb_bita3~COUT $end
$var wire 1 L inst1|LPM_COUNTER_component|auto_generated|counter_comb_bita4~combout $end
$var wire 1 M data[4]~input_o $end
$var wire 1 N inst1|LPM_COUNTER_component|auto_generated|counter_comb_bita4~COUT $end
$var wire 1 O inst1|LPM_COUNTER_component|auto_generated|counter_comb_bita5~combout $end
$var wire 1 P data[5]~input_o $end
$var wire 1 Q inst1|LPM_COUNTER_component|auto_generated|counter_comb_bita5~COUT $end
$var wire 1 R inst1|LPM_COUNTER_component|auto_generated|counter_comb_bita6~combout $end
$var wire 1 S data[6]~input_o $end
$var wire 1 T inst1|LPM_COUNTER_component|auto_generated|counter_comb_bita6~COUT $end
$var wire 1 U inst1|LPM_COUNTER_component|auto_generated|counter_comb_bita6~0_combout $end
$var wire 1 V inst|inst|LPM_COUNTER_component|auto_generated|counter_comb_bita0~1_cout $end
$var wire 1 W inst|inst|LPM_COUNTER_component|auto_generated|counter_comb_bita0~combout $end
$var wire 1 X ~GND~combout $end
$var wire 1 Y inst|inst|LPM_COUNTER_component|auto_generated|time_to_clear~0_combout $end
$var wire 1 Z inst|inst|LPM_COUNTER_component|auto_generated|counter_comb_bita3~COUT $end
$var wire 1 [ inst|inst|LPM_COUNTER_component|auto_generated|counter_comb_bita3~0_combout $end
$var wire 1 \ inst|inst|LPM_COUNTER_component|auto_generated|cout_actual~combout $end
$var wire 1 ] inst|inst|LPM_COUNTER_component|auto_generated|counter_comb_bita0~COUT $end
$var wire 1 ^ inst|inst|LPM_COUNTER_component|auto_generated|counter_comb_bita1~combout $end
$var wire 1 _ inst|inst|LPM_COUNTER_component|auto_generated|counter_comb_bita1~COUT $end
$var wire 1 ` inst|inst|LPM_COUNTER_component|auto_generated|counter_comb_bita2~combout $end
$var wire 1 a inst|inst|LPM_COUNTER_component|auto_generated|counter_comb_bita2~COUT $end
$var wire 1 b inst|inst|LPM_COUNTER_component|auto_generated|counter_comb_bita3~combout $end
$var wire 1 c inst|inst2|LPM_COUNTER_component|auto_generated|counter_comb_bita0~1_cout $end
$var wire 1 d inst|inst2|LPM_COUNTER_component|auto_generated|counter_comb_bita0~combout $end
$var wire 1 e inst|inst2|LPM_COUNTER_component|auto_generated|time_to_clear~0_combout $end
$var wire 1 f inst|inst2|LPM_COUNTER_component|auto_generated|counter_comb_bita3~COUT $end
$var wire 1 g inst|inst2|LPM_COUNTER_component|auto_generated|counter_comb_bita3~0_combout $end
$var wire 1 h inst|inst2|LPM_COUNTER_component|auto_generated|cout_actual~combout $end
$var wire 1 i inst|inst2|LPM_COUNTER_component|auto_generated|counter_comb_bita0~COUT $end
$var wire 1 j inst|inst2|LPM_COUNTER_component|auto_generated|counter_comb_bita1~combout $end
$var wire 1 k inst|inst2|LPM_COUNTER_component|auto_generated|counter_comb_bita1~COUT $end
$var wire 1 l inst|inst2|LPM_COUNTER_component|auto_generated|counter_comb_bita2~combout $end
$var wire 1 m inst|inst2|LPM_COUNTER_component|auto_generated|counter_comb_bita2~COUT $end
$var wire 1 n inst|inst2|LPM_COUNTER_component|auto_generated|counter_comb_bita3~combout $end
$var wire 1 o inst1|LPM_COUNTER_component|auto_generated|counter_reg_bit [6] $end
$var wire 1 p inst1|LPM_COUNTER_component|auto_generated|counter_reg_bit [5] $end
$var wire 1 q inst1|LPM_COUNTER_component|auto_generated|counter_reg_bit [4] $end
$var wire 1 r inst1|LPM_COUNTER_component|auto_generated|counter_reg_bit [3] $end
$var wire 1 s inst1|LPM_COUNTER_component|auto_generated|counter_reg_bit [2] $end
$var wire 1 t inst1|LPM_COUNTER_component|auto_generated|counter_reg_bit [1] $end
$var wire 1 u inst1|LPM_COUNTER_component|auto_generated|counter_reg_bit [0] $end
$var wire 1 v inst|inst|LPM_COUNTER_component|auto_generated|counter_reg_bit [3] $end
$var wire 1 w inst|inst|LPM_COUNTER_component|auto_generated|counter_reg_bit [2] $end
$var wire 1 x inst|inst|LPM_COUNTER_component|auto_generated|counter_reg_bit [1] $end
$var wire 1 y inst|inst|LPM_COUNTER_component|auto_generated|counter_reg_bit [0] $end
$var wire 1 z inst|inst2|LPM_COUNTER_component|auto_generated|counter_reg_bit [3] $end
$var wire 1 { inst|inst2|LPM_COUNTER_component|auto_generated|counter_reg_bit [2] $end
$var wire 1 | inst|inst2|LPM_COUNTER_component|auto_generated|counter_reg_bit [1] $end
$var wire 1 } inst|inst2|LPM_COUNTER_component|auto_generated|counter_reg_bit [0] $end
$upscope $end
$upscope $end
$enddefinitions $end
#0
$dumpvars
0!
b100 "
1#
x'
x&
x%
x$
x+
x*
x)
x(
x,
0-
1.
x/
10
11
12
x3
x4
x5
x6
x7
x8
x9
x:
x;
0<
x=
x>
0?
1@
xA
xB
xC
0D
xE
xF
1G
xH
xI
0J
xK
xL
0M
xN
xO
0P
xQ
xR
0S
xT
xU
xV
xW
0X
xY
xZ
x[
x\
x]
x^
x_
x`
xa
xb
xc
xd
xe
xf
xg
xh
xi
xj
xk
xl
xm
xn
0u
0t
0s
0r
0q
0p
0o
0y
0x
0w
0v
0}
0|
0{
0z
$end
#158
0=
#562
0Y
#566
0e
#672
0]
#675
0k
#677
0f
#679
0a
#701
1>
#766
1B
#798
1_
#802
1Z
#803
1i
#813
1m
#824
0E
#882
1H
#940
0K
#998
1N
#1056
0Q
#1109
0^
#1112
0l
#1114
1T
0g
#1116
0b
#1221
1C
#1235
0`
#1239
0[
#1240
0j
#1250
0n
#1279
1F
#1322
1A
#1337
1I
#1395
1L
#1435
0h
#1453
1O
#1511
1R
#1558
0\
#1569
1U
#2314
0c
#2442
1V
#2751
0d
#2879
0W
#3260
09
0)
#3277
06
0&
#3279
0;
0+
#3346
07
0'
#3390
04
0$
#3514
08
0(
#3700
05
0%
#4630
13
1,
#4639
0:
0*
#10000
1!
#10596
1<
#10776
1=
#12253
1s
#12812
0H
#12870
1K
#12874
0F
#12928
0N
#12986
1Q
#13044
0T
#13249
0I
#13307
0L
#13365
0O
#13423
0R
#13481
0U
#14249
0V
#14704
1W
#16519
03
0,
#20000
0#
0!
#20761
0<
0@
#20919
0=
#30000
1!
#30596
1<
#30776
1=
#32253
1u
1t
0s
#32591
1y
#32811
0B
#32872
0>
#32932
1E
#33230
0W
#33307
1]
#33762
1^
#35934
17
1'
#40000
0!
#40761
0<
#40919
0=
#50000
1!
#50596
1<
#50776
1=
#52253
0u
#52591
0y
1x
#52954
1>
#53019
1B
#53178
0_
#53231
0^
#53263
0]
#53300
1W
#53321
1_
#53456
0C
#53718
1^
#55838
16
1&
#55937
07
0'
#60000
0!
#60761
0<
#60919
0=
#70000
1!
#70596
1<
#70776
1=
#72253
1u
0t
#72591
1y
#72811
0B
#72872
0>
#73230
0W
#73307
1]
#73365
0_
#73744
0^
#73820
1`
#75934
17
1'
#80000
0!
#80761
0<
#80919
0=
#90000
1!
#90596
1<
#90776
1=
#92253
0u
1w
#92591
0y
0x
#92892
0`
#92954
1>
#92961
1a
#93019
1B
#93077
0E
#93135
1H
#93193
0K
#93251
1N
#93263
0]
#93300
1W
#93309
0Q
#93367
1T
#93389
1_
#93416
1b
#93447
0a
#93474
1C
#93532
1F
#93590
1I
#93648
1L
#93706
1O
#93764
1R
#93822
1U
#93844
1`
#93884
0b
#94157
0A
#94695
1V
#95132
0W
#95868
06
0&
#95937
07
0'
#95962
15
1%
#96883
13
1,
#100000
0!
#100761
0<
#100919
0=
#110000
1!
#110596
1<
#110776
1=
#120000
0!
#120761
0<
#120919
0=
#130000
1!
#130596
1<
#130776
1=
#140000
0!
#140761
0<
#140919
0=
#150000
1!
#150596
1<
#150776
1=
#160000
0!
#160761
0<
#160919
0=
#170000
1!
#170596
1<
#170776
1=
#180000
b110 "
b111 "
1#
0!
#180594
1D
#180596
1@
1?
#180761
0<
#180919
0=
#181918
1A
#190000
1!
#190596
1<
#190776
1=
#192253
1u
1t
1s
#192811
0B
#192812
0H
#192870
1K
#192872
0>
#192874
0F
#192928
0N
#192932
1E
#192986
1Q
#193044
0T
#193249
0I
#193307
0L
#193365
0O
#193387
1F
#193423
0R
#193481
0U
#194249
0V
#194704
1W
#196519
03
0,
#200000
0#
0!
#200761
0<
0@
#200919
0=
#210000
1!
#210596
1<
#210776
1=
#212253
0u
#212591
1y
#212954
1>
#213019
1B
#213230
0W
#213307
1]
#213456
0C
#213762
1^
#215934
17
1'
#220000
0!
#220761
0<
#220919
0=
#230000
1!
#230596
1<
#230776
1=
#232253
1u
0t
#232591
0y
1x
#232811
0B
#232872
0>
#233178
0_
#233231
0^
#233236
1a
#233263
0]
#233300
1W
#233321
1_
#233379
0a
#233718
1^
#235838
16
1&
#235937
07
0'
#240000
0!
#240761
0<
#240919
0=
#250000
1!
#250596
1<
#250776
1=
#252253
0u
#252591
1y
#252954
1>
#253019
1B
#253077
0E
#253230
0W
#253307
1]
#253365
0_
#253423
1a
#253474
1C
#253514
0F
#253744
0^
#253802
0`
#253878
1b
#255934
17
1'
#260000
0!
#260761
0<
#260919
0=
#270000
1!
#270596
1<
#270776
1=
#272253
1u
1t
0s
0w
1v
#272591
0y
0x
#272811
0B
#272842
0Z
#272872
0>
#272897
0b
#272932
0a
1E
#272971
1`
#272990
1Z
#273263
0]
#273300
1W
#273387
1b
#273389
1_
#273826
0`
#275626
14
1$
#275868
06
0&
#275937
07
0'
#275953
05
0%
#280000
0!
#280761
0<
#280919
0=
#290000
1!
#290596
1<
#290776
1=
#292253
0u
#292591
1y
#292954
1>
#293019
1B
#293203
1Y
#293230
0W
#293307
1]
#293456
0C
#293620
1\
#293762
1^
#294468
1c
#294923
1d
#295934
17
1'
#300000
0!
#300761
0<
#300919
0=
#310000
1!
#310596
1<
#310776
1=
#312253
1u
0t
0v
#312591
0y
1}
#312811
0B
#312815
0Y
#312872
0>
#312982
0b
#313181
0i
#313236
0d
#313263
0]
#313264
0\
#313300
1W
#313636
1j
#313700
0^
#314020
0c
#314078
1i
#314475
1d
#314515
0j
#315643
04
0$
#315842
1;
1+
#315937
07
0'
#320000
b11 "
b1 "
b0 "
0!
#320759
0D
#320761
0<
0G
0?
#320919
0=
#330000
1!
#330596
1<
#330776
1=
#332253
0u
#332591
1y
#332954
1>
#333019
1B
#333077
0E
#333135
1H
#333193
0K
#333230
0W
#333251
1N
#333307
1]
#333309
0Q
#333367
1T
#333474
1C
#333532
1F
#333590
1I
#333648
1L
#333706
1O
#333762
1^
#333764
1R
#333822
1U
#334157
0A
#334695
1V
#334753
0]
#335150
1W
#335190
0^
#335934
17
1'
#336883
13
1,
#340000
0!
#340761
0<
#340919
0=
#350000
1!
#350596
1<
#350776
1=
#360000
0!
#360761
0<
#360919
0=
#370000
1!
#370596
1<
#370776
1=
#380000
0!
#380761
0<
#380919
0=
#390000
1!
#390596
1<
#390776
1=
#400000
0!
#400761
0<
#400919
0=
#410000
1!
#410596
1<
#410776
1=
#420000
0!
#420761
0<
#420919
0=
#430000
1!
#430596
1<
#430776
1=
#440000
0!
#440761
0<
#440919
0=
#450000
1!
#450596
1<
#450776
1=
#460000
0!
#460761
0<
#460919
0=
#470000
1!
#470596
1<
#470776
1=
#480000
0!
#480761
0<
#480919
0=
#490000
1!
#490596
1<
#490776
1=
#500000
0!
#500761
0<
#500919
0=
#510000
1!
#510596
1<
#510776
1=
#520000
0!
#520761
0<
#520919
0=
#530000
1!
#530596
1<
#530776
1=
#540000
0!
#540761
0<
#540919
0=
#550000
1!
#550596
1<
#550776
1=
#560000
0!
#560761
0<
#560919
0=
#570000
1!
#570596
1<
#570776
1=
#580000
0!
#580761
0<
#580919
0=
#590000
1!
#590596
1<
#590776
1=
#600000
0!
#600761
0<
#600919
0=
#610000
1!
#610596
1<
#610776
1=
#620000
0!
#620761
0<
#620919
0=
#630000
1!
#630596
1<
#630776
1=
#640000
0!
#640761
0<
#640919
0=
#650000
1!
#650596
1<
#650776
1=
#660000
0!
#660761
0<
#660919
0=
#670000
1!
#670596
1<
#670776
1=
#680000
0!
#680761
0<
#680919
0=
#690000
1!
#690596
1<
#690776
1=
#700000
0!
#700761
0<
#700919
0=
#710000
1!
#710596
1<
#710776
1=
#720000
0!
#720761
0<
#720919
0=
#730000
1!
#730596
1<
#730776
1=
#740000
0!
#740761
0<
#740919
0=
#750000
1!
#750596
1<
#750776
1=
#760000
0!
#760761
0<
#760919
0=
#770000
1!
#770596
1<
#770776
1=
#780000
0!
#780761
0<
#780919
0=
#790000
1!
#790596
1<
#790776
1=
#800000
0!
#800761
0<
#800919
0=
#810000
1!
#810596
1<
#810776
1=
#820000
0!
#820761
0<
#820919
0=
#830000
1!
#830596
1<
#830776
1=
#840000
0!
#840761
0<
#840919
0=
#850000
1!
#850596
1<
#850776
1=
#860000
0!
#860761
0<
#860919
0=
#870000
1!
#870596
1<
#870776
1=
#880000
0!
#880761
0<
#880919
0=
#890000
1!
#890596
1<
#890776
1=
#900000
0!
#900761
0<
#900919
0=
#910000
1!
#910596
1<
#910776
1=
#920000
0!
#920761
0<
#920919
0=
#930000
1!
#930596
1<
#930776
1=
#940000
0!
#940761
0<
#940919
0=
#950000
1!
#950596
1<
#950776
1=
#960000
0!
#960761
0<
#960919
0=
#970000
1!
#970596
1<
#970776
1=
#980000
0!
#980761
0<
#980919
0=
#990000
1!
#990596
1<
