смехотехника/сем1/Wagner/lab3/simulation/qsim/lab3.msim.vcd
$comment
	File created using the following command:
		vcd file lab3.msim.vcd -direction
$end
$date
	Tue May 07 19:24:09 2024
$end
$version
	ModelSim Version 10.5b
$end
$timescale
	1ps
$end

$scope module t8_vlg_vec_tst $end
$var reg 1 ! clk $end
$var reg 1 " D $end
$var wire 1 # listener $end
$var wire 1 $ Q $end

$scope module i1 $end
$var wire 1 % gnd $end
$var wire 1 & vcc $end
$var wire 1 ' unknown $end
$var tri1 1 ( devclrn $end
$var tri1 1 ) devpor $end
$var tri1 1 * devoe $end
$var wire 1 + Q~output_o $end
$var wire 1 , listener~output_o $end
$var wire 1 - clk~input_o $end
$var wire 1 . D~input_o $end
$var wire 1 / inst42~q $end
$var wire 1 0 inst2~combout $end
$upscope $end
$upscope $end
$enddefinitions $end
#0
$dumpvars
0!
0"
x#
x$
0%
1&
x'
1(
1)
1*
x+
x,
0-
0.
0/
x0
$end
#3341
0+
0$
#3390
00
#6595
0,
0#
#10000
1!
#10596
1-
#20000
0!
#20761
0-
#30000
1!
#30596
1-
#40000
1"
0!
#40596
1.
#40761
0-
#43724
10
#46944
1,
1#
#50000
1!
#50596
1-
#51855
1/
#52224
00
#55192
1+
1$
#55429
0,
0#
#60000
0!
#60761
0-
#70000
1!
#70596
1-
#80000
0!
#80761
0-
#90000
1!
#90596
1-
#100000
0!
#100761
0-
#110000
1!
#110596
1-
#120000
0!
#120761
0-
#130000
1!
#130596
1-
#140000
0"
0!
#140761
0-
0.
#150000
1!
#150596
1-
#151855
0/
#155196
0+
0$
#160000
0!
#160761
0-
#170000
1!
#170596
1-
#180000
0!
#180761
0-
#190000
1"
1!
#190596
1-
1.
#193724
10
#196944
1,
1#
#200000
0!
#200761
0-
#210000
1!
#210596
1-
#211855
1/
#212224
00
#215192
1+
1$
#215429
0,
0#
#220000
0"
0!
#220761
0-
0.
#230000
1!
#230596
1-
#231855
0/
#235196
0+
0$
#240000
0!
#240761
0-
#250000
1"
1!
#250596
1-
1.
#253724
10
#256944
1,
1#
#260000
0!
#260761
0-
#270000
1!
#270596
1-
#271855
1/
#272224
00
#275192
1+
1$
#275429
0,
0#
#280000
0!
#280761
0-
#290000
1!
#290596
1-
#300000
0!
#300761
0-
#310000
1!
#310596
1-
#320000
0!
#320761
0-
#330000
1!
#330596
1-
#340000
0!
#340761
0-
#350000
1!
#350596
1-
#360000
0!
#360761
0-
#370000
1!
#370596
1-
#380000
0!
#380761
0-
#390000
0"
1!
#390596
1-
#390761
0.
#400000
0!
#400761
0-
#410000
1!
#410596
1-
#411855
0/
#415196
0+
0$
#420000
0!
#420761
0-
#430000
1!
#430596
1-
#440000
0!
#440761
0-
#450000
1!
#450596
1-
#460000
0!
#460761
0-
#470000
1!
#470596
1-
#480000
0!
#480761
0-
#490000
1!
#490596
1-
#500000
0!
#500761
0-
#510000
1!
#510596
1-
#520000
0!
#520761
0-
#530000
1!
#530596
1-
#540000
0!
#540761
0-
#550000
1!
#550596
1-
#560000
0!
#560761
0-
#570000
1!
#570596
1-
#580000
0!
#580761
0-
#590000
1!
#590596
1-
#600000
0!
#600761
0-
#610000
1!
#610596
1-
#620000
0!
#620761
0-
#630000
1!
#630596
1-
#640000
0!
#640761
0-
#650000
1!
#650596
1-
#660000
0!
#660761
0-
#670000
1!
#670596
1-
#680000
0!
#680761
0-
#690000
1!
#690596
1-
#700000
0!
#700761
0-
#710000
1!
#710596
1-
#720000
0!
#720761
0-
#730000
1!
#730596
1-
#740000
0!
#740761
0-
#750000
1!
#750596
1-
#760000
0!
#760761
0-
#770000
1!
#770596
1-
#780000
0!
#780761
0-
#790000
1!
#790596
1-
#800000
0!
#800761
0-
#810000
1!
#810596
1-
#820000
0!
#820761
0-
#830000
1!
#830596
1-
#840000
0!
#840761
0-
#850000
1!
#850596
1-
#860000
0!
#860761
0-
#870000
1!
#870596
1-
#880000
0!
#880761
0-
#890000
1!
#890596
1-
#900000
0!
#900761
0-
#910000
1!
#910596
1-
#920000
0!
#920761
0-
#930000
1!
#930596
1-
#940000
0!
#940761
0-
#950000
1!
#950596
1-
#960000
0!
#960761
0-
#970000
1!
#970596
1-
#980000
0!
#980761
0-
#990000
1!
#990596
1-
