misc/quaqua/simulation/qsim/qua.msim.vcd
$comment
	File created using the following command:
		vcd file qua.msim.vcd -direction
$end
$date
	Sat Dec 14 00:19:16 2024
$end
$version
	ModelSim Version 10.5b
$end
$timescale
	1ps
$end

$scope module qua_vlg_vec_tst $end
$var reg 1 ! R $end
$var reg 1 " S $end
$var wire 1 # nQ $end
$var wire 1 $ nR $end
$var wire 1 % nS $end
$var wire 1 & Q $end

$scope module i1 $end
$var wire 1 ' gnd $end
$var wire 1 ( vcc $end
$var wire 1 ) unknown $end
$var tri1 1 * devclrn $end
$var tri1 1 + devpor $end
$var tri1 1 , devoe $end
$var wire 1 - Q~output_o $end
$var wire 1 . nR~output_o $end
$var wire 1 / nS~output_o $end
$var wire 1 0 nQ~output_o $end
$var wire 1 1 R~input_o $end
$var wire 1 2 S~input_o $end
$var wire 1 3 inst3~combout $end
$var wire 1 4 inst2~combout $end
$upscope $end
$upscope $end
$enddefinitions $end
#0
$dumpvars
1!
0"
1#
0$
1%
0&
0'
1(
x)
1*
1+
1,
0-
0.
1/
10
11
02
13
14
$end
#80000
1"
12
0/
03
0%
1-
1&
#160000
0!
0"
01
02
1/
1.
1$
1%
04
00
0#
#240000
1"
12
0/
0%
#320000
1!
11
0.
0$
14
10
1#
#400000
0!
01
1.
1$
04
00
0#
#480000
0"
1!
02
11
0.
1/
13
1%
0$
14
10
0-
0&
1#
#560000
0!
01
1.
1$
