verilog/lab3/lab3_3/simulation/qsim/lab3_3.msim.vcd
$comment
	File created using the following command:
		vcd file lab3_3.msim.vcd -direction
$end
$date
	Tue Sep 24 21:51:46 2024
$end
$version
	ModelSim Version 10.5b
$end
$timescale
	1ps
$end

$scope module lab3_3_vlg_vec_tst $end
$var reg 4 ! a [3:0] $end
$var reg 4 " b [3:0] $end
$var reg 1 # sel $end
$var wire 1 $ res [3] $end
$var wire 1 % res [2] $end
$var wire 1 & res [1] $end
$var wire 1 ' res [0] $end

$scope module i1 $end
$var wire 1 ( gnd $end
$var wire 1 ) vcc $end
$var wire 1 * unknown $end
$var tri1 1 + devclrn $end
$var tri1 1 , devpor $end
$var tri1 1 - devoe $end
$var wire 1 . res[0]~output_o $end
$var wire 1 / res[1]~output_o $end
$var wire 1 0 res[2]~output_o $end
$var wire 1 1 res[3]~output_o $end
$var wire 1 2 sel~input_o $end
$var wire 1 3 b[0]~input_o $end
$var wire 1 4 a[0]~input_o $end
$var wire 1 5 res~0_combout $end
$var wire 1 6 a[1]~input_o $end
$var wire 1 7 b[1]~input_o $end
$var wire 1 8 res~1_combout $end
$var wire 1 9 a[2]~input_o $end
$var wire 1 : b[2]~input_o $end
$var wire 1 ; res~2_combout $end
$var wire 1 < b[3]~input_o $end
$var wire 1 = a[3]~input_o $end
$var wire 1 > res~3_combout $end
$upscope $end
$upscope $end
$enddefinitions $end
#0
$dumpvars
b0 !
b0 "
0#
0'
0&
0%
0$
0(
1)
x*
1+
1,
1-
0.
0/
00
01
02
03
04
05
06
07
08
09
0:
0;
0<
0=
0>
$end
#50000
1#
12
#100000
b10 !
b1 "
0#
13
16
02
15
1.
1'
#150000
1#
12
18
05
0.
1/
1&
0'
#200000
b110 !
b11 "
b100 !
b10 "
0#
03
17
06
19
02
#250000
1#
12
1;
08
0/
10
1%
0&
#300000
b110 !
b11 "
0#
13
16
02
15
18
0;
00
1/
1.
1'
1&
0%
#350000
1#
12
1;
05
0.
10
1%
0'
#400000
b1110 !
b111 "
b1010 !
b101 "
b1000 !
b100 "
0#
03
07
1:
06
09
1=
02
08
0/
0&
#450000
1#
12
1>
0;
00
11
1$
0%
#500000
b1010 !
b101 "
0#
13
16
02
15
0>
1;
10
01
1.
1'
0$
1%
#550000
1#
12
1>
0;
18
05
0.
1/
00
11
1$
0%
1&
0'
#600000
b1110 !
b111 "
b1100 !
b110 "
0#
03
17
06
19
02
1;
0>
01
10
1%
0$
#650000
1#
12
1>
08
0/
11
1$
0&
#700000
b1110 !
b111 "
0#
13
16
02
15
18
0>
01
1/
1.
1'
1&
0$
#750000
1#
12
1>
05
0.
11
1$
0'
#800000
b1111 "
b110 !
b1011 "
b10 !
b1001 "
b0 !
b1000 "
0#
06
09
0=
03
07
0:
1<
02
08
0;
00
0/
0&
0%
#850000
1#
12
0>
01
0$
#900000
b10 !
b1001 "
0#
13
16
02
15
1>
11
1.
1'
1$
#950000
1#
12
0>
18
05
0.
1/
01
0$
1&
0'
