verilog/lab6/lab6_3/simulation/qsim/lab6_3.msim.vcd
$comment
	File created using the following command:
		vcd file lab6_3.msim.vcd -direction
$end
$date
	Wed Oct 16 00:17:11 2024
$end
$version
	ModelSim Version 10.5b
$end
$timescale
	1ps
$end

$scope module lab6_3_vlg_vec_tst $end
$var reg 6 ! a [5:0] $end
$var reg 6 " b [5:0] $end
$var reg 6 # c [5:0] $end
$var reg 1 $ clk $end
$var reg 6 % d [5:0] $end
$var reg 1 & rst $end
$var wire 1 ' max [5] $end
$var wire 1 ( max [4] $end
$var wire 1 ) max [3] $end
$var wire 1 * max [2] $end
$var wire 1 + max [1] $end
$var wire 1 , max [0] $end
$var wire 1 - midh [5] $end
$var wire 1 . midh [4] $end
$var wire 1 / midh [3] $end
$var wire 1 0 midh [2] $end
$var wire 1 1 midh [1] $end
$var wire 1 2 midh [0] $end
$var wire 1 3 midl [5] $end
$var wire 1 4 midl [4] $end
$var wire 1 5 midl [3] $end
$var wire 1 6 midl [2] $end
$var wire 1 7 midl [1] $end
$var wire 1 8 midl [0] $end
$var wire 1 9 min [5] $end
$var wire 1 : min [4] $end
$var wire 1 ; min [3] $end
$var wire 1 < min [2] $end
$var wire 1 = min [1] $end
$var wire 1 > min [0] $end

$scope module i1 $end
$var wire 1 ? gnd $end
$var wire 1 @ vcc $end
$var wire 1 A unknown $end
$var tri1 1 B devclrn $end
$var tri1 1 C devpor $end
$var tri1 1 D devoe $end
$var wire 1 E clk~input_o $end
$var wire 1 F min[0]~output_o $end
$var wire 1 G min[1]~output_o $end
$var wire 1 H min[2]~output_o $end
$var wire 1 I min[3]~output_o $end
$var wire 1 J min[4]~output_o $end
$var wire 1 K min[5]~output_o $end
$var wire 1 L midl[0]~output_o $end
$var wire 1 M midl[1]~output_o $end
$var wire 1 N midl[2]~output_o $end
$var wire 1 O midl[3]~output_o $end
$var wire 1 P midl[4]~output_o $end
$var wire 1 Q midl[5]~output_o $end
$var wire 1 R midh[0]~output_o $end
$var wire 1 S midh[1]~output_o $end
$var wire 1 T midh[2]~output_o $end
$var wire 1 U midh[3]~output_o $end
$var wire 1 V midh[4]~output_o $end
$var wire 1 W midh[5]~output_o $end
$var wire 1 X max[0]~output_o $end
$var wire 1 Y max[1]~output_o $end
$var wire 1 Z max[2]~output_o $end
$var wire 1 [ max[3]~output_o $end
$var wire 1 \ max[4]~output_o $end
$var wire 1 ] max[5]~output_o $end
$var wire 1 ^ b[5]~input_o $end
$var wire 1 _ a[5]~input_o $end
$var wire 1 ` b[4]~input_o $end
$var wire 1 a a[4]~input_o $end
$var wire 1 b a[3]~input_o $end
$var wire 1 c b[3]~input_o $end
$var wire 1 d b[2]~input_o $end
$var wire 1 e a[2]~input_o $end
$var wire 1 f a[1]~input_o $end
$var wire 1 g b[1]~input_o $end
$var wire 1 h a[0]~input_o $end
$var wire 1 i b[0]~input_o $end
$var wire 1 j v2.l21|LessThan0~1_cout $end
$var wire 1 k v2.l21|LessThan0~3_cout $end
$var wire 1 l v2.l21|LessThan0~5_cout $end
$var wire 1 m v2.l21|LessThan0~7_cout $end
$var wire 1 n v2.l21|LessThan0~9_cout $end
$var wire 1 o v2.l21|LessThan0~10_combout $end
$var wire 1 p v2.l21|fmin~0_combout $end
$var wire 1 q c[5]~input_o $end
$var wire 1 r d[5]~input_o $end
$var wire 1 s d[4]~input_o $end
$var wire 1 t c[4]~input_o $end
$var wire 1 u d[3]~input_o $end
$var wire 1 v c[3]~input_o $end
$var wire 1 w c[2]~input_o $end
$var wire 1 x d[2]~input_o $end
$var wire 1 y d[1]~input_o $end
$var wire 1 z c[1]~input_o $end
$var wire 1 { c[0]~input_o $end
$var wire 1 | d[0]~input_o $end
$var wire 1 } v2.l22|LessThan0~1_cout $end
$var wire 1 ~ v2.l22|LessThan0~3_cout $end
$var wire 1 !! v2.l22|LessThan0~5_cout $end
$var wire 1 "! v2.l22|LessThan0~7_cout $end
$var wire 1 #! v2.l22|LessThan0~9_cout $end
$var wire 1 $! v2.l22|LessThan0~10_combout $end
$var wire 1 %! v2.l22|fmin~0_combout $end
$var wire 1 &! rst~input_o $end
$var wire 1 '! v2.l21|min[5]~0_combout $end
$var wire 1 (! v2.l22|min[5]~0_combout $end
$var wire 1 )! v2.l21|min[4]~1_combout $end
$var wire 1 *! v2.l22|min[4]~1_combout $end
$var wire 1 +! v2.l22|min[3]~2_combout $end
$var wire 1 ,! v2.l21|min[3]~2_combout $end
$var wire 1 -! v2.l22|min[2]~3_combout $end
$var wire 1 .! v2.l21|min[2]~3_combout $end
$var wire 1 /! v2.l21|min[1]~4_combout $end
$var wire 1 0! v2.l22|min[1]~4_combout $end
$var wire 1 1! v2.l23|LessThan0~1_cout $end
$var wire 1 2! v2.l23|LessThan0~3_cout $end
$var wire 1 3! v2.l23|LessThan0~5_cout $end
$var wire 1 4! v2.l23|LessThan0~7_cout $end
$var wire 1 5! v2.l23|LessThan0~9_cout $end
$var wire 1 6! v2.l23|LessThan0~10_combout $end
$var wire 1 7! v2.l23|min[0]~0_combout $end
$var wire 1 8! v2.l22|min[1]~5_combout $end
$var wire 1 9! v2.l21|min[1]~5_combout $end
$var wire 1 :! v2.l23|min[1]~1_combout $end
$var wire 1 ;! v2.l22|min[2]~6_combout $end
$var wire 1 <! v2.l21|min[2]~6_combout $end
$var wire 1 =! v2.l23|min[2]~2_combout $end
$var wire 1 >! v2.l21|min[3]~7_combout $end
$var wire 1 ?! v2.l22|min[3]~7_combout $end
$var wire 1 @! v2.l23|min[3]~3_combout $end
$var wire 1 A! v2.l22|min[4]~8_combout $end
$var wire 1 B! v2.l21|min[4]~8_combout $end
$var wire 1 C! v2.l23|min[4]~4_combout $end
$var wire 1 D! v2.l21|min[5]~9_combout $end
$var wire 1 E! v2.l22|min[5]~9_combout $end
$var wire 1 F! v2.l23|min[5]~5_combout $end
$var wire 1 G! v2.l23|fmax~0_combout $end
$var wire 1 H! v2.l21|max[5]~1_combout $end
$var wire 1 I! v2.l22|max[5]~1_combout $end
$var wire 1 J! v2.l22|max[4]~2_combout $end
$var wire 1 K! v2.l21|max[4]~2_combout $end
$var wire 1 L! v2.l21|max[3]~3_combout $end
$var wire 1 M! v2.l22|max[3]~3_combout $end
$var wire 1 N! v2.l21|max[2]~4_combout $end
$var wire 1 O! v2.l22|max[2]~4_combout $end
$var wire 1 P! v2.l21|max[1]~5_combout $end
$var wire 1 Q! v2.l22|max[1]~5_combout $end
$var wire 1 R! v2.l21|max[0]~0_combout $end
$var wire 1 S! v2.l22|max[0]~0_combout $end
$var wire 1 T! v2.l24|LessThan0~1_cout $end
$var wire 1 U! v2.l24|LessThan0~3_cout $end
$var wire 1 V! v2.l24|LessThan0~5_cout $end
$var wire 1 W! v2.l24|LessThan0~7_cout $end
$var wire 1 X! v2.l24|LessThan0~9_cout $end
$var wire 1 Y! v2.l24|LessThan0~10_combout $end
$var wire 1 Z! v2.l24|fmin~0_combout $end
$var wire 1 [! v2.l23|max[5]~0_combout $end
$var wire 1 \! v2.l22|max[5]~6_combout $end
$var wire 1 ]! v2.l21|max[5]~6_combout $end
$var wire 1 ^! v2.l24|min[5]~0_combout $end
$var wire 1 _! v2.l22|max[4]~7_combout $end
$var wire 1 `! v2.l21|max[4]~7_combout $end
$var wire 1 a! v2.l24|min[4]~1_combout $end
$var wire 1 b! v2.l23|max[4]~1_combout $end
$var wire 1 c! v2.l23|max[3]~2_combout $end
$var wire 1 d! v2.l22|max[3]~8_combout $end
$var wire 1 e! v2.l21|max[3]~8_combout $end
$var wire 1 f! v2.l24|min[3]~2_combout $end
$var wire 1 g! v2.l21|max[2]~9_combout $end
$var wire 1 h! v2.l22|max[2]~9_combout $end
$var wire 1 i! v2.l24|min[2]~3_combout $end
$var wire 1 j! v2.l23|max[2]~3_combout $end
$var wire 1 k! v2.l22|max[1]~10_combout $end
$var wire 1 l! v2.l21|max[1]~10_combout $end
$var wire 1 m! v2.l24|min[1]~4_combout $end
$var wire 1 n! v2.l23|max[1]~4_combout $end
$var wire 1 o! v2.l23|max[0]~5_combout $end
$var wire 1 p! v2.l24|min[0]~5_combout $end
$var wire 1 q! v2.l25|LessThan0~1_cout $end
$var wire 1 r! v2.l25|LessThan0~3_cout $end
$var wire 1 s! v2.l25|LessThan0~5_cout $end
$var wire 1 t! v2.l25|LessThan0~7_cout $end
$var wire 1 u! v2.l25|LessThan0~9_cout $end
$var wire 1 v! v2.l25|LessThan0~10_combout $end
$var wire 1 w! v2.l25|min[0]~0_combout $end
$var wire 1 x! v2.l24|min[1]~6_combout $end
$var wire 1 y! v2.l23|max[1]~6_combout $end
$var wire 1 z! v2.l25|min[1]~1_combout $end
$var wire 1 {! v2.l24|min[2]~7_combout $end
$var wire 1 |! v2.l23|max[2]~7_combout $end
$var wire 1 }! v2.l25|min[2]~2_combout $end
$var wire 1 ~! v2.l24|min[3]~8_combout $end
$var wire 1 !" v2.l23|max[3]~8_combout $end
$var wire 1 "" v2.l25|min[3]~3_combout $end
$var wire 1 #" v2.l23|max[4]~9_combout $end
$var wire 1 $" v2.l24|min[4]~9_combout $end
$var wire 1 %" v2.l25|min[4]~4_combout $end
$var wire 1 &" v2.l24|min[5]~10_combout $end
$var wire 1 '" v2.l23|max[5]~10_combout $end
$var wire 1 (" v2.l25|min[5]~5_combout $end
$var wire 1 )" v2.l25|max[0]~0_combout $end
$var wire 1 *" v2.l25|max[1]~1_combout $end
$var wire 1 +" v2.l25|max[2]~2_combout $end
$var wire 1 ," v2.l25|max[3]~3_combout $end
$var wire 1 -" v2.l25|max[4]~4_combout $end
$var wire 1 ." v2.l25|max[5]~5_combout $end
$var wire 1 /" v2.l22|max[0]~11_combout $end
$var wire 1 0" v2.l21|max[0]~11_combout $end
$var wire 1 1" v2.l24|max[0]~0_combout $end
$var wire 1 2" v2.l24|max[1]~1_combout $end
$var wire 1 3" v2.l24|max[2]~2_combout $end
$var wire 1 4" v2.l24|max[3]~3_combout $end
$var wire 1 5" v2.l24|max[4]~4_combout $end
$var wire 1 6" v2.l24|max[5]~5_combout $end
$var wire 1 7" v2.l22|min [5] $end
$var wire 1 8" v2.l22|min [4] $end
$var wire 1 9" v2.l22|min [3] $end
$var wire 1 :" v2.l22|min [2] $end
$var wire 1 ;" v2.l22|min [1] $end
$var wire 1 <" v2.l22|min [0] $end
$var wire 1 =" v2.l21|min [5] $end
$var wire 1 >" v2.l21|min [4] $end
$var wire 1 ?" v2.l21|min [3] $end
$var wire 1 @" v2.l21|min [2] $end
$var wire 1 A" v2.l21|min [1] $end
$var wire 1 B" v2.l21|min [0] $end
$upscope $end
$upscope $end
$enddefinitions $end
#0
$dumpvars
b110101 !
b10100 "
b100100 #
0$
b101000 %
0&
1,
0+
1*
0)
1(
1'
02
01
00
1/
0.
1-
08
07
16
05
04
13
0>
0=
1<
0;
1:
09
0?
1@
xA
1B
1C
1D
0E
0F
0G
1H
0I
1J
0K
0L
0M
1N
0O
0P
1Q
0R
0S
0T
1U
0V
1W
1X
0Y
1Z
0[
1\
1]
0^
1_
1`
1a
0b
0c
1d
1e
0f
0g
1h
0i
1j
0k
1l
0m
1n
1o
0p
1q
1r
0s
0t
1u
0v
1w
0x
0y
0z
0{
0|
0}
1~
1!!
1"!
0#!
0$!
0%!
0&!
0'!
1(!
1)!
0*!
0+!
0,!
1-!
1.!
0/!
00!
01!
12!
03!
14!
15!
06!
07!
08!
09!
0:!
1;!
1<!
1=!
0>!
0?!
0@!
0A!
1B!
1C!
0D!
1E!
0F!
0G!
1H!
1I!
0J!
1K!
0L!
1M!
1N!
0O!
0P!
0Q!
1R!
0S!
1T!
0U!
1V!
1W!
1X!
1Y!
0Z!
1[!
1\!
1]!
1^!
0_!
1`!
0a!
0b!
0c!
1d!
0e!
1f!
1g!
0h!
0i!
1j!
0k!
0l!
0m!
0n!
0o!
0p!
0q!
1r!
0s!
0t!
1u!
1v!
0w!
0x!
0y!
0z!
0{!
1|!
1}!
1~!
0!"
0""
0#"
0$"
0%"
1&"
1'"
1("
0)"
0*"
0+"
1,"
0-"
1."
0/"
10"
11"
02"
13"
04"
15"
16"
0<"
z;"
z:"
z9"
z8"
z7"
0B"
zA"
z@"
z?"
z>"
z="
$end
#5000
1$
1E
#10000
0$
0E
#15000
1$
1E
#20000
b10101 !
b101 !
b100 !
b10000 "
b110100 #
b110110 #
b1000 %
b1100 %
b1101 %
0$
1|
1x
0r
1z
1t
0d
0h
0a
0_
0E
1/"
1S!
1h!
1O!
0!!
0\!
0I!
1$!
18!
10!
0~
1A!
1*!
1#!
0<!
0.!
00"
0R!
0j
0`!
0K!
0n
0]!
0H!
1p!
1Z!
0T!
1{!
1i!
0&"
0^!
0/"
1k!
0d!
1_!
1\!
0S!
1Q!
0M!
1J!
1I!
0E!
0A!
1?!
08!
1<"
00!
1+!
0*!
0(!
1%!
1y!
1n!
1!!
1#"
1b!
05!
1k
0X!
0o
01"
06"
0=!
05"
0\
0H
0]
0X
1q!
1U!
0v!
1x!
1m!
0~!
0f!
1$"
1a!
1&"
1^!
0p!
0Z!
0W!
0Y!
0'"
0[!
0#"
0b!
1!"
1c!
0y!
0n!
15!
1o!
1G!
0u!
0g!
1`!
0N!
1K!
0B!
1<!
1.!
0)!
0,
0'
0<
0(
1)"
1+"
0."
1z!
1%"
1P
1M
0W
1T
1R
0r!
0V!
1t!
1u!
1v!
0q!
1X!
0&"
0{!
0x!
0m!
0i!
0^!
16!
05!
12
10
0-
17
14
16"
15"
12"
0C!
1=!
1H
0J
1Y
1\
1]
1W!
1r!
0!"
0o!
0c!
0G!
06!
1'
1(
1+
0:
1<
1-"
0,"
0+"
0)"
0("
0%"
1""
0z!
1w!
1@!
17!
1F
1I
1L
0M
1O
0P
0Q
0R
0T
0U
1V
0X!
1!"
1o!
1c!
1G!
1.
0/
00
02
03
04
15
07
18
1;
1>
0""
0w!
0@!
07!
0F
0I
0L
0O
05
08
0;
0>
1""
1w!
1L
1O
15
18
#25000
1$
1E
#30000
0$
0E
#35000
1$
1E
#40000
b0 !
b110000 "
b110010 "
b10110 #
b11110 #
b11010 #
b101 %
b110110 "
0$
0u
0w
1v
0q
1g
1d
1^
0e
0E
1d!
1M!
0?!
0+!
0"!
0h!
0O!
0!!
0\!
0I!
1l!
1P!
1g!
1N!
0<!
0.!
0l
1]!
1H!
0!"
0c!
1{!
1i!
1V!
1&"
1^!
1Y!
1x!
1m!
1m
14"
03"
06"
0=!
0H
0]
0Z
1[
0&"
1~!
0{!
0i!
1f!
0^!
0r!
1)
0*
0'
0<
0""
1+"
1."
16"
04"
13"
1*"
1S
1Z
0[
1]
1W
1T
0O
0t!
05
10
1-
1'
0)
1*
11
0."
1,"
0+"
0T
1U
0W
0-
1/
00
#45000
1$
1E
#50000
0$
0E
#55000
1$
1E
#60000
b1000 !
b100110 "
b101110 "
b101111 "
b101000 !
b111000 !
b111001 !
b1010 #
b1 %
b1111 "
b10 #
b1011 "
0$
0x
0v
0t
1i
0d
1c
0`
0^
1h
1b
1a
1_
0E
0;!
0-!
1!!
0d!
0M!
1"!
0_!
0J!
10"
1R!
1B"
1p
0g!
0N!
1e!
1L!
1>!
1,!
0`!
0K!
1B!
1)!
1n
0]!
0H!
1D!
1'!
1o
0|!
0j!
0"!
0~!
0f!
0W!
0#!
0$"
0a!
1T!
0V!
04!
15!
0Y!
16!
0l!
1`!
1]!
0P!
1K!
1H!
0D!
0B!
19!
1/!
0)!
0'!
14"
05"
11"
17!
03"
1@!
1C!
06"
1F!
1K
0]
1J
1I
0Z
1F
1X
0\
1[
1s!
1#!
1t!
1X!
0$!
1&"
1$"
1~!
0x!
1p!
0m!
1f!
1a!
1^!
1Z!
1!"
1y!
1n!
1c!
1Y!
02!
1)
0(
1,
1>
0*
1;
1:
0'
19
0}!
0,"
0-"
04"
01"
0F!
0C!
0@!
0I
0J
0K
0X
0[
0V
0U
0N
0t!
1$!
1/"
0k!
1S!
0Q!
18!
0<"
10!
0%!
1r!
0&"
0$"
0~!
1x!
0p!
1m!
0f!
0a!
0^!
0Z!
13!
06
0/
0.
0)
0,
09
0:
0;
1."
1-"
1,"
1""
0*"
1z!
1)"
16"
15"
14"
02"
11"
1X
0Y
1[
1\
1]
1R
1M
0S
1O
1U
1V
1W
0/"
1k!
0S!
1Q!
08!
1<"
00!
1%!
0x!
0m!
1p!
1Z!
0T!
0U!
11!
12!
0s!
1t!
1-
1.
1/
15
01
17
12
1'
1(
1)
0+
1,
1:!
07!
0."
0-"
0,"
1*"
0)"
0R
1S
0U
0V
0W
0F
1G
1x!
1m!
0p!
0Z!
1T!
1U!
01!
02!
1V!
03!
0u!
1=
0>
0-
0.
0/
11
02
0:!
17!
0*"
1)"
1R
0S
1F
0G
0V!
13!
0v!
0=
1>
01
12
1*"
0)"
0R
1S
11
02
1,"
1)"
0""
0w!
0L
0O
1R
1U
1/
12
05
08
#65000
1$
1E
#70000
0$
0E
#75000
1$
1E
#80000
b111011 !
b11 #
b10001 %
b110001 %
b111111 !
b1001 "
b111 #
b11001 "
b10001 "
b11111 !
b11110 !
b10111 #
b110101 %
b11111 #
0$
0g
0c
1`
1x
1s
1r
1{
1w
1v
1t
0h
1f
1e
0_
0E
1l!
1P!
09!
0/!
0k
0>!
0,!
0m
1B!
1)!
0n
1h!
1O!
1;!
1-!
1_!
1J!
1A!
1*!
1E!
1(!
0$!
1/"
1S!
1d!
1M!
00"
0R!
1g!
1N!
1l
0]!
0H!
0U!
0y!
0n!
12!
0!"
0c!
1n
1#"
1b!
0o
1{!
1i!
03!
1$"
1a!
06!
0k!
0d!
1\!
0Q!
0M!
1I!
0E!
1?!
18!
10!
1+!
0(!
1p!
1Z!
0T!
1~!
1f!
1W!
12"
1C!
13"
1=!
1F!
01"
06"
0]
0X
1K
1H
1Z
1J
1Y
1V!
0r!
0t!
1o
10"
0l!
0g!
0e!
1R!
0P!
0N!
0L!
1>!
1<!
19!
0B"
1/!
1.!
1,!
0p
1s!
14!
1!"
1|!
1y!
1n!
1j!
1c!
0x!
0m!
0~!
0f!
1&"
1^!
0W!
0Y!
16!
0X!
1+
1:
1*
1<
19
0,
0'
0*"
0,"
1""
1-"
1%"
1}!
0F!
0=!
1w!
1L
0H
0K
1N
1P
1V
1O
0U
0S
1u!
00"
1l!
1g!
1e!
0R!
1P!
1N!
1L!
0>!
0<!
09!
1B"
0/!
0.!
0,!
1p
0{!
0i!
1U!
0V!
0o!
0G!
1t!
05!
1r!
1v!
1X!
0&"
0^!
01
0/
15
1.
14
16
09
0<
18
11"
02"
04"
1@!
1=!
1:!
1,"
0""
1+"
1*"
0z!
1("
16"
1]
1Q
0M
1S
1T
0O
1U
1G
1H
1I
0[
0Y
1X
1x!
1m!
1{!
1i!
1~!
1f!
0p!
0Z!
0U!
0!"
0c!
0|!
0j!
0y!
0n!
1o!
1G!
0s!
1q!
0u!
06!
1,
0+
0)
1;
1<
1=
1/
05
10
11
07
13
1'
0+"
0w!
0,"
0*"
0("
1""
1z!
1M
1O
0Q
0S
0U
0L
0T
0r!
1s!
0t!
0q!
1V!
0v!
1!"
1|!
1y!
1n!
1j!
1c!
00
08
0/
01
03
15
17
1*"
0z!
1+"
0}!
1,"
0""
0)"
1w!
0@!
0=!
0:!
0G
0H
0I
1L
0R
0O
1U
0N
1T
0M
1S
1u!
1r!
11
07
10
06
1/
05
02
18
0;
0<
0=
1)"
1""
1}!
1z!
0w!
0L
1M
1N
1O
1R
1v!
0s!
12
15
16
17
08
1t!
0)"
1w!
1L
0R
0u!
02
18
0v!
1)"
0w!
0L
1R
12
08
#85000
1$
1E
#90000
0$
0E
#95000
1$
1E
#100000
b11101 #
b111101 #
b111101 %
b10110 !
b110001 "
b111100 #
b10010 !
b111001 "
b10011 !
b101100 #
0$
1c
1^
1h
0e
0b
1u
0{
0z
0t
1q
0E
0e!
0L!
1>!
1,!
1m
1D!
1'!
0o
10"
1R!
0g!
0N!
1d!
1M!
0<"
0%!
08!
00!
1~
0A!
0*!
0#!
1E!
1(!
1$!
0~!
0f!
1W!
0n
1'"
1[!
0l!
1e!
1]!
0P!
1L!
1H!
0D!
0>!
19!
1/!
0,!
0'!
1p!
1Z!
0{!
0i!
0V!
11!
0o!
0G!
0y!
0n!
0!!
0#"
0b!
15!
0$!
0/"
0_!
0S!
0J!
1A!
1<"
1*!
1%!
14"
1@!
1F!
1K
1I
1[
0x!
0m!
1~!
1f!
1&"
1^!
1U!
1Y!
02!
1q!
0r!
1"!
1u!
1/"
1_!
1S!
1J!
0A!
0<"
0*!
0%!
1T!
1#"
1b!
01!
05!
1o!
1G!
1)
1;
19
0""
1."
0F!
0@!
1:!
0)"
1w!
0}!
0*"
0-"
01"
05"
0\
0X
0V
0S
0N
1L
0R
1G
0I
0K
1W
0O
1v!
1{!
1i!
0T!
0X!
0#"
0b!
11!
15!
0o!
0G!
0U!
0u!
0q!
05
1-
09
0;
1=
02
18
06
01
0.
0,
0(
0z!
1""
1("
15"
03"
11"
1-"
1)"
1R
1V
1X
0Z
1\
1Q
1O
0M
1s!
1U!
0Y!
1u!
1q!
0v!
1r!
07
15
13
1(
0*
1,
1.
12
0%"
1}!
0w!
0L
1N
0P
0t!
0{!
0i!
1v!
0r!
0s!
04
16
08
13"
0-"
0)"
1%"
1w!
1L
1P
0R
0V
1Z
1t!
1*
0.
02
14
18
0+"
1-"
1)"
0%"
0w!
0L
0P
1R
1V
0T
00
1.
12
04
08
#105000
1$
1E
#110000
0$
0E
#115000
1$
1E
#120000
b111111 %
b101111 %
b111011 "
b101011 %
b1100 #
b100011 %
b10111 !
0$
1e
0q
1g
1y
0x
0u
0s
0E
1<!
1.!
0E!
0(!
1l!
1P!
1k
1k!
1Q!
0h!
0O!
1!!
0d!
0M!
0"!
0_!
0J!
13!
0'"
0[!
16!
1x!
1m!
0W!
1#!
1X!
1=!
12"
03"
04"
05"
0\
0[
0Z
1Y
1H
1#"
0!"
1y!
1o!
1n!
0c!
1b!
1G!
1Y!
1<
1+
0*
0)
0(
0("
0C!
1@!
0:!
07!
1*"
1S
0F
0G
1I
0J
0Q
0q!
0t!
0u!
0$"
0~!
0f!
0a!
03
0:
1;
0=
0>
11
1%"
0""
1z!
1w!
15"
14"
1[
1\
1L
1M
0O
1P
1r!
1t!
14
05
17
18
1(
1)
0-"
0,"
0U
0V
0.
0/
#125000
1$
1E
#130000
0$
0E
#135000
1$
1E
#140000
b101011 "
b110111 !
b111111 !
b1011 "
b1101 #
b11 "
b111110 !
b11101 #
b110011 %
b110111 %
b111101 #
b111111 %
0$
1x
1u
1s
1{
1t
1q
0h
1b
1_
0c
0`
0^
0E
1h!
1O!
0!!
1d!
1M!
1_!
1J!
1A!
1*!
1<"
1%!
1E!
1(!
1$!
0B"
0p
0e!
0L!
1>!
1,!
0m
0]!
0H!
1D!
1'!
1o
0`!
0K!
1n
1{!
1i!
1"!
1~!
1f!
1W!
1$"
1a!
0X!
05!
01!
0o!
0G!
1'"
1[!
0k!
0Q!
18!
10!
1!"
1c!
04!
0Y!
00"
1g!
1e!
1`!
1]!
0R!
1N!
1L!
1K!
1H!
0D!
0B!
0>!
0<!
1B"
0.!
0,!
0)!
0'!
1p
04"
05"
1C!
17!
1F!
06"
0]
1K
1F
1J
0\
0[
0#!
06!
12!
1q!
0v!
0U!
0p!
0Z!
0'"
0[!
0#"
0b!
0!"
0c!
0|!
0j!
03!
14!
1o!
1G!
0)
0(
1:
1>
19
0'
1+"
1,"
1""
1-"
0w!
1("
02"
1:!
16"
15"
14"
13"
1Z
1[
1\
1]
1G
0Y
1Q
0L
1V
1O
1U
1T
0$!
1'"
1#"
1!"
1|!
1j!
1c!
1b!
1[!
0r!
1V!
0q!
1v!
1u!
0t!
1s!
10
1/
15
1.
08
13
0+
1=
1'
1(
1)
1*
0F!
0C!
0@!
0=!
0."
0-"
0,"
0+"
0T
0U
0V
0W
0H
0I
0J
0K
1k!
1Q!
08!
00!
0W!
1r!
09
0:
0;
0<
0-
0.
0/
00
1."
1-"
1,"
1+"
0)"
1w!
1L
0R
1T
1U
1V
1W
1U!
0y!
0n!
02!
1X!
0s!
1-
1.
1/
10
02
18
12"
1Y
0V!
0r!
1Y!
1t!
1+
0z!
0M
1W!
1s!
1p!
1Z!
0u!
07
01"
0X
0X!
0t!
0v!
0,
1)"
1R
0Y!
1u!
12
0*"
1z!
1M
0S
0p!
0Z!
1v!
01
17
11"
1X
1,
0)"
1*"
0z!
0M
1S
0R
02
11
07
#145000
1$
1E
#150000
0$
0E
#155000
1$
1E
#160000
b111 "
b110101 #
b111101 %
b101 "
b10101 "
b11110 !
b10110 !
b110100 #
b11101 "
b100100 #
b111001 %
b100 #
0$
0b
0_
0y
0x
0{
0v
0t
0q
0g
1d
1c
1`
0E
0e!
0L!
1>!
1,!
1m
0]!
0H!
0k!
0Q!
0h!
0O!
1!!
0<"
0%!
0?!
0+!
0A!
0*!
0E!
0(!
09!
0/!
0k
1<!
1.!
0l
1B!
1)!
0~!
0f!
0!"
0c!
04!
0n
0&"
0^!
0U!
1V!
11!
0o!
0G!
0#"
0b!
15!
0'"
0[!
12!
1l
13!
1@!
02"
03"
1C!
0:!
1=!
1H
0G
1J
0Z
0Y
1I
0o
02!
16!
03!
1;
0+
0*
1:
0=
1<
0,"
0""
0."
0("
0w!
0%"
0P
0L
0Q
0W
0O
0U
10"
0l!
1e!
1R!
0P!
1L!
0>!
19!
0B"
1/!
0,!
0p
13!
1#"
1!"
1o!
1c!
1b!
1G!
0/
05
0-
03
08
04
0C!
0@!
07!
0F
0I
0J
0x!
0m!
1~!
1f!
1p!
1Z!
1U!
0W!
0!"
0c!
1y!
1n!
01!
0o!
0G!
1t!
0:
0;
0>
1%"
1""
1w!
1L
1O
1P
1r!
0t!
1q!
1X!
0u!
14
15
18
0*"
1z!
1,"
0""
1)"
0w!
0L
1R
0O
1U
1M
0S
0s!
1u!
0v!
01
17
1/
05
12
08
1v!
0,"
1*"
0)"
1""
0z!
1w!
1L
0M
1O
0R
1S
0U
0/
11
02
15
07
18
1,"
0*"
1)"
0""
1z!
0w!
0L
1M
0O
1R
0S
1U
1/
01
12
05
17
08
#165000
1$
1E
#170000
0$
0E
#175000
1$
1E
#180000
b111000 %
b10100 !
b0 #
b10 #
b10000 !
b111101 "
b10001 !
b101000 %
b1010 #
b111111 "
0$
1g
1^
1z
0w
1v
1h
0f
0e
0|
0s
0E
1l!
1P!
09!
0/!
1k
1]!
1H!
18!
10!
0~
0;!
0-!
0!!
1?!
1+!
0"!
1B"
1p
0<!
0.!
0l
0/"
0S!
0_!
0J!
1x!
1m!
0U!
0y!
0n!
12!
1&"
1^!
1Y!
1!!
0|!
0j!
1"!
14!
1#!
11!
1o!
1G!
1T!
1:!
0=!
1@!
01"
05"
0\
0X
1I
0H
1G
0r!
03!
0$"
0{!
0x!
0p!
0m!
0i!
0a!
0Z!
0"!
1s!
0#!
0q!
1=
0<
1;
0,
0(
1*"
0z!
1."
15"
13"
12"
11"
0}!
1w!
1L
0N
1X
1Y
1Z
1\
1W
0M
1S
1r!
0u!
1#!
11
07
1-
1(
1*
1+
1,
06
18
0-"
0+"
0*"
0)"
0R
0S
0T
0V
0s!
0.
00
01
02
#185000
1$
1E
#190000
0$
0E
#195000
1$
1E
#200000
b111110 "
b1 !
b1000 %
b0 %
b10 %
b101110 "
b1011 #
b11011 #
b11111 #
b11101 #
b10101 #
b101100 "
0$
1{
0z
1w
0v
1t
1y
0u
0r
0a
0i
0g
0`
0E
1<"
1%!
1}
1k!
1Q!
08!
00!
1~
1;!
1-!
0d!
0M!
0?!
0+!
1A!
1*!
0\!
0I!
1$!
0`!
0K!
0B!
0)!
00"
0R!
1j
0l!
0P!
01!
1x!
1m!
1U!
02!
0~!
0f!
0#"
0b!
05!
0&"
0^!
1/"
0k!
1h!
1_!
1S!
0Q!
1O!
1J!
0A!
0;!
18!
0<"
10!
0-!
0*!
0%!
0T!
0k
17!
02"
0:!
1=!
0@!
1C!
05"
01"
0X
0\
1J
0I
1H
0G
0Y
1F
12!
0r!
0V!
13!
1t!
1u!
06!
0v!
0x!
0m!
1{!
1i!
1$"
1a!
1p!
1Z!
0X!
11!
1>
0+
0=
1<
0;
1:
0(
0,
1*"
0,"
0%"
0."
0C!
0=!
1:!
07!
0F
1G
0H
0J
0W
0P
0U
1S
03!
1s!
04!
1v!
1y!
0o!
1n!
0G!
1r!
11
0/
04
0-
0:
0<
1=
0>
0:!
17!
0*"
1)"
1%"
1}!
1N
1P
1R
0S
1F
0G
14!
0t!
15!
1q!
0=
1>
01
12
14
16
1-"
1+"
0%"
0}!
1z!
0w!
0L
1M
0N
0P
1T
1V
05!
16!
1.
10
04
06
17
08
06!
0y!
1o!
0n!
1G!
1:!
07!
0F
1G
1y!
0o!
1n!
0G!
0q!
0r!
1=
0>
0:!
17!
0z!
1w!
1L
0M
1F
0G
1q!
1r!
0=
1>
07
18
1z!
0w!
0L
1M
17
08
#205000
1$
1E
#210000
0$
0E
#215000
1$
1E
