verilog/lab6/lab6_3/simulation/qsim/lab6_3.msim.vcd
$comment
	File created using the following command:
		vcd file lab6_3.msim.vcd -direction
$end
$date
	Wed Oct 16 12:26:01 2024
$end
$version
	ModelSim Version 10.5b
$end
$timescale
	1ps
$end

$scope module lab6_3_vlg_vec_tst $end
$var reg 6 ! a [5:0] $end
$var reg 6 " b [5:0] $end
$var reg 6 # c [5:0] $end
$var reg 1 $ clk $end
$var reg 6 % d [5:0] $end
$var reg 1 & rst $end
$var wire 1 ' max [5] $end
$var wire 1 ( max [4] $end
$var wire 1 ) max [3] $end
$var wire 1 * max [2] $end
$var wire 1 + max [1] $end
$var wire 1 , max [0] $end
$var wire 1 - midh [5] $end
$var wire 1 . midh [4] $end
$var wire 1 / midh [3] $end
$var wire 1 0 midh [2] $end
$var wire 1 1 midh [1] $end
$var wire 1 2 midh [0] $end
$var wire 1 3 midl [5] $end
$var wire 1 4 midl [4] $end
$var wire 1 5 midl [3] $end
$var wire 1 6 midl [2] $end
$var wire 1 7 midl [1] $end
$var wire 1 8 midl [0] $end
$var wire 1 9 min [5] $end
$var wire 1 : min [4] $end
$var wire 1 ; min [3] $end
$var wire 1 < min [2] $end
$var wire 1 = min [1] $end
$var wire 1 > min [0] $end

$scope module i1 $end
$var wire 1 ? gnd $end
$var wire 1 @ vcc $end
$var wire 1 A unknown $end
$var tri1 1 B devclrn $end
$var tri1 1 C devpor $end
$var tri1 1 D devoe $end
$var wire 1 E min[0]~output_o $end
$var wire 1 F min[1]~output_o $end
$var wire 1 G min[2]~output_o $end
$var wire 1 H min[3]~output_o $end
$var wire 1 I min[4]~output_o $end
$var wire 1 J min[5]~output_o $end
$var wire 1 K midl[0]~output_o $end
$var wire 1 L midl[1]~output_o $end
$var wire 1 M midl[2]~output_o $end
$var wire 1 N midl[3]~output_o $end
$var wire 1 O midl[4]~output_o $end
$var wire 1 P midl[5]~output_o $end
$var wire 1 Q midh[0]~output_o $end
$var wire 1 R midh[1]~output_o $end
$var wire 1 S midh[2]~output_o $end
$var wire 1 T midh[3]~output_o $end
$var wire 1 U midh[4]~output_o $end
$var wire 1 V midh[5]~output_o $end
$var wire 1 W max[0]~output_o $end
$var wire 1 X max[1]~output_o $end
$var wire 1 Y max[2]~output_o $end
$var wire 1 Z max[3]~output_o $end
$var wire 1 [ max[4]~output_o $end
$var wire 1 \ max[5]~output_o $end
$var wire 1 ] clk~input_o $end
$var wire 1 ^ clk~inputclkctrl_outclk $end
$var wire 1 _ rst~input_o $end
$var wire 1 ` c[0]~input_o $end
$var wire 1 a c_~0_combout $end
$var wire 1 b d[0]~input_o $end
$var wire 1 c d_~0_combout $end
$var wire 1 d d[5]~input_o $end
$var wire 1 e d_~1_combout $end
$var wire 1 f c[5]~input_o $end
$var wire 1 g c_~1_combout $end
$var wire 1 h c[4]~input_o $end
$var wire 1 i c_~2_combout $end
$var wire 1 j d[4]~input_o $end
$var wire 1 k d_~2_combout $end
$var wire 1 l d[3]~input_o $end
$var wire 1 m d_~3_combout $end
$var wire 1 n c[3]~input_o $end
$var wire 1 o c_~3_combout $end
$var wire 1 p c[2]~input_o $end
$var wire 1 q c_~4_combout $end
$var wire 1 r d[2]~input_o $end
$var wire 1 s d_~4_combout $end
$var wire 1 t c[1]~input_o $end
$var wire 1 u c_~5_combout $end
$var wire 1 v d[1]~input_o $end
$var wire 1 w d_~5_combout $end
$var wire 1 x v2.l22|LessThan0~1_cout $end
$var wire 1 y v2.l22|LessThan0~3_cout $end
$var wire 1 z v2.l22|LessThan0~5_cout $end
$var wire 1 { v2.l22|LessThan0~7_cout $end
$var wire 1 | v2.l22|LessThan0~9_cout $end
$var wire 1 } v2.l22|LessThan0~10_combout $end
$var wire 1 ~ v2.l22|min[0]~0_combout $end
$var wire 1 !! b[0]~input_o $end
$var wire 1 "! b_~0_combout $end
$var wire 1 #! a[0]~input_o $end
$var wire 1 $! a_~0_combout $end
$var wire 1 %! b[5]~input_o $end
$var wire 1 &! b_~1_combout $end
$var wire 1 '! a[5]~input_o $end
$var wire 1 (! a_~1_combout $end
$var wire 1 )! b[4]~input_o $end
$var wire 1 *! b_~2_combout $end
$var wire 1 +! a[4]~input_o $end
$var wire 1 ,! a_~2_combout $end
$var wire 1 -! a[3]~input_o $end
$var wire 1 .! a_~3_combout $end
$var wire 1 /! b[3]~input_o $end
$var wire 1 0! b_~3_combout $end
$var wire 1 1! a[2]~input_o $end
$var wire 1 2! a_~4_combout $end
$var wire 1 3! b[2]~input_o $end
$var wire 1 4! b_~4_combout $end
$var wire 1 5! a[1]~input_o $end
$var wire 1 6! a_~5_combout $end
$var wire 1 7! b[1]~input_o $end
$var wire 1 8! b_~5_combout $end
$var wire 1 9! v2.l21|LessThan0~1_cout $end
$var wire 1 :! v2.l21|LessThan0~3_cout $end
$var wire 1 ;! v2.l21|LessThan0~5_cout $end
$var wire 1 <! v2.l21|LessThan0~7_cout $end
$var wire 1 =! v2.l21|LessThan0~9_cout $end
$var wire 1 >! v2.l21|LessThan0~10_combout $end
$var wire 1 ?! v2.l21|min[0]~0_combout $end
$var wire 1 @! min[0]~6_combout $end
$var wire 1 A! v2.l22|min[5]~1_combout $end
$var wire 1 B! v2.l21|min[5]~1_combout $end
$var wire 1 C! v2.l21|min[4]~2_combout $end
$var wire 1 D! v2.l22|min[4]~2_combout $end
$var wire 1 E! v2.l21|min[3]~3_combout $end
$var wire 1 F! v2.l22|min[3]~3_combout $end
$var wire 1 G! v2.l22|min[2]~4_combout $end
$var wire 1 H! v2.l21|min[2]~4_combout $end
$var wire 1 I! v2.l22|min[1]~5_combout $end
$var wire 1 J! v2.l21|min[1]~5_combout $end
$var wire 1 K! min[0]~7 $end
$var wire 1 L! min[1]~9 $end
$var wire 1 M! min[2]~11 $end
$var wire 1 N! min[3]~13 $end
$var wire 1 O! min[4]~15 $end
$var wire 1 P! min[5]~17 $end
$var wire 1 Q! v2.l23|LessThan0~0_combout $end
$var wire 1 R! min[0]~reg0_q $end
$var wire 1 S! min[1]~8_combout $end
$var wire 1 T! min[1]~reg0_q $end
$var wire 1 U! min[2]~10_combout $end
$var wire 1 V! min[2]~reg0_q $end
$var wire 1 W! min[3]~12_combout $end
$var wire 1 X! min[3]~reg0_q $end
$var wire 1 Y! min[4]~14_combout $end
$var wire 1 Z! min[4]~reg0_q $end
$var wire 1 [! min[5]~16_combout $end
$var wire 1 \! min[5]~reg0_q $end
$var wire 1 ]! v2.l22|max[0]~0_combout $end
$var wire 1 ^! v2.l21|max[0]~0_combout $end
$var wire 1 _! v2.l21|max[5]~1_combout $end
$var wire 1 `! v2.l22|max[5]~1_combout $end
$var wire 1 a! v2.l21|max[4]~2_combout $end
$var wire 1 b! v2.l22|max[4]~2_combout $end
$var wire 1 c! v2.l21|max[3]~3_combout $end
$var wire 1 d! v2.l22|max[3]~3_combout $end
$var wire 1 e! v2.l22|max[2]~4_combout $end
$var wire 1 f! v2.l21|max[2]~4_combout $end
$var wire 1 g! v2.l22|max[1]~5_combout $end
$var wire 1 h! v2.l21|max[1]~5_combout $end
$var wire 1 i! v2.l22|max[0]~6_combout $end
$var wire 1 j! v2.l21|max[0]~6_combout $end
$var wire 1 k! v2.l24|LessThan0~1_cout $end
$var wire 1 l! v2.l24|LessThan0~3_cout $end
$var wire 1 m! v2.l24|LessThan0~5_cout $end
$var wire 1 n! v2.l24|LessThan0~7_cout $end
$var wire 1 o! v2.l24|LessThan0~9_cout $end
$var wire 1 p! v2.l24|LessThan0~10_combout $end
$var wire 1 q! v2.l24|min[0]~0_combout $end
$var wire 1 r! v2.l23|fmax~0_combout $end
$var wire 1 s! v2.l23|fmax~1_combout $end
$var wire 1 t! v2.l23|max[0]~0_combout $end
$var wire 1 u! midl[0]~6_combout $end
$var wire 1 v! v2.l23|max[5]~2_combout $end
$var wire 1 w! v2.l23|max[5]~1_combout $end
$var wire 1 x! v2.l23|max[5]~3_combout $end
$var wire 1 y! v2.l21|max[5]~7_combout $end
$var wire 1 z! v2.l22|max[5]~7_combout $end
$var wire 1 {! v2.l24|min[5]~1_combout $end
$var wire 1 |! v2.l23|max[4]~5_combout $end
$var wire 1 }! v2.l23|max[4]~4_combout $end
$var wire 1 ~! v2.l23|max[4]~6_combout $end
$var wire 1 !" v2.l21|max[4]~8_combout $end
$var wire 1 "" v2.l22|max[4]~8_combout $end
$var wire 1 #" v2.l24|min[4]~2_combout $end
$var wire 1 $" v2.l22|max[3]~9_combout $end
$var wire 1 %" v2.l21|max[3]~9_combout $end
$var wire 1 &" v2.l24|min[3]~3_combout $end
$var wire 1 '" v2.l23|max[3]~8_combout $end
$var wire 1 (" v2.l23|max[3]~7_combout $end
$var wire 1 )" v2.l23|max[3]~9_combout $end
$var wire 1 *" v2.l21|max[2]~10_combout $end
$var wire 1 +" v2.l22|max[2]~10_combout $end
$var wire 1 ," v2.l24|min[2]~4_combout $end
$var wire 1 -" v2.l23|max[2]~10_combout $end
$var wire 1 ." v2.l23|max[2]~11_combout $end
$var wire 1 /" v2.l23|max[2]~12_combout $end
$var wire 1 0" v2.l23|max[1]~13_combout $end
$var wire 1 1" v2.l23|max[1]~14_combout $end
$var wire 1 2" v2.l23|max[1]~15_combout $end
$var wire 1 3" v2.l22|max[1]~11_combout $end
$var wire 1 4" v2.l21|max[1]~11_combout $end
$var wire 1 5" v2.l24|min[1]~5_combout $end
$var wire 1 6" midl[0]~7 $end
$var wire 1 7" midl[1]~9 $end
$var wire 1 8" midl[2]~11 $end
$var wire 1 9" midl[3]~13 $end
$var wire 1 :" midl[4]~15 $end
$var wire 1 ;" midl[5]~17 $end
$var wire 1 <" v2.l25|LessThan0~0_combout $end
$var wire 1 =" midl[0]~reg0_q $end
$var wire 1 >" midl[1]~8_combout $end
$var wire 1 ?" midl[1]~reg0_q $end
$var wire 1 @" midl[2]~10_combout $end
$var wire 1 A" midl[2]~reg0_q $end
$var wire 1 B" midl[3]~12_combout $end
$var wire 1 C" midl[3]~reg0_q $end
$var wire 1 D" midl[4]~14_combout $end
$var wire 1 E" midl[4]~reg0_q $end
$var wire 1 F" midl[5]~16_combout $end
$var wire 1 G" midl[5]~reg0_q $end
$var wire 1 H" v2.l23|fmax~2_combout $end
$var wire 1 I" v2.l25|max[0]~0_combout $end
$var wire 1 J" v2.l25|max[0]~1_combout $end
$var wire 1 K" midh[0]~reg0_q $end
$var wire 1 L" v2.l23|max[1]~16_combout $end
$var wire 1 M" v2.l25|max[1]~2_combout $end
$var wire 1 N" v2.l25|max[1]~3_combout $end
$var wire 1 O" midh[1]~reg0_q $end
$var wire 1 P" v2.l23|max[2]~17_combout $end
$var wire 1 Q" v2.l25|max[2]~4_combout $end
$var wire 1 R" v2.l25|max[2]~5_combout $end
$var wire 1 S" midh[2]~reg0_q $end
$var wire 1 T" v2.l25|max[3]~6_combout $end
$var wire 1 U" v2.l23|max[3]~19_combout $end
$var wire 1 V" v2.l23|max[3]~18_combout $end
$var wire 1 W" v2.l23|max[3]~20_combout $end
$var wire 1 X" v2.l25|max[3]~7_combout $end
$var wire 1 Y" midh[3]~reg0_q $end
$var wire 1 Z" v2.l23|max[4]~21_combout $end
$var wire 1 [" v2.l25|max[4]~8_combout $end
$var wire 1 \" v2.l25|max[4]~9_combout $end
$var wire 1 ]" midh[4]~reg0_q $end
$var wire 1 ^" v2.l23|max[5]~22_combout $end
$var wire 1 _" v2.l25|max[5]~10_combout $end
$var wire 1 `" v2.l25|max[5]~11_combout $end
$var wire 1 a" midh[5]~reg0_q $end
$var wire 1 b" v2.l24|max[0]~0_combout $end
$var wire 1 c" max[0]~reg0_q $end
$var wire 1 d" v2.l24|max[1]~1_combout $end
$var wire 1 e" max[1]~reg0_q $end
$var wire 1 f" v2.l24|max[2]~2_combout $end
$var wire 1 g" max[2]~reg0_q $end
$var wire 1 h" v2.l24|max[3]~3_combout $end
$var wire 1 i" max[3]~reg0_q $end
$var wire 1 j" v2.l24|max[4]~4_combout $end
$var wire 1 k" max[4]~reg0_q $end
$var wire 1 l" v2.l24|max[5]~5_combout $end
$var wire 1 m" max[5]~reg0_q $end
$var wire 1 n" d_ [5] $end
$var wire 1 o" d_ [4] $end
$var wire 1 p" d_ [3] $end
$var wire 1 q" d_ [2] $end
$var wire 1 r" d_ [1] $end
$var wire 1 s" d_ [0] $end
$var wire 1 t" c_ [5] $end
$var wire 1 u" c_ [4] $end
$var wire 1 v" c_ [3] $end
$var wire 1 w" c_ [2] $end
$var wire 1 x" c_ [1] $end
$var wire 1 y" c_ [0] $end
$var wire 1 z" b_ [5] $end
$var wire 1 {" b_ [4] $end
$var wire 1 |" b_ [3] $end
$var wire 1 }" b_ [2] $end
$var wire 1 ~" b_ [1] $end
$var wire 1 !# b_ [0] $end
$var wire 1 "# a_ [5] $end
$var wire 1 ## a_ [4] $end
$var wire 1 $# a_ [3] $end
$var wire 1 %# a_ [2] $end
$var wire 1 &# a_ [1] $end
$var wire 1 '# a_ [0] $end
$upscope $end
$upscope $end
$enddefinitions $end
#0
$dumpvars
b110101 !
b10100 "
b100100 #
0$
b101000 %
0&
0,
0+
0*
0)
0(
0'
02
01
00
0/
0.
0-
08
07
06
05
04
03
0>
0=
0<
0;
0:
09
0?
1@
xA
1B
1C
1D
0E
0F
0G
0H
0I
0J
0K
0L
0M
0N
0O
0P
0Q
0R
0S
0T
0U
0V
0W
0X
0Y
0Z
0[
0\
0]
0^
0_
0`
0a
0b
0c
1d
1e
1f
1g
0h
0i
0j
0k
1l
1m
0n
0o
1p
1q
0r
0s
0t
0u
0v
0w
0x
1y
0z
1{
0|
0}
0~
0!!
0"!
1#!
1$!
0%!
0&!
1'!
1(!
1)!
1*!
1+!
1,!
0-!
0.!
0/!
00!
11!
12!
13!
14!
05!
06!
07!
08!
09!
1:!
0;!
1<!
0=!
0>!
0?!
0@!
0A!
0B!
0C!
0D!
0E!
0F!
0G!
0H!
0I!
0J!
0K!
1L!
0M!
1N!
0O!
1P!
0Q!
0R!
0S!
0T!
0U!
0V!
0W!
0X!
0Y!
0Z!
0[!
0\!
0]!
0^!
0_!
0`!
0a!
0b!
0c!
0d!
0e!
0f!
0g!
0h!
0i!
0j!
0k!
1l!
0m!
1n!
0o!
0p!
0q!
0r!
0s!
0t!
0u!
0v!
0w!
0x!
0y!
0z!
0{!
0|!
0}!
0~!
0!"
0""
0#"
0$"
0%"
0&"
0'"
0("
0)"
0*"
0+"
0,"
0-"
0."
0/"
00"
01"
02"
03"
04"
05"
06"
17"
08"
19"
0:"
1;"
0<"
0="
0>"
0?"
0@"
0A"
0B"
0C"
0D"
0E"
0F"
0G"
0H"
0I"
0J"
0K"
0L"
0M"
0N"
0O"
0P"
0Q"
0R"
0S"
0T"
0U"
0V"
0W"
0X"
0Y"
0Z"
0["
0\"
0]"
0^"
0_"
0`"
0a"
0b"
0c"
0d"
0e"
0f"
0g"
0h"
0i"
0j"
0k"
0l"
0m"
0s"
0r"
0q"
0p"
0o"
0n"
0y"
0x"
0w"
0v"
0u"
0t"
0!#
0~"
0}"
0|"
0{"
0z"
0'#
0&#
0%#
0$#
0##
0"#
$end
#5000
1$
1]
1^
1}"
1%#
1##
1{"
1"#
1'#
1w"
1p"
1t"
1n"
1-"
1*"
1f!
1H!
1!"
1a!
1C!
1B!
1>!
1r!
1?!
19!
1."
1G!
1z
1$"
1d!
1z!
1w!
1`!
1A!
1P"
1/"
1Q"
1,"
1m!
1["
1#"
1o!
1O!
1y!
0r!
1j!
1_!
1^!
0B!
0?!
1K!
0:!
1^"
1x!
1U!
1Y!
1[!
1@!
1h"
1l"
1:"
1p!
1_"
1{!
1k!
1I"
1q!
0K!
0L!
1;!
1R"
1@"
1D"
0[!
0@!
1`"
0;"
0["
1T"
0Q"
0I"
0,"
1&"
0#"
0q!
0l!
16"
1L!
1M!
0<!
1F"
1j"
0h"
1f"
1b"
1u!
1<"
09"
0:"
06"
07"
0M!
0N!
1=!
0@"
1B"
0D"
0u!
1:"
1;"
17"
1N!
1X"
0R"
0;"
0<"
1<"
0X"
1R"
1X"
0R"
#10000
0$
0]
0^
#15000
1$
1]
1^
1m"
1k"
1g"
1c"
1a"
1Y"
1G"
1A"
1Z!
1V!
1G
1I
1M
1P
1T
1V
1W
1Y
1[
1\
1'
1(
1*
1,
1-
1/
13
16
1:
1<
#20000
b10101 !
b101 !
b100 !
b10000 "
b110100 #
b110110 #
b1000 %
b1100 %
b1101 %
0$
1b
1r
0d
1t
1h
03!
0#!
0+!
0'!
0]
0^
1c
1s
0e
1u
04!
0$!
0(!
1i
0,!
#25000
1$
1]
1^
0}"
0##
0"#
0'#
1x"
1q"
1u"
0n"
1s"
0-"
0H!
0!"
0a!
0=!
0y!
0_!
0j!
0^!
09!
11"
1I!
0y
1+"
1e!
0z
1}!
1D!
1|
0z!
0`!
1}
1i!
1]!
0o!
0>!
0_"
0{!
0k!
1I"
1q!
1:!
1L"
12"
1z
1Q"
1,"
1Z"
1~!
0O!
1V"
13"
01"
1'"
0$"
1""
0}!
1z!
0w!
1s!
0i!
1g!
0d!
1b!
1`!
0]!
0I!
1F!
0D!
0A!
1~
0U!
0j"
0l"
0b"
0p!
1-"
0*"
1!"
0f!
1a!
1H!
0C!
1;"
1l!
16"
0:"
1W"
1M"
15"
0L"
02"
1)"
0T"
0&"
1["
1#"
0Z"
0~!
1_"
1{!
0^"
0x!
1H"
1t!
0n!
0I"
0q!
1O!
0`"
0F"
1J"
1u!
1R"
1@"
0_"
0Q"
0M"
05"
0,"
0{!
0m!
1o!
0O!
0<"
07"
0;"
19"
1:"
06"
0P!
1l"
1j"
1d"
1U!
0Y!
1>"
1F"
0X"
1N"
0B"
1\"
1D"
1`"
0J"
0u!
17"
1n!
1P!
1<"
1Q!
0`"
0N"
0>"
0@"
0F"
0\"
1X"
1J"
0o!
0Q!
0V"
0H"
0)"
0t!
1\"
0X"
0R"
0J"
1V"
1H"
1)"
1t!
0W"
1W"
#30000
0$
0]
0^
#35000
1$
1]
1^
1e"
0c"
0a"
1]"
0Y"
0G"
1C"
1="
0Z!
0I
1K
1N
0P
0T
1U
0V
0W
1X
1+
0,
0-
1.
0/
03
15
18
0:
#40000
b0 !
b110000 "
b110010 "
b10110 #
b11110 #
b11010 #
b101 %
b110110 "
0$
0l
0p
1n
0f
17!
13!
1%!
01!
0]
0^
0q
1o
0g
18!
14!
1&!
02!
0m
#45000
1$
1]
1^
1~"
1}"
0%#
1z"
0w"
1v"
0p"
0t"
14"
1h!
0-"
1*"
1f!
0H!
0;!
1y!
1_!
0+"
0e!
0z
0V"
0'"
1$"
1d!
0F!
0{
0z!
0`!
1M"
15"
1Q"
1,"
1m!
1<!
1_"
1{!
1p!
0W"
0)"
0f"
0U!
0l"
1h"
07"
0_"
1T"
0Q"
0,"
1&"
0{!
1N"
1>"
1R"
1@"
1`"
1F"
1l"
0h"
1f"
09"
0@"
0`"
1X"
0R"
1B"
0F"
#50000
0$
0]
0^
#55000
1$
1]
1^
1Y"
1O"
0C"
0V!
0G
0N
1R
1T
1/
11
05
0<
#60000
b1000 !
b100110 "
b101110 "
b101111 "
b101000 !
b111000 !
b111001 !
b1010 #
b1 %
b1111 "
b10 #
b1011 "
0$
0r
0n
0h
1!!
03!
1/!
0)!
0%!
1#!
1-!
1+!
1'!
0]
0^
0s
0o
1"!
04!
10!
0*!
0&!
1$!
1.!
1(!
0i
1,!
#65000
1$
1]
1^
0}"
1|"
1$#
1##
0{"
1"#
0z"
1'#
1!#
0q"
0v"
0u"
0*"
0f!
1("
1%"
1c!
1E!
0!"
0a!
1C!
1=!
0y!
0_!
1B!
1>!
1r!
1j!
1^!
1?!
0."
0G!
1z
0$"
0d!
1{
0""
0b!
0m!
0T"
0&"
0n!
0N!
0["
0#"
1O!
0p!
0P!
04"
10"
1!"
1y!
0h!
1a!
1_!
1J!
0C!
0B!
1k!
0P"
0/"
0{
0|
0f"
1h"
1W!
0j"
1Y!
0l"
1[!
1b"
1@!
19"
1o!
1_"
1["
1T"
0M"
1I"
05"
1&"
1#"
1{!
1q!
1Q!
1p!
0L!
18"
1|
0}
0X"
0B"
0Y!
0\"
0D"
0[!
0h"
0b"
1S!
17"
09"
1U"
1L"
12"
1)"
0_"
0["
0T"
1M"
0I"
15"
0&"
0#"
0{!
0q!
1M!
1}
03"
11"
0s!
1i!
0g!
1]!
1I!
0~
1D"
1`"
1\"
1X"
0N"
1J"
0>"
1B"
1F"
1u!
1l"
1j"
1h"
0d"
1b"
08"
1W"
19"
13"
01"
1s!
0i!
1g!
0]!
0I!
1~
0M"
05"
0k!
0l!
1I"
1q!
1L!
1K!
0D"
1N"
1>"
0B"
0`"
0\"
0X"
0J"
0F"
0u!
0:"
1M"
15"
1k!
1l!
0I"
0q!
0L!
0K!
1m!
0M!
0N"
0>"
1J"
1u!
1;"
0m!
1M!
1N"
1>"
0J"
0u!
0<"
1X"
1J"
#70000
0$
0]
0^
#75000
1$
1]
1^
1i"
0g"
0e"
1c"
0]"
1K"
0A"
1?"
0="
1R!
1E
0K
1L
0M
1Q
0U
1W
0X
0Y
1Z
1)
0*
0+
1,
0.
12
06
17
08
1>
#80000
b111011 !
b11 #
b10001 %
b110001 %
b111111 !
b1001 "
b111 #
b11001 "
b10001 "
b11111 !
b11110 !
b10111 #
b110101 %
b11111 #
0$
07!
0/!
1)!
1r
1j
1d
1`
1p
1n
1h
0#!
15!
11!
0'!
0]
0^
08!
00!
1*!
1s
1k
1e
1a
1q
1o
0$!
16!
12!
0(!
1i
#85000
1$
1]
1^
0~"
1&#
1%#
0|"
1{"
0"#
0'#
1q"
1w"
1v"
1o"
1u"
1n"
1y"
14"
00"
1h!
0J!
0:!
1*"
1f!
1;!
0U"
0("
0E!
0<!
1|!
1C!
0=!
0y!
0_!
0j!
0^!
1."
1+"
1e!
1G!
1$"
1d!
1""
1b!
1D!
1A!
0}
1i!
1]!
0L"
02"
0l!
1L!
1Q"
1,"
0W"
0)"
1=!
1Z"
1~!
0>!
0k!
1I"
1q!
0M!
1T"
1&"
1n!
1["
1#"
1P!
03"
11"
1'"
0$"
1z!
0g!
0d!
1`!
1I!
1F!
0A!
1d"
0S!
1f"
0W!
1Y!
0l"
0b"
07"
1m!
18"
09"
1>!
1U"
04"
10"
1-"
0*"
1("
0%"
0r!
1j!
0h!
0f!
0c!
1^!
1J!
1H!
1E!
0?!
1N!
0o!
0Q!
0M"
05"
0T"
0&"
1_"
1{!
0n!
0p!
0P!
0N"
1@"
0X"
1B"
1\"
1D"
1u!
1:"
0U"
14"
00"
0-"
1*"
0("
1%"
0|!
1r!
0j!
1h!
1f!
1c!
0^!
0J!
0H!
0E!
1?!
1W"
1L"
12"
1P"
1/"
0Q"
0,"
1)"
1l!
0m!
0O!
1V"
1}!
17"
0;"
1o!
0_"
0{!
1Q!
0B"
0d"
0h"
1b"
1S!
1U!
1W!
0@!
0>"
1F"
1l"
1M"
15"
0L"
02"
0P"
0/"
1Q"
1,"
0)"
1T"
1&"
0l!
0I"
0q!
08"
19"
1P!
1<"
0V"
0}!
1|!
0F"
0S!
0U!
0W!
1@!
1X"
1N"
1R"
0@"
07"
18"
09"
1m!
0:"
0Q!
0W"
1>"
1@"
1B"
0J"
0u!
1:"
1;"
1V"
1P"
1L"
12"
1/"
1)"
1}!
0|!
0;"
0<"
1W"
17"
1<"
08"
1J"
19"
0J"
0:"
1;"
0<"
1J"
#90000
0$
0]
0^
#95000
1$
1]
1^
0i"
1g"
1]"
1S"
1E"
1C"
1A"
1Z!
1I
1M
1N
1O
1S
1U
1Y
0Z
0)
1*
1.
10
14
15
16
1:
#100000
b11101 #
b111101 #
b111101 %
b10110 !
b110001 "
b111100 #
b10010 !
b111001 "
b10011 !
b101100 #
0$
1/!
1%!
1#!
01!
0-!
1l
0`
0t
0h
1f
0]
0^
10!
1&!
1$!
02!
0.!
0a
0u
1g
1m
0i
#105000
1$
1]
1^
0%#
1|"
0$#
1z"
1'#
0x"
1p"
0u"
1t"
0y"
0*"
0f!
1("
0%"
0c!
1E!
1<!
1B!
0>!
1j!
1^!
01"
0I!
1y
1$"
1d!
0}!
0D!
0|
1w!
1A!
1}
0s!
0~
0Q"
0,"
0m!
0T"
0&"
1n!
0=!
04"
10"
0("
1%"
1y!
0h!
1c!
1_!
1J!
0E!
0B!
1I"
1q!
0L"
02"
0z
0Z"
0~!
1O!
0}
1^"
1x!
0""
1}!
1s!
0i!
0b!
0]!
1D!
1~
0H"
0t!
1K!
1h"
1W!
1[!
0M"
05"
1T"
1&"
1_"
1{!
1l!
1p!
0L!
16"
07"
1{
1:"
1""
0}!
0s!
1i!
1b!
1]!
0D!
0~
1Z"
1~!
1H"
1t!
1k!
0O!
0K!
0@"
0B"
1S!
0W!
0[!
0J"
1u!
0N"
0\"
1`"
0j"
0b"
0;"
1Q"
1,"
0Z"
0~!
0H"
0t!
0k!
0o!
1O!
1K!
0:"
06"
0l!
0>"
1B"
1F"
1j"
0f"
1b"
1\"
1J"
1<"
18"
1:"
16"
1l!
0p!
1;"
17"
1@"
0\"
0J"
09"
0;"
07"
0Q"
0,"
0<"
08"
1\"
1J"
1f"
1<"
19"
0@"
0\"
0J"
1\"
0R"
1J"
#110000
0$
0]
0^
#115000
1$
1]
1^
1i"
1a"
0S"
0O"
1G"
0E"
0?"
1T!
1F
0L
0O
1P
0R
0S
1V
1Z
1)
1-
00
01
13
04
07
1=
#120000
b111111 %
b101111 %
b111011 "
b101011 %
b1100 #
b100011 %
b10111 !
0$
11!
0f
17!
1v
0r
0l
0j
0]
0^
12!
0g
18!
0s
0k
1w
0m
#125000
1$
1]
1^
1~"
1%#
1r"
0q"
0p"
0o"
0t"
14"
1h!
1:!
1-"
1H!
13"
1g!
0+"
0e!
1z
0$"
0d!
0{
0""
0b!
0w!
0A!
1M"
15"
1M!
0n!
1|
1o!
0^"
0x!
0P!
1d"
1U!
0f"
0h"
0j"
1p!
1Q!
1N"
1>"
0["
0T"
0&"
0#"
0V"
1L"
1H"
12"
0)"
1|!
1t!
1j"
1h"
0:"
0W"
1Z"
1~!
06"
0\"
0X"
0B"
0D"
17"
#130000
0$
0]
0^
#135000
1$
1]
1^
0g"
1e"
0]"
0Y"
1O"
0G"
1E"
0C"
1?"
1="
0Z!
1X!
1V!
0T!
0R!
0E
0F
1G
1H
0I
1K
1L
0N
1O
0P
1R
0T
0U
1X
0Y
0*
1+
0.
0/
11
03
14
05
17
18
0:
1;
1<
0=
0>
#140000
b101011 "
b110111 !
b111111 !
b1011 "
b1101 #
b11 "
b111110 !
b11101 #
b110011 %
b110111 %
b111101 #
b111111 %
0$
1r
1l
1j
1`
1h
1f
0#!
1-!
1'!
0/!
0)!
0%!
0]
0^
1s
1k
1a
1g
0$!
1.!
1(!
00!
0*!
0&!
1m
1i
#145000
1$
1]
1^
0|"
1$#
0{"
1"#
0z"
0'#
1q"
1p"
1o"
1u"
1t"
1y"
1U"
1("
0%"
0c!
1E!
0<!
0!"
0a!
1=!
0y!
1v!
0_!
1B!
1>!
0r!
0?!
1+"
1e!
0z
1$"
1d!
1""
1b!
1D!
1A!
1}
1s!
1~
1W"
1)"
1T"
1&"
1n!
0N!
1["
1#"
0o!
1^"
1x!
0p!
0U"
0-"
1*"
0("
1%"
1!"
0|!
1y!
0v!
1r!
0j!
1f!
1c!
1a!
1_!
0^!
0H!
0E!
0C!
0B!
1?!
0H"
0t!
0K!
1Q"
1,"
1{
0O!
03"
11"
0g!
1I!
0h"
1W!
0j"
0l"
1[!
0@!
1;"
0I"
0q!
0W"
0P"
0/"
0)"
0Z"
0~!
0^"
0x!
1H"
1t!
0M!
1N!
1P!
16"
1L!
0|
0l!
1X"
1B"
0Y!
1\"
1D"
1l"
1j"
1h"
1f"
0d"
0U!
0W!
0[!
1@!
1R"
1@"
0<"
06"
18"
09"
1:"
0;"
0Q!
07"
0}
1m!
0J"
0u!
17"
1<"
1V"
1P"
1/"
1)"
1}!
1w!
13"
01"
1g!
0I!
0n!
0`"
0\"
0X"
0R"
1J"
08"
1W"
1Z"
1~!
1^"
1x!
0L"
02"
1l!
0L!
1o!
1`"
1\"
1X"
1R"
0J"
1d"
19"
07"
0m!
1p!
0:"
18"
1n!
1I"
1q!
0b"
1;"
09"
0o!
1J"
1u!
0<"
1:"
0p!
0;"
0I"
0q!
0N"
1b"
1<"
0u!
1N"
0J"
#150000
0$
0]
0^
#155000
1$
1]
1^
1g"
1]"
1Y"
1S"
0K"
1G"
1C"
0?"
0X!
0V!
1T!
1R!
1E
1F
0G
0H
0L
1N
1P
0Q
1S
1T
1U
1Y
1*
1.
1/
10
02
13
15
07
0;
0<
1=
1>
#160000
b111 "
b110101 #
b111101 %
b101 "
b10101 "
b11110 !
b10110 !
b110100 #
b11101 "
b100100 #
b111001 %
b100 #
0$
0-!
0'!
0v
0r
0`
0n
0h
0f
07!
13!
1/!
1)!
0]
0^
0.!
0(!
0s
0a
0o
0g
08!
14!
10!
1*!
0w
0i
