verilog/lab4/lab4_3/simulation/qsim/lab4_3.msim.vcd
$comment
	File created using the following command:
		vcd file lab4_3.msim.vcd -direction
$end
$date
	Wed Oct 02 13:32:55 2024
$end
$version
	ModelSim Version 10.5b
$end
$timescale
	1ps
$end

$scope module lab4_3_vlg_vec_tst $end
$var reg 1 ! clk $end
$var reg 7 " din [6:0] $end
$var reg 1 # dir $end
$var reg 1 $ load $end
$var reg 1 % rst $end
$var wire 1 & q [6] $end
$var wire 1 ' q [5] $end
$var wire 1 ( q [4] $end
$var wire 1 ) q [3] $end
$var wire 1 * q [2] $end
$var wire 1 + q [1] $end
$var wire 1 , q [0] $end

$scope module i1 $end
$var wire 1 - gnd $end
$var wire 1 . vcc $end
$var wire 1 / unknown $end
$var tri1 1 0 devclrn $end
$var tri1 1 1 devpor $end
$var tri1 1 2 devoe $end
$var wire 1 3 q[0]~output_o $end
$var wire 1 4 q[1]~output_o $end
$var wire 1 5 q[2]~output_o $end
$var wire 1 6 q[3]~output_o $end
$var wire 1 7 q[4]~output_o $end
$var wire 1 8 q[5]~output_o $end
$var wire 1 9 q[6]~output_o $end
$var wire 1 : clk~input_o $end
$var wire 1 ; clk~inputclkctrl_outclk $end
$var wire 1 < din[1]~input_o $end
$var wire 1 = din[3]~input_o $end
$var wire 1 > din_int[3]~feeder_combout $end
$var wire 1 ? din[4]~input_o $end
$var wire 1 @ tmp_din_int[4]~feeder_combout $end
$var wire 1 A din[2]~input_o $end
$var wire 1 B tmp_din_int[2]~feeder_combout $end
$var wire 1 C din_int[2]~feeder_combout $end
$var wire 1 D counter|LessThan0~0_combout $end
$var wire 1 E din[6]~input_o $end
$var wire 1 F tmp_din_int[6]~feeder_combout $end
$var wire 1 G din[5]~input_o $end
$var wire 1 H din_int[5]~feeder_combout $end
$var wire 1 I counter|LessThan0~1_combout $end
$var wire 1 J load~input_o $end
$var wire 1 K tmp_load_int~feeder_combout $end
$var wire 1 L tmp_load_int~q $end
$var wire 1 M load_int~q $end
$var wire 1 N din[0]~input_o $end
$var wire 1 O tmp_din_int[0]~feeder_combout $end
$var wire 1 P din_int[0]~feeder_combout $end
$var wire 1 Q dir~input_o $end
$var wire 1 R tmp_dir_int~q $end
$var wire 1 S dir_int~q $end
$var wire 1 T counter|Equal1~1_combout $end
$var wire 1 U counter|Add0~10_combout $end
$var wire 1 V counter|Add0~7 $end
$var wire 1 W counter|Add0~9 $end
$var wire 1 X counter|Add0~11_combout $end
$var wire 1 Y counter|Add1~7 $end
$var wire 1 Z counter|Add1~8_combout $end
$var wire 1 [ counter|Add0~13_combout $end
$var wire 1 \ tmp_rst_int~feeder_combout $end
$var wire 1 ] rst~input_o $end
$var wire 1 ^ tmp_rst_int~q $end
$var wire 1 _ divider|Add0~0_combout $end
$var wire 1 ` divider|Add0~1 $end
$var wire 1 a divider|Add0~2_combout $end
$var wire 1 b divider|Add0~3 $end
$var wire 1 c divider|Add0~4_combout $end
$var wire 1 d divider|count~0_combout $end
$var wire 1 e divider|Add0~5 $end
$var wire 1 f divider|Add0~6_combout $end
$var wire 1 g divider|Add0~7 $end
$var wire 1 h divider|Add0~8_combout $end
$var wire 1 i divider|Add0~9 $end
$var wire 1 j divider|Add0~10_combout $end
$var wire 1 k divider|Add0~11 $end
$var wire 1 l divider|Add0~12_combout $end
$var wire 1 m divider|Add0~13 $end
$var wire 1 n divider|Add0~14_combout $end
$var wire 1 o divider|Add0~15 $end
$var wire 1 p divider|Add0~16_combout $end
$var wire 1 q divider|Add0~17 $end
$var wire 1 r divider|Add0~18_combout $end
$var wire 1 s divider|Add0~19 $end
$var wire 1 t divider|Add0~20_combout $end
$var wire 1 u divider|Add0~21 $end
$var wire 1 v divider|Add0~22_combout $end
$var wire 1 w divider|Add0~23 $end
$var wire 1 x divider|Add0~24_combout $end
$var wire 1 y divider|Add0~25 $end
$var wire 1 z divider|Add0~26_combout $end
$var wire 1 { divider|Add0~27 $end
$var wire 1 | divider|Add0~28_combout $end
$var wire 1 } divider|Add0~29 $end
$var wire 1 ~ divider|Add0~30_combout $end
$var wire 1 !! divider|Add0~31 $end
$var wire 1 "! divider|Add0~32_combout $end
$var wire 1 #! divider|Add0~33 $end
$var wire 1 $! divider|Add0~34_combout $end
$var wire 1 %! divider|Add0~35 $end
$var wire 1 &! divider|Add0~36_combout $end
$var wire 1 '! divider|Add0~37 $end
$var wire 1 (! divider|Add0~38_combout $end
$var wire 1 )! divider|Add0~39 $end
$var wire 1 *! divider|Add0~40_combout $end
$var wire 1 +! divider|Add0~41 $end
$var wire 1 ,! divider|Add0~42_combout $end
$var wire 1 -! divider|Add0~43 $end
$var wire 1 .! divider|Add0~44_combout $end
$var wire 1 /! divider|Add0~45 $end
$var wire 1 0! divider|Add0~46_combout $end
$var wire 1 1! divider|Equal0~6_combout $end
$var wire 1 2! divider|Equal0~5_combout $end
$var wire 1 3! divider|Equal0~1_combout $end
$var wire 1 4! divider|Equal0~0_combout $end
$var wire 1 5! divider|Equal0~3_combout $end
$var wire 1 6! divider|Equal0~2_combout $end
$var wire 1 7! divider|Equal0~4_combout $end
$var wire 1 8! divider|Add0~47 $end
$var wire 1 9! divider|Add0~48_combout $end
$var wire 1 :! divider|Add0~49 $end
$var wire 1 ;! divider|Add0~50_combout $end
$var wire 1 <! divider|Add0~51 $end
$var wire 1 =! divider|Add0~52_combout $end
$var wire 1 >! divider|Add0~53 $end
$var wire 1 ?! divider|Add0~54_combout $end
$var wire 1 @! divider|Equal0~7_combout $end
$var wire 1 A! divider|Add0~55 $end
$var wire 1 B! divider|Add0~56_combout $end
$var wire 1 C! divider|Add0~57 $end
$var wire 1 D! divider|Add0~58_combout $end
$var wire 1 E! divider|Add0~59 $end
$var wire 1 F! divider|Add0~60_combout $end
$var wire 1 G! divider|Add0~61 $end
$var wire 1 H! divider|Add0~62_combout $end
$var wire 1 I! divider|Equal0~8_combout $end
$var wire 1 J! divider|Equal0~9_combout $end
$var wire 1 K! divider|Equal0~10_combout $end
$var wire 1 L! divider|cout~feeder_combout $end
$var wire 1 M! divider|cout~q $end
$var wire 1 N! counter|Add0~12 $end
$var wire 1 O! counter|Add0~14_combout $end
$var wire 1 P! counter|Add1~9 $end
$var wire 1 Q! counter|Add1~10_combout $end
$var wire 1 R! counter|Add0~16_combout $end
$var wire 1 S! counter|Add0~15 $end
$var wire 1 T! counter|Add0~17_combout $end
$var wire 1 U! counter|Add1~11 $end
$var wire 1 V! counter|Add1~12_combout $end
$var wire 1 W! counter|Add0~19_combout $end
$var wire 1 X! counter|Equal1~0_combout $end
$var wire 1 Y! counter|Add0~5_combout $end
$var wire 1 Z! counter|Add1~1 $end
$var wire 1 [! counter|Add1~2_combout $end
$var wire 1 \! counter|q~4_combout $end
$var wire 1 ]! counter|Add0~1 $end
$var wire 1 ^! counter|Add0~2_combout $end
$var wire 1 _! counter|Add0~4_combout $end
$var wire 1 `! counter|q~5_combout $end
$var wire 1 a! counter|Add0~3 $end
$var wire 1 b! counter|Add0~6_combout $end
$var wire 1 c! counter|Add1~3 $end
$var wire 1 d! counter|Add1~4_combout $end
$var wire 1 e! counter|q~6_combout $end
$var wire 1 f! counter|q~7_combout $end
$var wire 1 g! counter|Add1~5 $end
$var wire 1 h! counter|Add1~6_combout $end
$var wire 1 i! counter|Add0~8_combout $end
$var wire 1 j! counter|q~8_combout $end
$var wire 1 k! counter|q~9_combout $end
$var wire 1 l! counter|q[1]~0_combout $end
$var wire 1 m! counter|q~1_combout $end
$var wire 1 n! counter|Add0~0_combout $end
$var wire 1 o! counter|Add1~0_combout $end
$var wire 1 p! counter|q~2_combout $end
$var wire 1 q! counter|q~3_combout $end
$var wire 1 r! din_int [6] $end
$var wire 1 s! din_int [5] $end
$var wire 1 t! din_int [4] $end
$var wire 1 u! din_int [3] $end
$var wire 1 v! din_int [2] $end
$var wire 1 w! din_int [1] $end
$var wire 1 x! din_int [0] $end
$var wire 1 y! counter|q [6] $end
$var wire 1 z! counter|q [5] $end
$var wire 1 {! counter|q [4] $end
$var wire 1 |! counter|q [3] $end
$var wire 1 }! counter|q [2] $end
$var wire 1 ~! counter|q [1] $end
$var wire 1 !" counter|q [0] $end
$var wire 1 "" tmp_din_int [6] $end
$var wire 1 #" tmp_din_int [5] $end
$var wire 1 $" tmp_din_int [4] $end
$var wire 1 %" tmp_din_int [3] $end
$var wire 1 &" tmp_din_int [2] $end
$var wire 1 '" tmp_din_int [1] $end
$var wire 1 (" tmp_din_int [0] $end
$var wire 1 )" divider|count [31] $end
$var wire 1 *" divider|count [30] $end
$var wire 1 +" divider|count [29] $end
$var wire 1 ," divider|count [28] $end
$var wire 1 -" divider|count [27] $end
$var wire 1 ." divider|count [26] $end
$var wire 1 /" divider|count [25] $end
$var wire 1 0" divider|count [24] $end
$var wire 1 1" divider|count [23] $end
$var wire 1 2" divider|count [22] $end
$var wire 1 3" divider|count [21] $end
$var wire 1 4" divider|count [20] $end
$var wire 1 5" divider|count [19] $end
$var wire 1 6" divider|count [18] $end
$var wire 1 7" divider|count [17] $end
$var wire 1 8" divider|count [16] $end
$var wire 1 9" divider|count [15] $end
$var wire 1 :" divider|count [14] $end
$var wire 1 ;" divider|count [13] $end
$var wire 1 <" divider|count [12] $end
$var wire 1 =" divider|count [11] $end
$var wire 1 >" divider|count [10] $end
$var wire 1 ?" divider|count [9] $end
$var wire 1 @" divider|count [8] $end
$var wire 1 A" divider|count [7] $end
$var wire 1 B" divider|count [6] $end
$var wire 1 C" divider|count [5] $end
$var wire 1 D" divider|count [4] $end
$var wire 1 E" divider|count [3] $end
$var wire 1 F" divider|count [2] $end
$var wire 1 G" divider|count [1] $end
$var wire 1 H" divider|count [0] $end
$upscope $end
$upscope $end
$enddefinitions $end
#0
$dumpvars
0!
b0 "
1#
1$
1%
1,
1+
1*
1)
1(
1'
1&
0-
1.
x/
10
11
12
13
14
15
16
17
18
19
0:
0;
0<
0=
0>
0?
0@
0A
0B
0C
0D
0E
0F
0G
0H
0I
1J
1K
0L
0M
0N
0O
0P
1Q
0R
0S
1T
0U
0V
1W
0X
1Y
1Z
0[
1\
1]
0^
1_
0`
0a
1b
0c
0d
0e
0f
1g
0h
0i
0j
1k
0l
0m
0n
1o
0p
0q
0r
1s
0t
0u
0v
1w
0x
0y
0z
1{
0|
0}
0~
1!!
0"!
0#!
0$!
1%!
0&!
0'!
0(!
1)!
0*!
0+!
0,!
1-!
0.!
0/!
00!
11!
12!
13!
04!
15!
16!
07!
18!
09!
0:!
0;!
1<!
0=!
0>!
0?!
1@!
1A!
0B!
0C!
0D!
1E!
0F!
0G!
0H!
1I!
1J!
0K!
0L!
0M!
0N!
0O!
0P!
1Q!
0R!
1S!
0T!
1U!
1V!
0W!
1X!
0Y!
0Z!
1[!
0\!
0]!
0^!
0_!
0`!
1a!
0b!
1c!
1d!
0e!
0f!
0g!
1h!
0i!
0j!
0k!
0l!
0m!
1n!
1o!
0p!
0q!
0x!
0w!
0v!
0u!
0t!
0s!
0r!
0!"
0~!
0}!
0|!
0{!
0z!
0y!
0("
0'"
0&"
0%"
0$"
0#"
0""
0H"
0G"
0F"
0E"
0D"
0C"
0B"
0A"
0@"
0?"
0>"
0="
0<"
0;"
0:"
09"
08"
07"
06"
05"
04"
03"
02"
01"
00"
0/"
0."
0-"
0,"
0+"
0*"
0)"
$end
#10000
1!
1:
1;
1H"
1^
1R
1L
1`
0_
1a
#20000
0!
0:
0;
#30000
1!
1:
1;
1G"
0H"
1S
1M
0b
0`
1U
1m!
0a
1_
1c
1b
1p!
1a
0c
1d
1q!
0d
#40000
0!
0:
0;
#50000
1!
1:
1;
1H"
14!
1`
0_
17!
0b
0a
1K!
1c
1L!
#60000
0!
0:
0;
#70000
b100 "
1!
1A
1:
1;
1B
1M!
0G"
0H"
04!
1b
0`
1a
1_
07!
0c
0a
0K!
0L!
#80000
b110 "
b10 "
0!
1<
0A
0:
0;
0B
#90000
1!
1:
1;
1!"
0M!
1H"
1'"
03
1]!
0n!
1Z!
0o!
0T
1`
0,
0_
1^!
0p!
0c!
0[!
1a
1_!
1g!
0d!
0q!
0Y
0h!
1`!
1P!
0Z
0U!
0Q!
0V!
#100000
0!
0:
0;
#110000
1!
1:
1;
1G"
0H"
1w!
0b
0`
0a
1_
1c
1b
1a
0c
1d
0d
#120000
0!
0:
0;
#130000
1!
1:
1;
1H"
14!
1`
0_
17!
0b
0a
1K!
1c
1L!
#140000
0!
0:
0;
#150000
1!
1:
1;
1M!
0G"
0H"
04!
1b
0`
1a
1_
07!
0c
0a
0K!
0L!
#160000
0!
0:
0;
#170000
1!
1:
1;
0!"
1~!
0M!
1H"
04
13
0]!
1n!
0Z!
1o!
1T
0a!
0^!
1[!
0X!
1`
1,
0+
0_
1a!
1^!
1p!
0[!
1b!
0_!
1a
0b!
1_!
1e!
1q!
0`!
0e!
1`!
1f!
0f!
#180000
0!
0:
0;
#190000
1!
1:
1;
1G"
0H"
0b
0`
0a
1_
1c
1b
1a
0c
1d
0d
#200000
0!
0:
0;
#210000
1!
1:
1;
1H"
14!
1`
0_
17!
0b
0a
1K!
1c
1L!
#220000
0!
0:
0;
#230000
1!
1:
1;
1M!
0G"
0H"
04!
1b
0`
1a
1_
07!
0c
0a
0K!
0L!
#240000
0!
0:
0;
#250000
1!
1:
1;
1!"
0M!
1H"
03
1]!
0n!
1Z!
0o!
0T
1`
0,
0_
0a!
0^!
0p!
1[!
1a
1b!
0_!
0q!
1e!
0`!
1f!
#260000
0!
0:
0;
#270000
1!
1:
1;
1G"
0H"
0b
0`
0a
1_
1c
1b
1a
0c
1d
0d
#280000
0!
0:
0;
#290000
1!
1:
1;
1H"
14!
1`
0_
17!
0b
0a
1K!
1c
1L!
#300000
0!
0:
0;
#310000
1!
1:
1;
1M!
0G"
0H"
04!
1b
0`
1a
1_
07!
0c
0a
0K!
0L!
#320000
0!
0:
0;
#330000
1!
1:
1;
0!"
1}!
0~!
0M!
1H"
14
05
13
0]!
1n!
0Z!
1o!
1d!
1V
0b!
1a!
1^!
0[!
1X!
1`
1,
0*
1+
0_
0^!
1p!
1c!
1[!
0e!
1i!
0V
1b!
1_!
1a
0_!
0d!
1j!
0i!
1e!
1q!
1`!
0f!
0j!
0`!
1k!
1f!
0k!
#340000
0!
0:
0;
#350000
1!
1:
1;
1G"
0H"
0b
0`
0a
1_
1c
1b
1a
0c
1d
0d
#360000
0!
0:
0;
#370000
1!
1:
1;
1H"
14!
1`
0_
17!
0b
0a
1K!
1c
1L!
#380000
0!
0:
0;
#390000
1!
1:
1;
1M!
0G"
0H"
04!
1b
0`
1a
1_
07!
0c
0a
0K!
0L!
#400000
0!
0:
0;
#410000
1!
1:
1;
1!"
0M!
1H"
03
1]!
0n!
1Z!
0o!
1`
0,
0_
1^!
0p!
0c!
0[!
1a
1_!
1d!
0q!
1`!
#420000
0!
0:
0;
#430000
1!
1:
1;
1G"
0H"
0b
0`
0a
1_
1c
1b
1a
0c
1d
0d
#440000
0!
0:
0;
#450000
1!
1:
1;
1H"
14!
1`
0_
17!
0b
0a
1K!
1c
1L!
#460000
0!
0:
0;
#470000
1!
1:
1;
1M!
0G"
0H"
04!
1b
0`
1a
1_
07!
0c
0a
0K!
0L!
#480000
0!
0:
0;
#490000
1!
1:
1;
0!"
1~!
0M!
1H"
04
13
0]!
1n!
0Z!
1o!
0a!
0^!
1[!
0X!
1`
1,
0+
0_
1a!
1^!
1p!
0[!
1V
0b!
0_!
1a
0V
1b!
1_!
1i!
0e!
1q!
0`!
0i!
1e!
1j!
1`!
0f!
0j!
1f!
1k!
0k!
#500000
0$
0!
0J
0:
0;
0K
#510000
1!
1:
1;
1G"
0H"
0L
0b
0`
0a
1_
1c
1b
1a
0c
1d
0d
#520000
1$
0!
1J
0:
0;
1K
#530000
1!
1:
1;
1H"
0M
1L
14!
1`
0m!
1\!
0U
0_
17!
0b
0p!
0e!
0_!
0a
1K!
1c
0q!
0f!
1L!
#540000
0!
0:
0;
#550000
1!
1:
1;
1M!
0G"
0H"
1M
04!
1b
0`
1m!
0\!
1U
1a
1_
07!
0c
1p!
1e!
1_!
0a
0`!
0K!
1q!
1f!
1`!
0L!
#560000
0!
0:
0;
#570000
1!
1:
1;
1!"
0M!
1H"
03
1]!
0n!
1Z!
0o!
1`
0,
0_
0a!
0^!
0p!
1[!
1a
1V
0b!
0_!
0q!
1i!
0e!
0`!
1j!
0f!
1k!
#580000
0!
0:
0;
#590000
1!
1:
1;
1G"
0H"
0b
0`
0a
1_
1c
1b
1a
0c
1d
0d
#600000
0!
0:
0;
#610000
1!
1:
1;
1H"
14!
1`
0_
17!
0b
0a
1K!
1c
1L!
#620000
0!
0:
0;
#630000
1!
1:
1;
1M!
0G"
0H"
04!
1b
0`
1a
1_
07!
0c
0a
0K!
0L!
#640000
0!
0:
0;
#650000
1!
1:
1;
0!"
1|!
0}!
0~!
0M!
1H"
14
15
06
13
0]!
1n!
0Z!
1o!
1h!
0W
0i!
0d!
0V
1b!
1a!
1^!
0[!
1X!
1`
1,
0)
1*
1+
0_
0^!
1p!
1c!
1[!
0j!
1X
1e!
1W
1i!
0b!
1_!
1a
0_!
0g!
1d!
0X
1j!
0e!
1q!
1`!
0k!
1[
1f!
0h!
0`!
0[
1k!
0f!
#660000
0%
0!
0]
0:
0;
0^
0|!
16
1Y
1h!
0i!
1T
1)
0P!
1Z
0j!
1U!
1Q!
0k!
1V!
#670000
1!
1:
1;
1G"
0H"
0b
0`
0a
1_
1c
1b
1a
0c
1d
0d
#680000
0!
0:
0;
#690000
1!
1:
1;
1H"
14!
1`
0_
17!
0b
0a
1K!
1c
1L!
#700000
1%
0!
1]
0:
0;
#710000
1!
1:
1;
1M!
0G"
0H"
1^
04!
1b
0`
1a
1_
07!
0c
0a
0K!
0L!
#720000
0!
0:
0;
#730000
1!
1:
1;
1!"
0M!
1H"
03
1]!
0n!
1Z!
0o!
0T
1`
0,
0_
1^!
0p!
0c!
0[!
1a
1_!
1g!
0d!
0q!
0Y
0h!
1`!
1P!
0Z
0U!
0Q!
0V!
#740000
0!
0:
0;
#750000
1!
1:
1;
1G"
0H"
0b
0`
0a
1_
1c
1b
1a
0c
1d
0d
#760000
0!
0:
0;
#770000
1!
1:
1;
1H"
14!
1`
0_
17!
0b
0a
1K!
1c
1L!
#780000
0!
0:
0;
#790000
1!
1:
1;
1M!
0G"
0H"
04!
1b
0`
1a
1_
07!
0c
0a
0K!
0L!
#800000
0!
0:
0;
#810000
1!
1:
1;
0!"
1~!
0M!
1H"
04
13
0]!
1n!
0Z!
1o!
1T
0a!
0^!
1[!
0X!
1`
1,
0+
0_
1a!
1^!
1p!
0[!
1b!
0_!
1a
0b!
1_!
1e!
1q!
0`!
0e!
1`!
1f!
0f!
#820000
0!
0:
0;
#830000
1!
1:
1;
1G"
0H"
0b
0`
0a
1_
1c
1b
1a
0c
1d
0d
#840000
0!
0:
0;
#850000
1!
1:
1;
1H"
14!
1`
0_
17!
0b
0a
1K!
1c
1L!
#860000
0!
0:
0;
#870000
1!
1:
1;
1M!
0G"
0H"
04!
1b
0`
1a
1_
07!
0c
0a
0K!
0L!
#880000
0!
0:
0;
#890000
1!
1:
1;
1!"
0M!
1H"
03
1]!
0n!
1Z!
0o!
0T
1`
0,
0_
0a!
0^!
0p!
1[!
1a
1b!
0_!
0q!
1e!
0`!
1f!
#900000
0!
0:
0;
#910000
1!
1:
1;
1G"
0H"
0b
0`
0a
1_
1c
1b
1a
0c
1d
0d
#920000
0!
0:
0;
#930000
1!
1:
1;
1H"
14!
1`
0_
17!
0b
0a
1K!
1c
1L!
#940000
0!
0:
0;
#950000
1!
1:
1;
1M!
0G"
0H"
04!
1b
0`
1a
1_
07!
0c
0a
0K!
0L!
#960000
0!
0:
0;
#970000
1!
1:
1;
0!"
1}!
0~!
0M!
1H"
14
05
13
0]!
1n!
0Z!
1o!
1d!
1V
0b!
1a!
1^!
0[!
1X!
1`
1,
0*
1+
0_
0^!
1p!
1c!
1[!
0e!
1i!
0V
1b!
1_!
1a
0_!
0d!
1j!
0i!
1e!
1q!
1`!
0f!
0j!
0`!
1k!
1f!
0k!
#980000
0!
0:
0;
#990000
1!
1:
1;
1G"
0H"
0b
0`
0a
1_
1c
1b
1a
0c
1d
0d
