verilog/lab4/lab4_1/simulation/qsim/lab4_1.msim.vcd
$comment
	File created using the following command:
		vcd file lab4_1.msim.vcd -direction
$end
$date
	Sat Oct 05 16:19:13 2024
$end
$version
	ModelSim Version 10.5b
$end
$timescale
	1ps
$end

$scope module lab4_1_vlg_vec_tst $end
$var reg 1 ! clk $end
$var reg 1 " ena $end
$var reg 1 # srst $end
$var wire 1 $ cout $end

$scope module i1 $end
$var wire 1 % gnd $end
$var wire 1 & vcc $end
$var wire 1 ' unknown $end
$var tri1 1 ( devclrn $end
$var tri1 1 ) devpor $end
$var tri1 1 * devoe $end
$var wire 1 + cout~output_o $end
$var wire 1 , clk~input_o $end
$var wire 1 - clk~inputclkctrl_outclk $end
$var wire 1 . srst~input_o $end
$var wire 1 / count[0]~32_combout $end
$var wire 1 0 count[0]~36_combout $end
$var wire 1 1 ena~input_o $end
$var wire 1 2 count[0]~33 $end
$var wire 1 3 count[1]~34_combout $end
$var wire 1 4 count[1]~35 $end
$var wire 1 5 count[2]~37_combout $end
$var wire 1 6 count[2]~38 $end
$var wire 1 7 count[3]~39_combout $end
$var wire 1 8 count[3]~40 $end
$var wire 1 9 count[4]~41_combout $end
$var wire 1 : count[4]~42 $end
$var wire 1 ; count[5]~43_combout $end
$var wire 1 < count[5]~44 $end
$var wire 1 = count[6]~45_combout $end
$var wire 1 > count[6]~46 $end
$var wire 1 ? count[7]~47_combout $end
$var wire 1 @ count[7]~48 $end
$var wire 1 A count[8]~49_combout $end
$var wire 1 B count[8]~50 $end
$var wire 1 C count[9]~51_combout $end
$var wire 1 D count[9]~52 $end
$var wire 1 E count[10]~53_combout $end
$var wire 1 F count[10]~54 $end
$var wire 1 G count[11]~55_combout $end
$var wire 1 H count[11]~56 $end
$var wire 1 I count[12]~57_combout $end
$var wire 1 J count[12]~58 $end
$var wire 1 K count[13]~59_combout $end
$var wire 1 L count[13]~60 $end
$var wire 1 M count[14]~61_combout $end
$var wire 1 N count[14]~62 $end
$var wire 1 O count[15]~63_combout $end
$var wire 1 P count[15]~64 $end
$var wire 1 Q count[16]~65_combout $end
$var wire 1 R count[16]~66 $end
$var wire 1 S count[17]~67_combout $end
$var wire 1 T count[17]~68 $end
$var wire 1 U count[18]~69_combout $end
$var wire 1 V count[18]~70 $end
$var wire 1 W count[19]~71_combout $end
$var wire 1 X count[19]~72 $end
$var wire 1 Y count[20]~73_combout $end
$var wire 1 Z count[20]~74 $end
$var wire 1 [ count[21]~75_combout $end
$var wire 1 \ count[21]~76 $end
$var wire 1 ] count[22]~77_combout $end
$var wire 1 ^ count[22]~78 $end
$var wire 1 _ count[23]~79_combout $end
$var wire 1 ` count[23]~80 $end
$var wire 1 a count[24]~81_combout $end
$var wire 1 b count[24]~82 $end
$var wire 1 c count[25]~83_combout $end
$var wire 1 d count[25]~84 $end
$var wire 1 e count[26]~85_combout $end
$var wire 1 f count[26]~86 $end
$var wire 1 g count[27]~87_combout $end
$var wire 1 h count[27]~88 $end
$var wire 1 i count[28]~89_combout $end
$var wire 1 j count[28]~90 $end
$var wire 1 k count[29]~91_combout $end
$var wire 1 l count[29]~92 $end
$var wire 1 m count[30]~93_combout $end
$var wire 1 n count[30]~94 $end
$var wire 1 o count[31]~95_combout $end
$var wire 1 p Equal0~9_combout $end
$var wire 1 q Equal0~8_combout $end
$var wire 1 r Equal0~6_combout $end
$var wire 1 s Equal0~5_combout $end
$var wire 1 t Equal0~7_combout $end
$var wire 1 u Equal0~1_combout $end
$var wire 1 v Equal0~2_combout $end
$var wire 1 w Equal0~3_combout $end
$var wire 1 x Equal0~0_combout $end
$var wire 1 y Equal0~4_combout $end
$var wire 1 z Equal0~10_combout $end
$var wire 1 { cout~0_combout $end
$var wire 1 | cout~reg0_q $end
$var wire 1 } count [31] $end
$var wire 1 ~ count [30] $end
$var wire 1 !! count [29] $end
$var wire 1 "! count [28] $end
$var wire 1 #! count [27] $end
$var wire 1 $! count [26] $end
$var wire 1 %! count [25] $end
$var wire 1 &! count [24] $end
$var wire 1 '! count [23] $end
$var wire 1 (! count [22] $end
$var wire 1 )! count [21] $end
$var wire 1 *! count [20] $end
$var wire 1 +! count [19] $end
$var wire 1 ,! count [18] $end
$var wire 1 -! count [17] $end
$var wire 1 .! count [16] $end
$var wire 1 /! count [15] $end
$var wire 1 0! count [14] $end
$var wire 1 1! count [13] $end
$var wire 1 2! count [12] $end
$var wire 1 3! count [11] $end
$var wire 1 4! count [10] $end
$var wire 1 5! count [9] $end
$var wire 1 6! count [8] $end
$var wire 1 7! count [7] $end
$var wire 1 8! count [6] $end
$var wire 1 9! count [5] $end
$var wire 1 :! count [4] $end
$var wire 1 ;! count [3] $end
$var wire 1 <! count [2] $end
$var wire 1 =! count [1] $end
$var wire 1 >! count [0] $end
$upscope $end
$upscope $end
$enddefinitions $end
#0
$dumpvars
0!
0"
1#
0$
0%
1&
x'
1(
1)
1*
0+
0,
0-
1.
1/
00
01
02
03
14
05
06
07
18
09
0:
0;
1<
0=
0>
0?
1@
0A
0B
0C
1D
0E
0F
0G
1H
0I
0J
0K
1L
0M
0N
0O
1P
0Q
0R
0S
1T
0U
0V
0W
1X
0Y
0Z
0[
1\
0]
0^
0_
1`
0a
0b
0c
1d
0e
0f
0g
1h
0i
0j
0k
1l
0m
0n
0o
0p
0q
0r
0s
0t
0u
0v
0w
1x
1y
1z
0{
0|
0>!
0=!
0<!
0;!
0:!
09!
08!
07!
06!
05!
04!
03!
02!
01!
00!
0/!
0.!
0-!
0,!
0+!
0*!
0)!
0(!
0'!
0&!
0%!
0$!
0#!
0"!
0!!
0~
0}
$end
#10000
1!
1,
1-
#20000
1"
0!
11
0,
0-
#30000
1!
1,
1-
1>!
12
0/
13
#40000
0!
0,
0-
#50000
1!
1,
1-
1=!
0>!
04
02
03
1/
14
15
13
05
#60000
0!
0,
0-
#70000
1!
1,
1-
1>!
12
0/
04
03
15
#80000
0!
0,
0-
#90000
1!
1,
1-
1<!
0=!
0>!
16
14
02
05
13
1/
06
17
15
03
07
#100000
0!
0,
0-
#110000
1!
1,
1-
1>!
12
0/
13
#120000
0!
0,
0-
#130000
1!
1,
1-
1=!
0>!
04
02
03
1/
16
14
05
13
06
17
15
07
#140000
0!
0,
0-
#150000
1!
1,
1-
1>!
12
0/
04
03
16
05
17
#160000
0!
0,
0-
#170000
1!
1,
1-
1;!
0<!
0=!
0>!
08
06
14
02
07
15
13
1/
18
19
17
05
03
09
#180000
0!
0,
0-
#190000
1!
1,
1-
1>!
0x
12
0/
0y
13
0z
10
1{
#200000
0!
0,
0-
#210000
1!
1,
1-
0;!
0>!
1|
1+
1x
02
1$
07
1/
1y
03
1z
00
0{
#220000
0!
0,
0-
#230000
1!
1,
1-
1>!
0|
0+
12
0$
0/
13
#240000
0!
0,
0-
#250000
1!
1,
1-
1=!
0>!
04
02
03
1/
14
15
13
05
#260000
0!
0,
0-
#270000
1!
1,
1-
1>!
12
0/
04
03
15
#280000
0!
0,
0-
#290000
1!
1,
1-
1<!
0=!
0>!
16
14
02
05
13
1/
06
17
15
03
07
#300000
0!
0,
0-
#310000
1!
1,
1-
1>!
12
0/
13
#320000
0!
0,
0-
#330000
1!
1,
1-
1=!
0>!
04
02
03
1/
16
14
05
13
06
17
15
07
#340000
0!
0,
0-
#350000
1!
1,
1-
1>!
12
0/
04
03
16
05
17
#360000
0#
0!
0.
0,
0-
10
#370000
1!
1,
1-
0<!
0=!
0>!
06
14
02
15
13
1/
07
05
03
#380000
1#
0!
1.
0,
0-
00
#390000
1!
1,
1-
1>!
12
0/
13
#400000
0!
0,
0-
#410000
1!
1,
1-
1=!
0>!
04
02
03
1/
14
15
13
05
#420000
0!
0,
0-
#430000
1!
1,
1-
1>!
12
0/
04
03
15
#440000
0!
0,
0-
#450000
1!
1,
1-
1<!
0=!
0>!
16
14
02
05
13
1/
06
17
15
03
07
#460000
0!
0,
0-
#470000
1!
1,
1-
1>!
12
0/
13
#480000
0!
0,
0-
#490000
1!
1,
1-
1=!
0>!
04
02
03
1/
16
14
05
13
06
17
15
07
#500000
0!
0,
0-
#510000
1!
1,
1-
1>!
12
0/
04
03
16
05
17
#520000
0!
0,
0-
#530000
1!
1,
1-
1;!
0<!
0=!
0>!
08
06
14
02
07
15
13
1/
18
19
17
05
03
09
#540000
0!
0,
0-
#550000
1!
1,
1-
1>!
0x
12
0/
0y
13
0z
10
1{
#560000
0!
0,
0-
#570000
1!
1,
1-
0;!
0>!
1|
1+
1x
02
1$
07
1/
1y
03
1z
00
0{
#580000
0!
0,
0-
#590000
1!
1,
1-
1>!
0|
0+
12
0$
0/
13
#600000
0!
0,
0-
#610000
1!
1,
1-
1=!
0>!
04
02
03
1/
14
15
13
05
#620000
0"
0!
01
0,
0-
#630000
1!
1,
1-
#640000
0!
0,
0-
#650000
1!
1,
1-
#660000
0!
0,
0-
#670000
1!
1,
1-
#680000
0!
0,
0-
#690000
1!
1,
1-
#700000
0!
0,
0-
#710000
1!
1,
1-
#720000
0!
0,
0-
#730000
1!
1,
1-
#740000
0!
0,
0-
#750000
1!
1,
1-
#760000
0!
0,
0-
#770000
1!
1,
1-
#780000
0!
0,
0-
#790000
1!
1,
1-
#800000
0!
0,
0-
#810000
1!
1,
1-
#820000
0!
0,
0-
#830000
1!
1,
1-
#840000
0!
0,
0-
#850000
1!
1,
1-
#860000
0!
0,
0-
#870000
1!
1,
1-
#880000
0!
0,
0-
#890000
1!
1,
1-
#900000
0!
0,
0-
#910000
1!
1,
1-
#920000
0!
0,
0-
#930000
1!
1,
1-
#940000
0!
0,
0-
#950000
1!
1,
1-
#960000
0!
0,
0-
#970000
1!
1,
1-
#980000
0!
0,
0-
#990000
1!
1,
1-
